
<svg xmlns="http://www.w3.org/2000/svg" version="1.1" xmlns:xlink="http://www.w3.org/1999/xlink" preserveAspectRatio="none" x="0px" y="0px" width="127px" height="127px" viewBox="0 0 127 127">
<defs>
<radialGradient id="Gradient_1" gradientUnits="userSpaceOnUse" cx="0" cy="0" r="205.13750000000005" fx="0" fy="0" gradientTransform="matrix( 0.9999999999999998, 0, 0, 0.9999999999999998, 117.5,103.95) " spreadMethod="pad">
<stop  offset="0%" stop-color="#000000"/>

<stop  offset="100%" stop-color="#000000" stop-opacity="0"/>
</radialGradient>

<radialGradient id="Gradient_2" gradientUnits="userSpaceOnUse" cx="0" cy="0" r="193.95371749788663" fx="0" fy="0" gradientTransform="matrix( 0.8516206965808728, -0.524158553450298, 0.3778607646476205, 0.6141284711456891, 80.3,134.45) " spreadMethod="pad">
<stop  offset="0%" stop-color="#000000" stop-opacity="0.7803921568627451"/>

<stop  offset="100%" stop-color="#000000" stop-opacity="0"/>
</radialGradient>

<filter id="Filter_1" x="-20%" y="-20.6679794506324%" width="140%" height="141.3359589012648%" color-interpolation-filters="sRGB">
<feGaussianBlur in="SourceGraphic" stdDeviation="3.3333333333333335,3.3333333333333335" result="result1"/>

<feColorMatrix in="result1" type="matrix" values="0 0 0 0 0.19215686274509805 0 0 0 0 0.4588235294117647 0 0 0 0 0.18823529411764706 0 0 0 0.48 0" result="result2"/>
</filter>

<filter id="Filter_2" x="-20%" y="-20%" width="140%" height="140%" color-interpolation-filters="sRGB">
<feColorMatrix in="SourceGraphic" type="matrix" values="0 0 0 0 0.19215686274509805 0 0 0 0 0.4588235294117647 0 0 0 0 0.18823529411764706 0 0 0 1 0" result="result1"/>
</filter>

<filter id="Filter_3" x="-20%" y="-20%" width="140%" height="140%" color-interpolation-filters="sRGB">
<feColorMatrix in="SourceGraphic" type="matrix" values="1 0 0 0 0 0 1 0 0 0 0 0 1 0 0 0 0 0 0.09 0" result="result1"/>
</filter>

<g id="iconelemSchoolScience1_0_Layer6_0_FILL">
<path fill="#FFFFFF" stroke="none" d="
M 114.75 -3
L 3 -3
Q -3 -3 -3 3
L -3 114.75
Q -3 120.75 3 120.75
L 114.75 120.75
Q 120.75 120.75 120.75 114.75
L 120.75 3
Q 120.75 -3 114.75 -3
M 114.75 1
Q 116.75 1 116.75 3
L 116.75 114.75
Q 116.75 116.75 114.75 116.75
L 3 116.75
Q 1 116.75 1 114.75
L 1 3
Q 1 1 3 1
L 114.75 1 Z"/>
</g>

<g id="iconelemSchoolScience1_0_Layer5_0_FILL">
<path fill="#57BA56" stroke="none" d="
M 117.75 3
Q 117.75 0 114.75 0
L 3 0
Q 0 0 0 3
L 0 114.75
Q 0 117.75 3 117.75
L 114.75 117.75
Q 117.75 117.75 117.75 114.75
L 117.75 3 Z"/>
</g>

<g id="iconelemSchoolScience1_0_Layer4_0_FILL">
<path fill="#FFFFFF" fill-opacity="0.2" stroke="none" d="
M 117.75 38.2
L 117.75 3
Q 117.75 0 114.75 0
L 3 0
Q 0 0 0 3
L 0 38.2
Q 58.875 49.688671875 117.75 38.2 Z"/>
</g>

<g id="iconelemSchoolScience1_0_Layer3_0_FILL">
<path fill="#2E6C2D" stroke="none" d="
M 114.75 -1
L 3 -1
Q -1 -1 -1 3
L -1 114.75
Q -1 118.75 3 118.75
L 114.75 118.75
Q 118.75 118.75 118.75 114.75
L 118.75 3
Q 118.75 -1 114.75 -1
M 114.75 1
Q 116.75 1 116.75 3
L 116.75 114.75
Q 116.75 116.75 114.75 116.75
L 3 116.75
Q 1 116.75 1 114.75
L 1 3
Q 1 1 3 1
L 114.75 1 Z"/>
</g>

<g id="Mask_iconelemSchoolScience1_0_2_MASK_0_FILL">
<path fill="#FFFFFF" stroke="none" d="
M 116.75 3
Q 116.75 1 114.75 1
L 3 1
Q 1 1 1 3
L 1 114.75
Q 1 116.75 3 116.75
L 114.75 116.75
Q 116.75 116.75 116.75 114.75
L 116.75 3 Z"/>
</g>

<g id="elements_leafShadow_0_Layer0_0_FILL">
<path fill="url(#Gradient_1)" stroke="none" d="
M 217.4 -15.45
Q 216.05 -17.2 213.6 -17.2 159.1 43.4 159.1 62 159.1 64 157.7 70.7 157.7 72.7 156.1 82.5 156.1 85.95 158.15 90.5 159.1064453125 92.6677734375 160.3 94.15 160.3703125 96.8130859375 160.45 99.75 160.4 109.1 158.65 119.35 157.7 124.8 150.85 138.25 144.65 150.4 144.65 157.35 144.65 158.0857421875 144.7 158.8 117.1845703125 152.1 111.2 152.1 100.5 152.1 90.75 153.8 90.5810546875 153.82890625 90.4 153.85 89.58515625 148.6984375 85.05 140.2 80.15 130.95 76.3 127 52.1 102.4 43.2 102.4 35.4 102.4 32.8 103.75 29.4 105.5 29.4 111.2 29.4 117.15 36.7 127.25 44.5 138 51.9 140.4 52.8033203125 140.6962890625 53.8 141.2 51.7955078125 142.726171875 49.5 144.5 32.25 157.8 22.9 161.4 7.8 167.25 -19 175.1 -42.3 181.95 -43.9 182.9 -44.4 183.2 -54.15 189.6 -63.7 196.35 -63.7 199.2 -63.7 201.2 -63.4 200.4 -63.2 200.7 -61.2 200.7 -58.5 200.7 -47.95 195.15 -37.3 189.25 -35.9 188.6 -33 187.2 -5.05 179.4 26.1 170.65 37.2 166.8 54.496484375 156.3541015625 63.4 148.8 66.430859375 151.8171875 69.95 155.85 75.75 162.5 80.3 168.7 84.25 168.7 84.3 165.8 84.286328125 165.7353515625 84.25 165.65 88.695703125 167.3654296875 96.05 168.9 101 169.9 111.1 171.75 119.5 173.45 123 174.8 143.35 182.9 146.7 184.05 165.05 190.4 175.9 190.4 188.35 190.4 200.3 186.2 211.7 182.15 211.7 178.5 211.7 176.147265625 175 166.45 175.9625 164.4556640625 176.8 161.75 178.5140625 154.40390625 179.65 150.4 180.334765625 150.128515625 181 149.8 185.25 147.75 196.65 140.85 207.05 134.55 213.2 131.9 222.5 127.8 230.1 127.8 232.1 127.8 252.8 129.8 261.55 129.8 268.05 126.9 272.15 125.05 278.05 120.4 284.25 115.5 287.85 113.7 294.25 110.5 302.6 110.1 317.3 109.45 330.15 101.6 335.1 98.55 338.25 95.3 341.2 92.25 341.2 90.5 341.2 89.1 339.65 87.95 337.7 86.5 334.4 86.5 329.7 86.5 322.2 87.55 314.7 88.6 308.9 88.6 305.2 88.6 297.2 86.15 289.25 83.7 283.8 83.7 278.25 83.7 258.35 92.05 239.35 100.05 217.2 111.4 205.8705078125 117.209375 196.55 122.45 197 121.27109375 197 120.55 190.5 100.35 189.2 95.8 189.1541015625 95.5703125 186.75 83.15 188.2140625 81.925390625 189.7 80.6 194.15 77.9 207.25 72.3 221.4 66.2 229.9 61.5 231.15 60.8 258.45 44.8 285.1 28.15 285.1 23.2 285.1 20.95 283.65 19.35 281.65 17.1 277.6 17.1 250.15 22.8 247.4 22.8 245.2 22.6 244.7 22.6 244.2 22.5 244.2 20.5 244.2 18.4 249.35 9.25 254.5 0.05 254.5 0 254.5 -3.55 252.15 -4.8 249.85 -6 243.4 -6 225.65 -6 220.25 -11.6 218.25 -14.4 217.4 -15.45
M 259.5 31.5
L 258 32.2 257.9 31.75
Q 258.6845703125 31.6359375 259.5 31.5 Z"/>
</g>

<g id="elements_leaf_0_Layer3_0_FILL">
<path fill="#000000" stroke="none" d="
M 114.3 177.4
Q 113.8431640625 176.4984375 113.35 175.5 112.4537109375 173.6306640625 111.8 172.5 105.5224609375 182.1640625 94.8 187.3 81.7 193.5 68 198.7 55.3 203.35 43.15 209.25 31.4 215.05 21.3 223.45 11.2 231.95 2.05 241.6 -8.2 252.4 -14.7 265.85 -18.2052734375 273.0998046875 -21.7 281.4 -25.185546875 289.748828125 -29.6 292.35 -34.0158203125 294.953125 -34.45 296.65 -34.8443359375 298.3884765625 -34.85 298.65 -34.85 303.8 -29.4 302.25 -29.6 305 -26.85 305 -24.498046875 305.0046875 -23.15 304.45 -21.80625 303.8853515625 -20.45 301.65 -16.1576171875 297.2580078125 -14.2 288.1 -12.2392578125 278.9841796875 -8.9 271.65 -2.7037109375 258.06640625 7.3 247.05 16.2375 237.198046875 26.15 228.45 36.0591796875 219.8560546875 47.65 213.8 59.698828125 207.64375 72.3 202.7 85.8859375 197.2181640625 98.85 190.7 108.4369140625 185.8658203125 114.3 177.4 Z"/>
</g>

<g id="elements_leaf_0_Layer2_0_FILL">
<path fill="#000000" stroke="none" d="
M 334.5 126.85
Q 330.4 128.9 328.3 128.9 321.4 128.9 308.95 123.95 308.2 123.65 302.85 121.7 299.9 120.65 298.55 119.75 295.15 117.5 295.15 111.3 295.15 108.7080078125 295.5 106.55 253.8703125 141.55 246.75 141.55 241.7 141.55 236.7 139.25 231.681640625 136.614453125 227.25 134.4 229.69140625 130.5662109375 233.9 126.1 239.35 120.35 250.35 109.75 252.15 107.8 258.3 100.7 264.1 94.35 266.85 92.95 269.5 91.65 275.6 85.95 278.4744140625 83.2447265625 280.55 81.35 277.6169921875 82.2001953125 275.95 82.65 270.65 84.1 267.4 84.1 261.1 84.1 261.1 78.75 261.1 76.15 258.8 74.35 256.5 72.55 256.5 70.3 256.5 60.1298828125 267.35 45.7 262.9720703125 44.73515625 259.3 39.7 253.45 31.7 253.45 20.9 253.45 17 256.9 11.75 260.35 6.55 260.35 1.95 260.071875 0.909375 259.85 0 256.295703125 7.205078125 245.4 11.95 235.45 16.3 226.8 16.3 220.1853515625 16.3 216.05 7.6 214.22890625 13.5958984375 208.9 20.35 200.25 31.25 192.75 31.25 186.6 31.25 183.45 24.55 181.6 20.55 180.9 19.6 179.2 17.2 176.5 16.7
L 176.2 16.9
Q 177.5009765625 18.2275390625 178.45 20.05 180.35 23.75 180.35 28 180.35 33.65 175.7 46.1 171 58.65 166.55 64.6 156.1 80.2 154.3 82.6 154 83 148.85 85.5 143.95 87.9 143.95 88.7 145.1 90.65 145.1 90.8 145.1 91.9931640625 143.95 92.5 141.73984375 87.6787109375 139 74.35 135.55 57.7 135.55 51 137.583203125 41.45546875 138.5 36.85 136.9162109375 38.155078125 134.65 39.45 128.75 42.75 124.8 42.75 116.75 42.75 110.95 36.85 107 32.85 105.75 31.8 102.25 29 97.65 27.45 94.25 26.3 91.7 24 90.6 23 87.5 19.35 84.4724609375 15.7744140625 80.7 13.1 79.0466796875 11.97734375 77.25 11 78.6732421875 12.5564453125 79.75 14.6 80.5705078125 16.0521484375 81.2 17.75 82.65 21.75 82.65 25.35 82.65 32.75 75.75 37.55 70.7421875 41.019921875 63.65 42.2 63.9322265625 43.9208984375 64.3 46.4 64.3 49.35 61.1 55.8 58.3 61.55 57.2 62.5 54.4 64.9 49.95 66.7 43.45 69.2 38.35 69.2 37.4416015625 69.2 36.2 68.85 39.4908203125 72.8359375 41.3 77.7 42.2 80 43.65 84.75 45.05 89.05 46.75 92.15 49.3 96.85 54.35 103.45 55.8033203125 105.8998046875 56.45 108.65 53.750390625 109.5630859375 52.65 109.9 49.6 110.9 46.7 110.9 42.4 110.9 34.6 107.6 25.95 104 23.35 103.6 16.35 102.6 9.65 99.5 9.531640625 99.4458984375 9.4 99.4 9.3822265625 99.3712890625 9.35 99.35
L 9.35 99.35
Q 3.9662109375 96.9087890625 0 95.3 6.8419921875 104.01796875 15.8 114.45 27.05 127.55 30.6 132.35 33.75 136.65 38.75 144.85 43.65 152.9 46.05 156.2 54.6 167.55 65.85 167.55 66.85 167.55 72.15 166.8 72.7 166.8 77.8 167.6 82.9 168.35 85.2 168.35 88.6 168.35 91.6 167.4 94.65 166.4 96.05 166.4 100.55 166.4 104.95 174.5 106.970703125 178.219921875 107.9 181.75
L 109.5 181.75
Q 110.4 184.25 113 192.05 115.6 199.5 117.95 203.95 127.65 222.35 128.85 222.35 129.4 222.35 135.15 219.5 140.9 216.6 145.85 216.6 147.45 216.6 167 222.55 188.8 228.45 201.75 228.45 208.55 228.45 232.05 221.2 246.15 217.85 249.75 216.1 251.8392578125 215.090625 254.65 212.85
L 254.6 212.75
Q 247.75 212.75 239.3 207.9 234.4328125 205.09609375 232.25 202.2 233.81640625 201.180078125 235.7 199.7 241.1 195.4 243.9 192.05 246.75 188.6 251.3 187.4 254 186.7 259.6 185.95 262.95 185.25 267.15 179.2 271.35 173.2 273 172.9 276.75 172.15 281.3 169.85 286.3 167.3 288.7 164.5 294.5 157.8 303.5 153.7 307.15 152.05 320.45 147.65 323.35 146.7 323.4 144.7 323.5 142.05 323.9 141.55 325.1 140.1 330.8 136.95 338.3130859375 130.93203125 344.2 123.2 342.6587890625 123.6748046875 339.95 124.3 339.25 124.5 334.5 126.85
M 241.55 24.45
L 241.7 24.25
Q 241.8 24.25 241.8 24.95 241.8 25.95 230.3 43.55 228.4119140625 46.7794921875 226.75 49.55 222.164453125 57.4345703125 219.65 61.65 218.2966796875 63.912890625 216.75 66.3 217.4708984375 66.2896484375 218.5 66.1 222.58203125 65.34921875 231.95 61.9 244.4 57.3 250.5 53.55 243.85 58.3 235.9 61.7 232.7 63.05 219.15 67.9
L 215.75 67.9
Q 209.427734375 77.6326171875 200.35 89.3
L 195.75 95.35
Q 194.7373046875 96.606640625 193.7 97.9 189.93671875 102.5669921875 186.35 106.85 180.5802734375 113.778125 176 118.7 183.148046875 118.00625 190.85 115.7 202.706640625 112.232421875 211.45 109.8 220.1916015625 107.4029296875 235.2 100.4 250.2591796875 93.4564453125 254.95 90.7 249.507421875 94.6626953125 230.75 103.75 212.0001953125 112.880078125 202.45 115.05 192.8896484375 117.2255859375 177.2 121.05 177.7880859375 120.896484375 178.3 120.75 177.1625 121.04140625 176.15 121.3 174.3455078125 121.7826171875 173.1 122.1 167.2900390625 128.5599609375 162 133.85 158.1279296875 137.7220703125 154.2 141.35 155.95078125 140.88046875 157.95 140.4 160.987890625 139.7041015625 164.6 139 171.75 137.6 190.55 134.05 182.15 136.4 166.75 139.75 160.488671875 141.115625 156.15 142.1 154.06796875 142.58359375 152.4 142.95 140.5421875 153.792578125 128.2 162.4 125.64765625 164.1861328125 117.2 170.25 134.2158203125 154.89765625 146.25 144.15 146.303515625 144.10234375 146.35 144.05 146.641015625 143.801953125 146.9 143.55 145.9158203125 140.3234375 145.05 134.15 144.124609375 127.5408203125 144 122.75
L 144.15 114.5
Q 144.5671875 101.604296875 148.2 94.6 146.676171875 99.2865234375 146.4 101.55 146.0826171875 104.5244140625 145.25 112.35 144.4125 120.17890625 146.2 130.25 147.9904296875 140.3150390625 148.75 141.9 157.7314453125 133.833203125 165.55 126.2 165.697265625 123.42109375 166.35 116.2 167.4462890625 104.20546875 175.8 69.2 179.9384765625 51.964453125 184.6 33.55 185.012890625 34.6685546875 181.35 49.7 177.73359375 64.73515625 173.85 82.35 169.9595703125 99.96875 167.55 124.2 167.780078125 123.996875 167.95 123.8 182.5080078125 109.3703125 192.8 96.55 200.171875 87.3740234375 208.5 75.1 208.7857421875 68.95703125 208.95 63.9
L 209.1 54.2
Q 209.099609375 52.1205078125 209.05 50.35 209.05859375 49.9724609375 209.05 49.6 208.95 44.45 210.55 36.85 212.65 28.15 213.5 23.6
L 213.85 23.6
Q 213.95 23.95 213.95 24.6 213.95 25.1578125 213.8 26.2 213.3025390625 30.3884765625 210.7 42.4 210.5279296875 44.8525390625 210.55 48.45 210.62265625 53.2849609375 211.05 60.15 211.18828125 63.4677734375 211.15 66.2 211.096484375 69.388671875 210.8 71.75 210.92890625 71.582421875 211.05 71.4 214.9462890625 65.5689453125 219.05 59.1 236.75 31.2 241.55 24.45
M 196.25 169.2
Q 186.59921875 170.3646484375 178.05 171.3 152.109375 174.1451171875 136.35 174.9 130.79296875 175.15 126.5 175.15 125.025 175.1486328125 121.05 173.75 127.710546875 172.959375 162.3 170.05 192.56640625 167.5251953125 208.85 165.7 211.205859375 162.9791015625 216.25 155.65 220.75 149.2 230.55 142.9 219.8 153.45 217.2 156.85 215.1705078125 159.5501953125 211.65 165.4 211.966015625 165.3796875 212.25 165.35 218.94296875 164.5748046875 222.75 163.95 235.7 161.8 249.55 158.35 261.75 155.3 267.2 153.2 268.357421875 152.7572265625 270.2 152 270.209765625 151.984375 270.2 151.95 281.1 145.05 286.9 134.15 290.95 126.55 293.1 115.3
L 293.45 115.3 293.55 115.95
Q 293.55 116.5533203125 293.35 117.9 293.1564453125 119.119921875 292.8 120.95 292.8 125.4744140625 288.6 133.15 287.1630859375 135.8390625 285.2 138.9 280.5576171875 146.0927734375 276.55 149.45 276.896484375 149.344921875 277.2 149.2 278.840234375 148.5486328125 280.65 147.8 287.1126953125 145.1951171875 296.25 141.45 313.25 134.5 323.1 131.3 319.31640625 134.4619140625 312.05 137.8 305.5806640625 140.2470703125 297.4 143.55
L 297.35 143.55
Q 297.2908203125 143.61875 297.2 143.65 285.708203125 147.605859375 278.3 150.45 275.495703125 151.533984375 273.25 152.45 269.6818359375 153.937890625 267.65 155 256.390625 160.9369140625 215.7 166.65 216.825390625 166.841796875 217.6 167.1 217.7806640625 167.1650390625 217.95 167.25 219.047265625 167.6875 220.5 168.55 220.602734375 168.639453125 220.7 168.7 225.35 170.95 242.8 170.95 247.85 170.95 262.05 169.75 264.8 169.75 264.95 170.05 260.45 171.85 228.05 171.85 224.9587890625 171.850390625 223.05 171.3 221.1345703125 170.75078125 220 169.9 218.925 169.0451171875 212.05 167.1 210.29453125 167.4240234375 210.1 167.45 209.81796875 167.490625 209.5 167.5 203.187109375 168.363671875 196.25 169.2
M 170.75 194.8
Q 172.0388671875 195.2478515625 173.35 195.7 177.1560546875 196.898828125 184.15 200 191.1814453125 203.103125 207.05 207.75 217.6595703125 210.8548828125 238.7 212.65 235.90546875 212.5 235.65 212.5 216.6 212.5 197.4 206.75 192.45 205.25 169.3 196.35 168.2302734375 195.9435546875 163 194.2 161.0447265625 193.5416015625 158.5 192.7 151.9802734375 190.5189453125 141.6 187.1 141.0296875 186.91328125 140.45 186.7 140.5845703125 186.8755859375 140.7 187 141.618359375 188.334765625 142.5 190 146.1359375 196.70859375 149.45 209.2 148.6001953125 207.5130859375 147.75 205.9 140.4642578125 191.808984375 135.1 185.1 134.9568359375 184.9365234375 134.8 184.75 130.433984375 183.2046875 116.05 176.9 122.5962890625 178.4744140625 123.8 178.7 125.5189453125 179.2142578125 134.5 182.3 135.4984375 182.6443359375 136.55 183 145.446875 186.0732421875 155.7 189.55 160.3 190 168.55 190.45 185.4 190.45 206.1 184.9
L 227.4 182.1
Q 202.15 186.8 194.15 188.65 178.2 192.25 168.55 192.25
L 161.4 192
Q 162.8490234375 192.0814453125 165.15 192.85 167.877734375 193.8115234375 170.75 194.8
M 88.75 33.4
L 88.75 28.55 89.1 28.55
Q 90.15 35.1 96.3 64.7 100.85 86.6 101.8 100.35 101.843359375 101.0857421875 102.65 107.35 102.6703125 107.3888671875 102.65 107.4 103.3623046875 112.591796875 104.55 121.5 130.290625 108.7794921875 138.7 90.25 133.861328125 101.539453125 127.2 108.55 120.5505859375 115.5640625 104.9 124.05 105.4724609375 128.2765625 106.15 133.25 106.583984375 136.4318359375 106.95 139.35 107.146484375 139.51640625 107.15 140.65
L 107.1 140.6
Q 107.23359375 141.45859375 107.35 142.25 107.3822265625 142.6154296875 107.4 142.95 109.9708984375 162.8734375 110.1 172.05
L 110.05 172
Q 103.1232421875 160.8109375 89.25 154.3 75.3796875 147.7869140625 65.85 139.65 56.3162109375 131.567578125 47.25 127.15 38.2201171875 122.77890625 31.75 116.7 25.345703125 110.6703125 9.5 102.2 21.09921875 106.294921875 29.3 113.2 37.5572265625 120.1134765625 45.45 123.6 53.3798828125 127.150390625 63.7 135.55 74.08046875 143.9388671875 88.2 150.8 102.3154296875 157.667578125 107.75 164.5 106.2341796875 157.362109375 105.4 149.15 104.8712890625 144.00234375 104.6 141.65 98.1548828125 135.264453125 82.95 126.8 69.85 119.5 64.1 111.85
L 57.5 104.35
Q 73.4142578125 118.743359375 82.2 123.5 90.976171875 128.306640625 96 131.65 101.035546875 134.9875 102.6 136.15 104.1638671875 137.305859375 104.25 137.35 102.9638671875 131.35390625 102.6 125.95 102.4802734375 124.18984375 102.1 121.9
L 102.1 121.8
Q 95.5 118.9 86.35 108.55 77.15 96.85 74.45 94.15 66.95 85.7 62.6 81.5 55.2333984375 74.37421875 46.45 70.6 55.091796875 72.38984375 62.45 79.6 65.55 82.65 75.65 94.15 78.95 97.95 85.9 106.35 92.65234375 113.485546875 101.8 118.15 100.525 107.3146484375 97.4 83.1 92.5533203125 45.6005859375 88.75 33.4
M 14.65 102.95
Q 14.5630859375 102.91328125 14.45 102.85 14.5080078125 102.821875 14.55 102.85 14.6046875 102.941015625 14.65 102.95 Z"/>
</g>

<g id="elements_leaf_0_Layer1_0_FILL">
<path fill="url(#Gradient_2)" stroke="none" d="
M 334.5 126.85
Q 330.4 128.9 328.3 128.9 321.4 128.9 308.95 123.95 308.2 123.65 302.85 121.7 299.9 120.65 298.55 119.75 295.15 117.5 295.15 111.3 295.15 108.7080078125 295.5 106.55 253.8703125 141.55 246.75 141.55 241.7 141.55 236.7 139.25 231.681640625 136.614453125 227.25 134.4 229.69140625 130.5662109375 233.9 126.1 239.35 120.35 250.35 109.75 252.15 107.8 258.3 100.7 264.1 94.35 266.85 92.95 269.5 91.65 275.6 85.95 278.4744140625 83.2447265625 280.55 81.35 277.6169921875 82.2001953125 275.95 82.65 270.65 84.1 267.4 84.1 261.1 84.1 261.1 78.75 261.1 76.15 258.8 74.35 256.5 72.55 256.5 70.3 256.5 60.1298828125 267.35 45.7 262.9720703125 44.73515625 259.3 39.7 253.45 31.7 253.45 20.9 253.45 17 256.9 11.75 260.35 6.55 260.35 1.95 260.071875 0.909375 259.85 0 256.295703125 7.205078125 245.4 11.95 235.45 16.3 226.8 16.3 220.1853515625 16.3 216.05 7.6 214.22890625 13.5958984375 208.9 20.35 200.25 31.25 192.75 31.25 186.6 31.25 183.45 24.55 181.6 20.55 180.9 19.6 179.2 17.2 176.5 16.7
L 176.2 16.9
Q 177.5009765625 18.2275390625 178.45 20.05 180.35 23.75 180.35 28 180.35 33.65 175.7 46.1 171 58.65 166.55 64.6 156.1 80.2 154.3 82.6 154 83 148.85 85.5 143.95 87.9 143.95 88.7 145.1 90.65 145.1 90.8 145.1 91.9931640625 143.95 92.5 141.73984375 87.6787109375 139 74.35 135.55 57.7 135.55 51 137.583203125 41.45546875 138.5 36.85 136.9162109375 38.155078125 134.65 39.45 128.75 42.75 124.8 42.75 116.75 42.75 110.95 36.85 107 32.85 105.75 31.8 102.25 29 97.65 27.45 94.25 26.3 91.7 24 90.6 23 87.5 19.35 84.4724609375 15.7744140625 80.7 13.1 79.0466796875 11.97734375 77.25 11 78.6732421875 12.5564453125 79.75 14.6 80.5705078125 16.0521484375 81.2 17.75 82.65 21.75 82.65 25.35 82.65 32.75 75.75 37.55 70.7421875 41.019921875 63.65 42.2 63.9322265625 43.9208984375 64.3 46.4 64.3 49.35 61.1 55.8 58.3 61.55 57.2 62.5 54.4 64.9 49.95 66.7 43.45 69.2 38.35 69.2 37.4416015625 69.2 36.2 68.85 39.4908203125 72.8359375 41.3 77.7 42.2 80 43.65 84.75 45.05 89.05 46.75 92.15 49.3 96.85 54.35 103.45 55.8033203125 105.8998046875 56.45 108.65 53.750390625 109.5630859375 52.65 109.9 49.6 110.9 46.7 110.9 42.4 110.9 34.6 107.6 25.95 104 23.35 103.6 16.35 102.6 9.65 99.5 4.069921875 96.95078125 0 95.3 6.8419921875 104.01796875 15.8 114.45 27.05 127.55 30.6 132.35 33.75 136.65 38.75 144.85 43.65 152.9 46.05 156.2 54.6 167.55 65.85 167.55 66.85 167.55 72.15 166.8 72.7 166.8 77.8 167.6 82.9 168.35 85.2 168.35 88.6 168.35 91.6 167.4 94.65 166.4 96.05 166.4 100.55 166.4 104.95 174.5 106.970703125 178.219921875 107.9 181.75
L 109.5 181.75
Q 110.4 184.25 113 192.05 115.6 199.5 117.95 203.95 127.65 222.35 128.85 222.35 129.4 222.35 135.15 219.5 140.9 216.6 145.85 216.6 147.45 216.6 167 222.55 188.8 228.45 201.75 228.45 208.55 228.45 232.05 221.2 246.15 217.85 249.75 216.1 251.8392578125 215.090625 254.65 212.85
L 254.6 212.75
Q 247.75 212.75 239.3 207.9 234.4328125 205.09609375 232.25 202.2 233.81640625 201.180078125 235.7 199.7 241.1 195.4 243.9 192.05 246.75 188.6 251.3 187.4 254 186.7 259.6 185.95 262.95 185.25 267.15 179.2 271.35 173.2 273 172.9 276.75 172.15 281.3 169.85 286.3 167.3 288.7 164.5 294.5 157.8 303.5 153.7 307.15 152.05 320.45 147.65 323.35 146.7 323.4 144.7 323.5 142.05 323.9 141.55 325.1 140.1 330.8 136.95 338.3130859375 130.93203125 344.2 123.2 342.6587890625 123.6748046875 339.95 124.3 339.25 124.5 334.5 126.85 Z"/>
</g>

<g id="texture_0_Layer0_0_FILL">
<path fill="#FFFFFF" stroke="none" d="
M 111.85 105.85
L 114.4 103.3 114.4 98.2 106.75 105.85 111.85 105.85
M 27.15 19.25
L 27.15 19.85 27.8 19.25 27.15 19.25
M 37.8 19.25
L 32.75 19.25 27.15 24.8 27.15 29.9 37.8 19.25
M 47.85 19.25
L 42.75 19.25 27.15 34.85 27.15 39.95 47.85 19.25
M 57.9 19.25
L 52.8 19.25 27.15 44.9 27.15 50 57.9 19.25
M 67.95 19.25
L 62.85 19.25 27.15 54.95 27.15 60.05 67.95 19.25
M 78 19.25
L 72.9 19.25 27.15 65 27.15 70.05 78 19.25
M 114.4 53.1
L 114.4 48 56.55 105.85 61.65 105.85 114.4 53.1
M 114.4 93.25
L 114.4 88.15 96.7 105.85 101.8 105.85 114.4 93.25
M 114.4 73.2
L 114.4 68.1 76.65 105.85 81.75 105.85 114.4 73.2
M 114.4 83.2
L 114.4 78.15 86.7 105.85 91.75 105.85 114.4 83.2
M 114.4 63.15
L 114.4 58.05 66.6 105.85 71.7 105.85 114.4 63.15
M 114.4 33
L 114.4 27.9 36.5 105.85 41.55 105.85 114.4 33
M 114.4 19.25
L 113.05 19.25 27.15 105.15 27.15 105.65 27.35 105.85 31.55 105.85 114.4 22.95 114.4 19.25
M 108.1 19.25
L 103 19.25 27.15 95.1 27.15 100.2 108.1 19.25
M 98.05 19.25
L 93 19.25 27.15 85.05 27.15 90.15 98.05 19.25
M 88.05 19.25
L 82.95 19.25 27.15 75 27.15 80.1 88.05 19.25
M 114.4 43.05
L 114.4 37.95 46.5 105.85 51.6 105.85 114.4 43.05 Z"/>
</g>

<path id="elements_leaf_0_Layer0_0_1_STROKES" stroke="#000000" stroke-width="3" stroke-linejoin="round" stroke-linecap="round" fill="none" d="
M 339.95 124.3
Q 342.6587890625 123.6748046875 344.225 123.2 338.3130859375 130.93203125 330.8 136.95 325.1 140.1 323.9 141.55 323.5 142.05 323.4 144.7 323.35 146.7 320.45 147.65 307.15 152.05 303.5 153.7 294.5 157.8 288.7 164.5 286.3 167.3 281.3 169.85 276.75 172.15 273 172.9 271.35 173.2 267.15 179.2 262.95 185.25 259.6 185.95 254 186.7 251.3 187.4 246.75 188.6 243.9 192.05 241.1 195.4 235.7 199.7 233.81640625 201.180078125 232.25 202.225 234.4328125 205.09609375 239.3 207.9 247.75 212.75 254.6 212.75
L 254.65 212.85
Q 251.8392578125 215.090625 249.75 216.1 246.15 217.85 232.05 221.2 208.55 228.45 201.75 228.45 188.8 228.45 167 222.55 147.45 216.6 145.85 216.6 140.9 216.6 135.15 219.5 129.4 222.35 128.85 222.35 127.65 222.35 117.95 203.95 115.6 199.5 113 192.05 110.4 184.25 109.5 181.75
L 107.925 181.75
Q 106.970703125 178.219921875 104.95 174.5 100.55 166.4 96.05 166.4 94.65 166.4 91.6 167.4 88.6 168.35 85.2 168.35 82.9 168.35 77.8 167.6 72.7 166.8 72.15 166.8 66.85 167.55 65.85 167.55 54.6 167.55 46.05 156.2 43.65 152.9 38.75 144.85 33.75 136.65 30.6 132.35 27.05 127.55 15.8 114.45 6.8419921875 104.01796875 0 95.3 4.069921875 96.95078125 9.65 99.5 16.35 102.6 23.35 103.6 25.95 104 34.6 107.6 42.4 110.9 46.7 110.9 49.6 110.9 52.65 109.9 53.750390625 109.5630859375 56.45 108.65 55.8033203125 105.8998046875 54.35 103.45 49.3 96.85 46.75 92.15 45.05 89.05 43.65 84.75 42.2 80 41.3 77.7 39.4908203125 72.8359375 36.225 68.85 37.4416015625 69.2 38.35 69.2 43.45 69.2 49.95 66.7 54.4 64.9 57.2 62.5 58.3 61.55 61.1 55.8 64.3 49.35 64.3 46.4 63.9322265625 43.9208984375 63.675 42.2 70.7421875 41.019921875 75.75 37.55 82.65 32.75 82.65 25.35 82.65 21.75 81.2 17.75 80.5705078125 16.0521484375 79.775 14.6 78.6732421875 12.5564453125 77.25 11 79.0466796875 11.97734375 80.7 13.125 84.4724609375 15.7744140625 87.5 19.35 90.6 23 91.7 24 94.25 26.3 97.65 27.45 102.25 29 105.75 31.8 107 32.85 110.95 36.85 116.75 42.75 124.8 42.75 128.75 42.75 134.65 39.45 136.9162109375 38.155078125 138.525 36.875 137.583203125 41.45546875 135.55 51 135.55 57.7 139 74.35 141.73984375 87.6787109375 143.975 92.5 145.1 91.9931640625 145.1 90.8 145.1 90.65 143.95 88.7 143.95 87.9 148.85 85.5 154 83 154.3 82.6 156.1 80.2 166.55 64.6 171 58.65 175.7 46.1 180.35 33.65 180.35 28 180.35 23.75 178.45 20.05 177.5009765625 18.2275390625 176.225 16.925
L 176.5 16.7
Q 179.2 17.2 180.9 19.6 181.6 20.55 183.45 24.55 186.6 31.25 192.75 31.25 200.25 31.25 208.9 20.35 214.22890625 13.5958984375 216.075 7.625 220.1853515625 16.3 226.8 16.3 235.45 16.3 245.4 11.95 256.295703125 7.205078125 259.85 0 260.071875 0.909375 260.35 1.95 260.35 6.55 256.9 11.75 253.45 17 253.45 20.9 253.45 31.7 259.3 39.7 262.9720703125 44.73515625 267.375 45.7 256.5 60.1298828125 256.5 70.3 256.5 72.55 258.8 74.35 261.1 76.15 261.1 78.75 261.1 84.1 267.4 84.1 270.65 84.1 275.95 82.65 277.6169921875 82.2001953125 280.55 81.35 278.4744140625 83.2447265625 275.6 85.95 269.5 91.65 266.85 92.95 264.1 94.35 258.3 100.7 252.15 107.8 250.35 109.75 239.35 120.35 233.9 126.1 229.69140625 130.5662109375 227.275 134.4 231.681640625 136.614453125 236.7 139.25 241.7 141.55 246.75 141.55 253.8703125 141.55 295.525 106.575 295.15 108.7080078125 295.15 111.3 295.15 117.5 298.55 119.75 299.9 120.65 302.85 121.7 308.2 123.65 308.95 123.95 321.4 128.9 328.3 128.9 330.4 128.9 334.5 126.85 339.25 124.5 339.95 124.3 Z"/>
</defs>

<g id="thumbnail_mc" transform="matrix( 1.0109100341796875, 0, 0, 1.0109100341796875, 4.05,4.05) ">
<g transform="matrix( 1, 0, 0, 1, 0,0) ">
<use xlink:href="#iconelemSchoolScience1_0_Layer6_0_FILL"/>
</g>

<g transform="matrix( 1, 0, 0, 1, 0,0) ">
<use xlink:href="#iconelemSchoolScience1_0_Layer5_0_FILL"/>
</g>

<g transform="matrix( 1, 0, 0, 1, 0,0) ">
<use xlink:href="#iconelemSchoolScience1_0_Layer4_0_FILL"/>
</g>

<g transform="matrix( 1, 0, 0, 1, 0,0) ">
<use xlink:href="#iconelemSchoolScience1_0_Layer3_0_FILL"/>
</g>

<mask id="Mask_Mask_1">
<g transform="matrix( 1, 0, 0, 1, 0,0) ">
<use xlink:href="#Mask_iconelemSchoolScience1_0_2_MASK_0_FILL"/>
</g>
</mask>

<g mask="url(#Mask_Mask_1)">
<g transform="matrix( 0.3429718017578125, -0.163665771484375, 0.163665771484375, 0.3429718017578125, -17.8,40.75) ">
<g filter="url(#Filter_1)" transform="matrix( 2.3492584228515625, 1.1210784912109375, -1.1210784912109375, 2.3492584228515625, 83.3,-90.6) ">
<g transform="matrix( 0.2975311279296875, -0.1419830322265625, 0.1519622802734375, 0.318450927734375, 17.7,57.25) ">
<g transform="matrix( 1, 0, 0, 1, 0,0) ">
<use xlink:href="#elements_leafShadow_0_Layer0_0_FILL"/>
</g>
</g>
</g>

<g transform="matrix( 1, 0, 0, 1, 0,0) ">
<use filter="url(#Filter_2)" xlink:href="#elements_leaf_0_Layer3_0_FILL"/>
</g>

<g transform="matrix( 1, 0, 0, 1, 0,0) ">
<use filter="url(#Filter_2)" xlink:href="#elements_leaf_0_Layer2_0_FILL"/>
</g>

<g transform="matrix( 1, 0, 0, 1, 0,0) ">
<use filter="url(#Filter_2)" xlink:href="#elements_leaf_0_Layer1_0_FILL"/>
</g>

<g transform="matrix( 1, 0, 0, 1, 0,0) ">
<use filter="url(#Filter_2)" xlink:href="#elements_leaf_0_Layer0_0_1_STROKES"/>
</g>
</g>
</g>

<g transform="matrix( 1.35797119140625, 0, 0, 1.35797119140625, -30.8,-42.35) ">
<g transform="matrix( 1, 0, 0, 1, -4.55,11.8) ">
<use filter="url(#Filter_3)" xlink:href="#texture_0_Layer0_0_FILL"/>
</g>
</g>
</g>
</svg>
