
<svg xmlns="http://www.w3.org/2000/svg" version="1.1" xmlns:xlink="http://www.w3.org/1999/xlink" preserveAspectRatio="none" x="0px" y="0px" width="251px" height="251px" viewBox="0 0 251 251">
<defs>
<radialGradient id="Gradient_1" gradientUnits="userSpaceOnUse" cx="0" cy="0" r="38.75" fx="0" fy="0" gradientTransform="matrix( 1, 0, 0, 0.9958064516129033, 22.5,23.75) " spreadMethod="pad">
<stop  offset="53.333333333333336%" stop-color="#FF6600"/>

<stop  offset="100%" stop-color="#BA4A01" stop-opacity="0.9019607843137255"/>
</radialGradient>

<radialGradient id="Gradient_2" gradientUnits="userSpaceOnUse" cx="0" cy="0" r="437.15966566147205" fx="0" fy="0" gradientTransform="matrix( 0.7700275813200843, -0.6380105986630168, 0.6126766054565707, 0.739432352504173, 4.15,4.15) " spreadMethod="pad">
<stop  offset="0.7843137254901961%" stop-color="#FFFFFF" stop-opacity="0.5019607843137255"/>

<stop  offset="12.549019607843137%" stop-color="#FFFFFF" stop-opacity="0.2"/>

<stop  offset="35.294117647058826%" stop-color="#FFFFFF" stop-opacity="0.10196078431372549"/>
</radialGradient>

<filter id="Filter_1" x="-20%" y="-20%" width="140%" height="140%" color-interpolation-filters="sRGB">
<feFlood flood-color="#000000" flood-opacity="1" in="SourceGraphic" result="result1"/>

<feComposite in2="SourceGraphic" in="result1" operator="in" result="result2"/>

<feGaussianBlur in="result2" stdDeviation="2.6666666666666665,2.6666666666666665" result="result3"/>

<feOffset dx="3.5355339059327378" dy="3.5355339059327378" in="result3" result="result4"/>
</filter>

<filter id="Filter_2" x="-20%" y="-20%" width="140%" height="140%" color-interpolation-filters="sRGB">
<feFlood flood-color="#7E3F14" flood-opacity="1" in="SourceGraphic" result="result1"/>

<feComposite in2="SourceGraphic" in="result1" operator="in" result="result2"/>

<feGaussianBlur in="result2" stdDeviation="1.6666666666666667,1.6666666666666667" result="result3"/>

<feOffset dx="-0.15700786872883293" dy="-2.9958886042637216" in="result3" result="result4"/>

<feComposite in2="result4" in="SourceGraphic" operator="over" result="result5"/>
</filter>

<filter id="Filter_3" x="-20%" y="-20%" width="140%" height="140%" color-interpolation-filters="sRGB">
<feFlood flood-color="#7C3C10" flood-opacity="1" in="SourceGraphic" result="result1"/>

<feComposite in2="SourceGraphic" in="result1" operator="in" result="result2"/>

<feGaussianBlur in="result2" stdDeviation="1.6666666666666667,1.6666666666666667" result="result3"/>

<feOffset dx="-2.3314373815763565" dy="-1.8879617940489108" in="result3" result="result4"/>

<feComposite in2="result4" in="SourceGraphic" operator="over" result="result5"/>
</filter>

<filter id="Filter_4" x="-20%" y="-20%" width="140%" height="140%" color-interpolation-filters="sRGB">
<feFlood flood-color="#7E3F14" flood-opacity="1" in="SourceGraphic" result="result1"/>

<feComposite in2="SourceGraphic" in="result1" operator="in" result="result2"/>

<feGaussianBlur in="result2" stdDeviation="1.6666666666666667,1.6666666666666667" result="result3"/>

<feOffset dx="0.469303395120692" dy="-2.9630650217854133" in="result3" result="result4"/>

<feComposite in2="result4" in="SourceGraphic" operator="over" result="result5"/>

<feColorMatrix in="result5" type="matrix" values="1 0 0 0 0 0 1 0 0 0 0 0 1 0 0 0 0 0 0.95 0" result="result6"/>
</filter>

<g id="shadow2_0_Layer0_0_FILL">
<path fill="#FF0000" stroke="none" d="
M 244 30.9
Q 244 11.9 225 11.9
L 30.9 11.9
Q 11.9 11.9 11.9 30.9
L 11.9 225
Q 11.9 244 30.9 244
L 225 244
Q 244 244 244 225
L 244 30.9 Z"/>
</g>

<g id="Mask_icon_Chemistry_0_8_MASK_0_FILL">
<path fill="#FFFFFF" stroke="none" d="
M 235.65 23.1
Q 235.6494140625 4.1625 216.7 4.15
L 23.1 4.15
Q 4.1625 4.1625 4.15 23.1
L 4.15 216.7
Q 4.1625 235.6494140625 23.1 235.65
L 216.7 235.65
Q 235.6494140625 235.6494140625 235.65 216.7
L 235.65 23.1 Z"/>
</g>

<g id="square_0_Layer0_0_FILL">
<path fill="#FFFFFF" stroke="none" d="
M 244.35 11.6
L 11.6 11.6 11.6 244.35 244.35 244.35 244.35 11.6 Z"/>
</g>

<g id="Orange_circle_0_Layer0_0_FILL">
<path fill="url(#Gradient_1)" stroke="none" d="
M 54.95 37.3
Q 58.590625 26.2318359375 53.55 15.7 48.349609375 5.1994140625 37.15 1.55 26.10703125 -2.19765625 15.75 3 5.2375 8.1841796875 1.6 19.2 -2.1609375 30.2822265625 3.05 40.8 8.0751953125 51.15703125 19.25 54.9 30.3056640625 58.5658203125 40.8 53.5 51.1802734375 48.341796875 54.95 37.3 Z"/>
</g>

<g id="icon_Chemistry_0_Layer1_0_FILL">
<path fill="url(#Gradient_2)" stroke="none" d="
M 227.2 30
Q 227.230078125 12.3939453125 209.65 12.35
L 30 12.35
Q 12.3939453125 12.3939453125 12.35 30
L 12.35 209.65
Q 12.3939453125 227.230078125 30 227.2
L 209.65 227.2
Q 227.230078125 227.230078125 227.2 209.65
L 227.2 30 Z"/>
</g>
</defs>

<g transform="matrix( 1.000213623046875, 0, 0, 1, -31.5,-28.7) ">
<g filter="url(#Filter_1)" transform="matrix( 0.999786376953125, 0, 0, 1, 31.45,28.7) ">
<g transform="matrix( 1.0091400146484375, 0, 0, 1.0089263916015625, 125.55,125.3) ">
<g transform="matrix( 1, 0, 0, 1, -127.95,-127.95) ">
<use xlink:href="#shadow2_0_Layer0_0_FILL"/>
</g>
</g>
</g>

<mask id="Mask_Mask_1">
<g transform="matrix( 1, 0, 0, 1, 28.35,25.55) ">
<use xlink:href="#Mask_icon_Chemistry_0_8_MASK_0_FILL"/>
</g>
</mask>

<g mask="url(#Mask_Mask_1)">
<g transform="matrix( 0.9947509765625, 0, 0, 0.9947509765625, 148.25,145.45) ">
<g transform="matrix( 1, 0, 0, 1, -127.95,-127.95) ">
<use xlink:href="#square_0_Layer0_0_FILL"/>
</g>
</g>
</g>

<g mask="url(#Mask_Mask_1)">
<g transform="matrix( 1.737884521484375, 0, 0, 1.7397003173828125, 97.35,-0.1) ">
<g transform="matrix( 1, 0, 0, 1, 0,0) ">
<use xlink:href="#Orange_circle_0_Layer0_0_FILL"/>
</g>
</g>
</g>

<g mask="url(#Mask_Mask_1)">
<g transform="matrix( 2.7344512939453125, 0, 0, 2.7344512939453125, 180.35,26.7) ">
<g transform="matrix( 1, 0, 0, 1, 0,0) ">
<use xlink:href="#Orange_circle_0_Layer0_0_FILL"/>
</g>
</g>
</g>

<g mask="url(#Mask_Mask_1)">
<g filter="url(#Filter_2)" transform="matrix( 0.999786376953125, 0, 0, 1, 31.45,28.7) ">
<g transform="matrix( 3.15985107421875, 0, 0, 3.1624908447265625, -31.5,23.2) ">
<g transform="matrix( 1, 0, 0, 1, 0,0) ">
<use xlink:href="#Orange_circle_0_Layer0_0_FILL"/>
</g>
</g>
</g>
</g>

<g mask="url(#Mask_Mask_1)">
<g filter="url(#Filter_3)" transform="matrix( 0.999786376953125, 0, 0, 1, 31.45,28.7) ">
<g transform="matrix( 2.5570526123046875, 0, 0, 2.5565185546875, 89.2,119.85) ">
<g transform="matrix( 1, 0, 0, 1, 0,0) ">
<use xlink:href="#Orange_circle_0_Layer0_0_FILL"/>
</g>
</g>
</g>
</g>

<g mask="url(#Mask_Mask_1)">
<g filter="url(#Filter_4)" transform="matrix( 0.999786376953125, 0, 0, 1, 31.45,28.7) ">
<g transform="matrix( 1.4366302490234375, 0, 0, 1.437835693359375, 3.2,185.6) ">
<g transform="matrix( 1, 0, 0, 1, 0,0) ">
<use xlink:href="#Orange_circle_0_Layer0_0_FILL"/>
</g>
</g>
</g>
</g>

<g transform="matrix( 1, 0, 0, 1, 28.35,25.55) ">
<use xlink:href="#icon_Chemistry_0_Layer1_0_FILL"/>
</g>
</g>
</svg>
