
<svg xmlns="http://www.w3.org/2000/svg" version="1.1" xmlns:xlink="http://www.w3.org/1999/xlink" preserveAspectRatio="none" x="0px" y="0px" width="127px" height="127px" viewBox="0 0 127 127">
<defs>
<radialGradient id="Gradient_1" gradientUnits="userSpaceOnUse" cx="0" cy="0" r="300.7375" fx="0" fy="0" gradientTransform="matrix( 1, 0, 0, 0.4029261399060643, 62.7,117.75) " spreadMethod="pad">
<stop  offset="21.176470588235293%" stop-color="#FD0BFD"/>

<stop  offset="100%" stop-color="#330033"/>
</radialGradient>

<filter id="Filter_1" x="-22.528739199803592%" y="-24.467673704819717%" width="145.0574783996072%" height="148.93534740963943%" color-interpolation-filters="sRGB">
<feFlood flood-color="#FFFFFF" flood-opacity="1" in="SourceGraphic" result="result1"/>

<feComposite in2="SourceGraphic" in="result1" operator="in" result="result2"/>

<feGaussianBlur in="result2" stdDeviation="2.3333333333333335,2.3333333333333335" result="result3"/>

<feComposite in2="SourceGraphic" in="result3" operator="out" result="result4"/>
</filter>

<filter id="Filter_2" x="-20%" y="-20%" width="140%" height="140%" color-interpolation-filters="sRGB">
<feColorMatrix in="SourceGraphic" type="matrix" values="1 0 0 0 0 0 1 0 0 0 0 0 1 0 0 0 0 0 0.09 0" result="result1"/>
</filter>

<g id="iconPhysics_0_Layer6_0_FILL">
<path fill="#FFFFFF" stroke="none" d="
M 114.75 -3
L 3 -3
Q -3 -3 -3 3
L -3 114.75
Q -3 120.75 3 120.75
L 114.75 120.75
Q 120.75 120.75 120.75 114.75
L 120.75 3
Q 120.75 -3 114.75 -3
M 114.75 1
Q 116.75 1 116.75 3
L 116.75 114.75
Q 116.75 116.75 114.75 116.75
L 3 116.75
Q 1 116.75 1 114.75
L 1 3
Q 1 1 3 1
L 114.75 1 Z"/>
</g>

<g id="iconPhysics_0_Layer5_0_FILL">
<path fill="url(#Gradient_1)" stroke="none" d="
M 117.75 3
Q 117.75 0 114.75 0
L 3 0
Q 0 0 0 3
L 0 114.75
Q 0 117.75 3 117.75
L 114.75 117.75
Q 117.75 117.75 117.75 114.75
L 117.75 3 Z"/>
</g>

<g id="iconPhysics_0_Layer4_0_FILL">
<path fill="#FFFFFF" fill-opacity="0.2" stroke="none" d="
M 117.75 38.2
L 117.75 3
Q 117.75 0 114.75 0
L 3 0
Q 0 0 0 3
L 0 38.2
Q 58.875 49.688671875 117.75 38.2 Z"/>
</g>

<g id="prism_0_Layer0_0_FILL">
<path fill="#000000" stroke="none" d="
M 56.95 11
L 1.7 106.7 112.2 106.7 56.95 11 Z"/>
</g>

<g id="prismGroup_0_Layer0_0_FILL">
<path fill="#FFFFFF" stroke="none" d="
M 26.1 28.6
L 27.6 26.05 -13.35 31.95 -13.35 34.4 26.1 28.6 Z"/>

<path fill="#FFFFFF" fill-opacity="0.5019607843137255" stroke="none" d="
M 51.9 31
L 51.3 30 50.5 28.6 49.85 27.45 49.5 27.4 27.65 26.05 27.6 26.05 26.1 28.6 26.1 28.7 53.05 33 53 32.95 52.7 32.4 51.9 31 Z"/>

<path fill="#FFFFFF" fill-opacity="0.9019607843137255" stroke="none" d="
M 89.4 49.9
L 89.4 46.4 52.7 32.4 53 32.95 89.4 49.9
M 89.4 43.35
L 89.4 40.2 51.3 30 51.9 31 89.4 43.35
M 89.4 37.35
L 89.4 34.2 49.85 27.45 50.5 28.6 89.4 37.35 Z"/>

<path fill="#FFFFFF" fill-opacity="0.7019607843137254" stroke="none" d="
M 89.4 52.95
L 89.4 49.9 53 32.95 53.05 33 89.4 52.95
M 89.4 46.4
L 89.4 43.35 51.9 31 52.7 32.4 89.4 46.4
M 89.4 40.2
L 89.4 37.35 50.5 28.6 51.3 30 89.4 40.2 Z"/>
</g>

<g id="texture_0_Layer0_0_FILL">
<path fill="#FFFFFF" stroke="none" d="
M 111.85 105.85
L 114.4 103.3 114.4 98.2 106.75 105.85 111.85 105.85
M 37.8 19.25
L 32.75 19.25 27.15 24.8 27.15 29.9 37.8 19.25
M 27.15 19.25
L 27.15 19.85 27.8 19.25 27.15 19.25
M 78 19.25
L 72.9 19.25 27.15 65 27.15 70.05 78 19.25
M 67.95 19.25
L 62.85 19.25 27.15 54.95 27.15 60.05 67.95 19.25
M 57.9 19.25
L 52.8 19.25 27.15 44.9 27.15 50 57.9 19.25
M 47.85 19.25
L 42.75 19.25 27.15 34.85 27.15 39.95 47.85 19.25
M 114.4 53.1
L 114.4 48 56.55 105.85 61.65 105.85 114.4 53.1
M 114.4 63.15
L 114.4 58.05 66.6 105.85 71.7 105.85 114.4 63.15
M 114.4 83.2
L 114.4 78.15 86.7 105.85 91.75 105.85 114.4 83.2
M 114.4 73.2
L 114.4 68.1 76.65 105.85 81.75 105.85 114.4 73.2
M 114.4 93.25
L 114.4 88.15 96.7 105.85 101.8 105.85 114.4 93.25
M 114.4 43.05
L 114.4 37.95 46.5 105.85 51.6 105.85 114.4 43.05
M 88.05 19.25
L 82.95 19.25 27.15 75 27.15 80.1 88.05 19.25
M 98.05 19.25
L 93 19.25 27.15 85.05 27.15 90.15 98.05 19.25
M 108.1 19.25
L 103 19.25 27.15 95.1 27.15 100.2 108.1 19.25
M 114.4 19.25
L 113.05 19.25 27.15 105.15 27.15 105.65 27.35 105.85 31.55 105.85 114.4 22.95 114.4 19.25
M 114.4 33
L 114.4 27.9 36.5 105.85 41.55 105.85 114.4 33 Z"/>
</g>

<g id="iconPhysics_0_Layer1_0_FILL">
<path fill="#590459" stroke="none" d="
M 114.75 -1
L 3 -1
Q -1 -1 -1 3
L -1 114.75
Q -1 118.75 3 118.75
L 114.75 118.75
Q 118.75 118.75 118.75 114.75
L 118.75 3
Q 118.75 -1 114.75 -1
M 114.75 1
Q 116.75 1 116.75 3
L 116.75 114.75
Q 116.75 116.75 114.75 116.75
L 3 116.75
Q 1 116.75 1 114.75
L 1 3
Q 1 1 3 1
L 114.75 1 Z"/>
</g>
</defs>

<g transform="matrix( 1.010101318359375, 0, 0, 1.0100860595703125, 4.05,4.05) ">
<g transform="matrix( 1, 0, 0, 1, 0,0) ">
<use xlink:href="#iconPhysics_0_Layer6_0_FILL"/>
</g>

<g transform="matrix( 1, 0, 0, 1, 0,0) ">
<use xlink:href="#iconPhysics_0_Layer5_0_FILL"/>
</g>

<g transform="matrix( 1, 0, 0, 1, 0,0) ">
<use xlink:href="#iconPhysics_0_Layer4_0_FILL"/>
</g>

<g transform="matrix( 1.1212158203125, 0, 0, 1.1212158203125, 16.2,12.95) ">
<g filter="url(#Filter_1)" transform="matrix( 0.882965087890625, 0, 0, 0.8829803466796875, -18,-15.05) ">
<g transform="matrix( 0.7616729736328125, 0, 0, 0.7616729736328125, 20.4,17.1) ">
<g transform="matrix( 1, 0, 0, 1, 0,0) ">
<use xlink:href="#prism_0_Layer0_0_FILL"/>
</g>
</g>
</g>

<g transform="matrix( 0.67254638671875, 0, 0, 0.67254638671875, 0,0) ">
<g transform="matrix( 1, 0, 0, 1, 0,0) ">
<use xlink:href="#prism_0_Layer0_0_FILL"/>
</g>
</g>

<g transform="matrix( 1, 0, 0, 1, 0,0) ">
<use xlink:href="#prismGroup_0_Layer0_0_FILL"/>
</g>
</g>

<g transform="matrix( 1.35797119140625, 0, 0, 1.35797119140625, -30.8,-42.35) ">
<g transform="matrix( 1, 0, 0, 1, -4.55,11.8) ">
<use filter="url(#Filter_2)" xlink:href="#texture_0_Layer0_0_FILL"/>
</g>
</g>

<g transform="matrix( 1, 0, 0, 1, 0,0) ">
<use xlink:href="#iconPhysics_0_Layer1_0_FILL"/>
</g>
</g>
</svg>
