
<svg xmlns="http://www.w3.org/2000/svg" version="1.1" xmlns:xlink="http://www.w3.org/1999/xlink" preserveAspectRatio="none" x="0px" y="0px" width="127px" height="127px" viewBox="0 0 127 127">
<defs>
<filter id="Filter_1" x="-20%" y="-20%" width="140%" height="140%" color-interpolation-filters="sRGB">
<feFlood flood-color="#FFFFFF" flood-opacity="1" in="SourceGraphic" result="result1"/>

<feGaussianBlur in="SourceGraphic" stdDeviation="1.3333333333333333,1.3333333333333333" result="result2"/>

<feComposite in2="result2" in="result1" operator="in" result="result3"/>

<feComposite in2="result3" in="SourceGraphic" operator="over" result="result4"/>
</filter>

<filter id="Filter_2" x="-20%" y="-20%" width="140%" height="140%" color-interpolation-filters="sRGB">
<feColorMatrix in="SourceGraphic" type="matrix" values="1 0 0 0 0 0 1 0 0 0 0 0 1 0 0 0 0 0 0.09 0" result="result1"/>
</filter>

<g id="iconEnvironmental_0_Layer6_0_FILL">
<path fill="#FFFFFF" stroke="none" d="
M 114.75 -3
L 3 -3
Q -3 -3 -3 3
L -3 114.75
Q -3 120.75 3 120.75
L 114.75 120.75
Q 120.75 120.75 120.75 114.75
L 120.75 3
Q 120.75 -3 114.75 -3
M 114.75 1
Q 116.75 1 116.75 3
L 116.75 114.75
Q 116.75 116.75 114.75 116.75
L 3 116.75
Q 1 116.75 1 114.75
L 1 3
Q 1 1 3 1
L 114.75 1 Z"/>
</g>

<g id="iconEnvironmental_0_Layer5_0_FILL">
<path fill="#2419B2" stroke="none" d="
M 117.75 3
Q 117.75 0 114.75 0
L 3 0
Q 0 0 0 3
L 0 114.75
Q 0 117.75 3 117.75
L 114.75 117.75
Q 117.75 117.75 117.75 114.75
L 117.75 3 Z"/>
</g>

<g id="iconEnvironmental_0_Layer4_0_FILL">
<path fill="#FFFFFF" fill-opacity="0.2" stroke="none" d="
M 117.75 38.2
L 117.75 3
Q 117.75 0 114.75 0
L 3 0
Q 0 0 0 3
L 0 38.2
Q 58.875 49.688671875 117.75 38.2 Z"/>
</g>

<g id="bookshadow_0_Layer0_0_FILL">
<path fill="#010101" stroke="none" d="
M 30.5 2.95
Q 21.8326171875 0.059765625 10.65 0
L 10.65 57.05
Q 22.3974609375 57.47109375 29.55 59.85 36.714453125 62.290234375 44.85 68.65
L 44.85 11.6
Q 39.353515625 5.8462890625 30.5 2.95
M 81.2 57.05
L 81.2 0
Q 70.0173828125 0.059765625 61.35 2.95 52.496484375 5.8462890625 47 11.6
L 47 68.65
Q 55.135546875 62.290234375 62.3 59.85 69.4525390625 57.47109375 81.2 57.05
M 86.55 6.05
L 84.45 6.05 83.85 59.4
Q 72.637109375 59.6119140625 62.4 63.2 53.7916015625 66.1365234375 45.95 71.05 36.6029296875 64.8119140625 28.05 62.6 19.540625 60.4423828125 7.5 59.6
L 7.5 5.55 4.85 5.55 4.85 62.25
Q 17.2099609375 62.734765625 25.45 64.2 33.193359375 65.573828125 45.95 72.9 60.1103515625 65.2658203125 69.3 63.6 78.486328125 61.9423828125 86.55 62.3
L 86.55 6.05
M 91.95 12.7
L 89.3 12.7 89.3 65.35
Q 77.450390625 64.8548828125 66.7 67.35 56.7623046875 69.6759765625 48.5 73.55
L 43.45 73.55
Q 32.940625 69.0091796875 24.75 67.1 16.6205078125 65.2318359375 2.65 64.8
L 2.65 12.75 0 12.75 0 67.6
Q 12.246484375 67.2197265625 23.1 68.95 33.3703125 70.79140625 42.4 75.1
L 48.8 75.1
Q 56.4978515625 71.2732421875 66.35 69.45 80.5447265625 66.8296875 91.95 68.3
L 91.95 12.7 Z"/>
</g>

<g id="Book_0_Layer0_0_FILL">
<path fill="#0A062D" stroke="none" d="
M 30.5 2.95
Q 21.8326171875 0.059765625 10.65 0
L 10.65 57.05
Q 22.3974609375 57.47109375 29.55 59.85 36.714453125 62.290234375 44.85 68.65
L 44.85 11.6
Q 39.353515625 5.8462890625 30.5 2.95
M 81.2 57.05
L 81.2 0
Q 70.0173828125 0.059765625 61.35 2.95 52.496484375 5.8462890625 47 11.6
L 47 68.65
Q 55.135546875 62.290234375 62.3 59.85 69.4525390625 57.47109375 81.2 57.05 Z"/>

<path fill="#22149A" stroke="none" d="
M 91.95 12.7
L 89.3 12.7 89.3 65.35
Q 77.450390625 64.8548828125 66.7 67.35 56.7623046875 69.6759765625 48.5 73.55
L 43.45 73.55
Q 32.940625 69.0091796875 24.75 67.1 16.6205078125 65.2318359375 2.65 64.8
L 2.65 12.75 0 12.75 0 67.6
Q 12.246484375 67.2197265625 23.1 68.95 33.3703125 70.79140625 42.4 75.1
L 48.8 75.1
Q 56.4978515625 71.2732421875 66.35 69.45 80.5447265625 66.8296875 91.95 68.3
L 91.95 12.7 Z"/>

<path fill="#150D62" stroke="none" d="
M 86.55 6.05
L 84.45 6.05 83.85 59.4
Q 72.637109375 59.6119140625 62.4 63.2 53.7916015625 66.1365234375 45.95 71.05 36.6029296875 64.8119140625 28.05 62.6 19.540625 60.4423828125 7.5 59.6
L 7.5 5.55 4.85 5.55 4.85 62.25
Q 17.2099609375 62.734765625 25.45 64.2 33.193359375 65.573828125 45.95 72.9 60.1103515625 65.2658203125 69.3 63.6 78.486328125 61.9423828125 86.55 62.3
L 86.55 6.05 Z"/>
</g>

<g id="texture_0_Layer0_0_FILL">
<path fill="#FFFFFF" stroke="none" d="
M 111.85 105.85
L 114.4 103.3 114.4 98.2 106.75 105.85 111.85 105.85
M 37.8 19.25
L 32.75 19.25 27.15 24.8 27.15 29.9 37.8 19.25
M 27.15 19.25
L 27.15 19.85 27.8 19.25 27.15 19.25
M 78 19.25
L 72.9 19.25 27.15 65 27.15 70.05 78 19.25
M 67.95 19.25
L 62.85 19.25 27.15 54.95 27.15 60.05 67.95 19.25
M 57.9 19.25
L 52.8 19.25 27.15 44.9 27.15 50 57.9 19.25
M 47.85 19.25
L 42.75 19.25 27.15 34.85 27.15 39.95 47.85 19.25
M 114.4 53.1
L 114.4 48 56.55 105.85 61.65 105.85 114.4 53.1
M 114.4 63.15
L 114.4 58.05 66.6 105.85 71.7 105.85 114.4 63.15
M 114.4 83.2
L 114.4 78.15 86.7 105.85 91.75 105.85 114.4 83.2
M 114.4 73.2
L 114.4 68.1 76.65 105.85 81.75 105.85 114.4 73.2
M 114.4 93.25
L 114.4 88.15 96.7 105.85 101.8 105.85 114.4 93.25
M 114.4 43.05
L 114.4 37.95 46.5 105.85 51.6 105.85 114.4 43.05
M 88.05 19.25
L 82.95 19.25 27.15 75 27.15 80.1 88.05 19.25
M 98.05 19.25
L 93 19.25 27.15 85.05 27.15 90.15 98.05 19.25
M 108.1 19.25
L 103 19.25 27.15 95.1 27.15 100.2 108.1 19.25
M 114.4 19.25
L 113.05 19.25 27.15 105.15 27.15 105.65 27.35 105.85 31.55 105.85 114.4 22.95 114.4 19.25
M 114.4 33
L 114.4 27.9 36.5 105.85 41.55 105.85 114.4 33 Z"/>
</g>

<g id="iconEnvironmental_0_Layer0_0_FILL">
<path fill="#150D62" stroke="none" d="
M 114.75 -1
L 3 -1
Q -1 -1 -1 3
L -1 114.75
Q -1 118.75 3 118.75
L 114.75 118.75
Q 118.75 118.75 118.75 114.75
L 118.75 3
Q 118.75 -1 114.75 -1
M 114.75 1
Q 116.75 1 116.75 3
L 116.75 114.75
Q 116.75 116.75 114.75 116.75
L 3 116.75
Q 1 116.75 1 114.75
L 1 3
Q 1 1 3 1
L 114.75 1 Z"/>
</g>
</defs>

<g id="thumbnail_mc" transform="matrix( 0.48828125, 0, 0, 0.48828125, 1,1) ">
<g transform="matrix( 2.0689239501953125, 0, 0, 2.068939208984375, 6.2,6.2) ">
<g transform="matrix( 1, 0, 0, 1, 0,0) ">
<use xlink:href="#iconEnvironmental_0_Layer6_0_FILL"/>
</g>

<g transform="matrix( 1, 0, 0, 1, 0,0) ">
<use xlink:href="#iconEnvironmental_0_Layer5_0_FILL"/>
</g>

<g transform="matrix( 1, 0, 0, 1, 0,0) ">
<use xlink:href="#iconEnvironmental_0_Layer4_0_FILL"/>
</g>

<g transform="matrix( 1, 0, 0, 1, 12.9,21.3) ">
<g filter="url(#Filter_1)" transform="matrix( 0.9898834228515625, 0, 0, 0.9898681640625, -16.8,-25.2) ">
<g transform="matrix( 1.0102081298828125, 0, 0, 1.010223388671875, 17,25.5) ">
<g transform="matrix( 1, 0, 0, 1, 0,0) ">
<use xlink:href="#bookshadow_0_Layer0_0_FILL"/>
</g>
</g>
</g>

<g transform="matrix( 1, 0, 0, 1, 0,0) ">
<use xlink:href="#Book_0_Layer0_0_FILL"/>
</g>
</g>

<g transform="matrix( 1.35797119140625, 0, 0, 1.35797119140625, -30.8,-42.35) ">
<g transform="matrix( 1, 0, 0, 1, -4.55,11.8) ">
<use filter="url(#Filter_2)" xlink:href="#texture_0_Layer0_0_FILL"/>
</g>
</g>

<g transform="matrix( 1, 0, 0, 1, 0,0) ">
<use xlink:href="#iconEnvironmental_0_Layer0_0_FILL"/>
</g>
</g>
</g>
</svg>
