
<svg xmlns="http://www.w3.org/2000/svg" version="1.1" xmlns:xlink="http://www.w3.org/1999/xlink" preserveAspectRatio="none" x="0px" y="0px" width="125px" height="125px" viewBox="0 0 125 125">
<defs>
<radialGradient id="Gradient_1" gradientUnits="userSpaceOnUse" cx="0" cy="0" r="300.7375" fx="0" fy="0" gradientTransform="matrix( 1, 0, 0, 0.4029261399060643, 62.7,117.75) " spreadMethod="pad">
<stop  offset="21.176470588235293%" stop-color="#FFFFFF"/>

<stop  offset="100%" stop-color="#822798"/>
</radialGradient>

<filter id="Filter_1" x="-20%" y="-20%" width="140%" height="140%" color-interpolation-filters="sRGB">
<feColorMatrix in="SourceGraphic" type="matrix" values="0 0 0 0 0 0 0 0 0 0 0 0 0 0 0 0 0 0 1 0" result="result1"/>
</filter>

<filter id="Filter_2" x="-20%" y="-20%" width="140%" height="140%" color-interpolation-filters="sRGB">
<feColorMatrix in="SourceGraphic" type="matrix" values="1 0 0 0 0 0 1 0 0 0 0 0 1 0 0 0 0 0 0.09 0" result="result1"/>
</filter>

<g id="iconTemp_0_Layer5_0_FILL">
<path fill="#FFFFFF" stroke="none" d="
M 114.75 -3
L 3 -3
Q -3 -3 -3 3
L -3 114.75
Q -3 120.75 3 120.75
L 114.75 120.75
Q 120.75 120.75 120.75 114.75
L 120.75 3
Q 120.75 -3 114.75 -3
M 114.75 1
Q 116.75 1 116.75 3
L 116.75 114.75
Q 116.75 116.75 114.75 116.75
L 3 116.75
Q 1 116.75 1 114.75
L 1 3
Q 1 1 3 1
L 114.75 1 Z"/>
</g>

<g id="iconTemp_0_Layer4_0_FILL">
<path fill="url(#Gradient_1)" stroke="none" d="
M 117.75 3
Q 117.75 0 114.75 0
L 3 0
Q 0 0 0 3
L 0 114.75
Q 0 117.75 3 117.75
L 114.75 117.75
Q 117.75 117.75 117.75 114.75
L 117.75 3 Z"/>
</g>

<g id="iconTemp_0_Layer3_0_FILL">
<path fill="#FFFFFF" fill-opacity="0.2" stroke="none" d="
M 117.75 38.2
L 117.75 3
Q 117.75 0 114.75 0
L 3 0
Q 0 0 0 3
L 0 38.2
Q 58.875 49.688671875 117.75 38.2 Z"/>
</g>

<g id="Tempest_0_Layer2_0_FILL">
<path fill="#000000" stroke="none" d="
M -57.55 119.15
Q -57.55 119.95 -57.25 120.15 -57 120.25 -56.35 120.35 -55.35 120 -55.3 119.1 -56 118.25 -56.35 118.1 -56.9 118.15 -57.15 118.25 -57.55 118.35 -57.55 119.15
M -58.1 171.3
Q -58.180859375 171.234375 -58.25 171.15 -60.0220703125 169.7498046875 -61.6 168.65 -63.5900390625 167.2416015625 -64.95 166.7 -65.03515625 166.6427734375 -65.15 166.6 -65.851953125 166.35 -66.35 166.35 -66.8 166.35 -67.3 166.85 -67.3 167.706640625 -66.7 168.7 -66.6173828125 168.859765625 -66.55 169 -67.3 169.855859375 -67.3 170.55 -67.05 170.85 -66.35 171.1 -65.79765625 170.696484375 -65.5 170.3 -64.619140625 171.2556640625 -63.35 172.3 -62.1 172.3 -62.55 171.85 -62.359765625 171.13671875 -62.35 170.2 -62.35 170.148828125 -62.35 170.1 -61.85 171.85 -58.85 171.85 -57.6 171.85 -58.1 171.3
M -55.6 163.35
Q -54.35 163.35 -53.05 163.6 -52.8 162.9 -52.8 162.6 -52.8 161.4603515625 -55 160.95 -56.719140625 160.55 -59.85 160.55 -62.46171875 160.55 -62.75 162.95 -62.8 163.2501953125 -62.8 163.6 -62.8 163.6353515625 -62.8 163.65 -62.799609375 163.712890625 -62.8 163.75 -62.7412109375 166.3994140625 -60.6 166.45 -60.0025390625 166.5005859375 -59.3 166.35
L -60.55 164.85
Q -59.3 164.7 -58.1 164 -57.87421875 163.86015625 -57.65 163.75 -57.4099609375 163.650390625 -57.2 163.55 -56.81640625 163.459765625 -56.45 163.4 -56.030859375 163.35 -55.6 163.35
M -54.95 160.8
Q -57.3 156.35 -59.85 156.35 -61.35 156.55 -61.6 156.55
L -61.7 156.85
Q -61.9755859375 156.4154296875 -62.4 156
L -63.95 155.15 -69.1 155.9 -68.55 158.25 -67.6 159.8 -68.05 160.2 -73.75 163.7 -73.1 164.9 -73.45 166.45 -75.8 165.95 -76.3 164.8 -77.6 164.8 -77.85 168.35 -79.6 168.45 -81.15 167.65
Q -80.45 168.45 -79.75 169.2 -79.5951171875 169.3548828125 -79.4 169.45 -79.217578125 169.5775390625 -79 169.65 -76.25 170.8 -73.75 169 -71.65 171.25 -68.5 171.05 -67.5787109375 169.8982421875 -66.7 168.7 -67.3 167.706640625 -67.3 166.85 -66.8 166.35 -66.35 166.35 -65.851953125 166.35 -65.15 166.6 -65.080078125 166.4896484375 -65 166.35 -64.9697265625 166.540234375 -64.95 166.7 -63.5900390625 167.2416015625 -61.6 168.65 -60.0220703125 169.7498046875 -58.25 171.15 -58.15546875 171.019921875 -58.05 170.85
L -58.3 170.1
Q -58.71640625 169.9189453125 -59.15 169.65 -59.1 169.5080078125 -59.1 169.35 -59.1 168.55 -59.35 168.5
L -59.4 168.5
Q -59.1 167.975 -59.1 167.35 -59.1 166.55 -59.35 166.5
L -59.6 166.6
Q -60.14609375 166.8482421875 -60.55 167.1 -60.55 166.9853515625 -60.55 166.85 -60.55 166.6384765625 -60.6 166.45 -62.7412109375 166.3994140625 -62.8 163.75 -62.799609375 163.712890625 -62.8 163.65 -62.824609375 163.6353515625 -62.85 163.6 -62.9953125 163.6759765625 -63.15 163.75 -63.24375 163.81328125 -63.35 163.85 -63.3099609375 163.8125 -63.3 163.75 -63.0123046875 163.3486328125 -62.75 162.95 -62.46171875 160.55 -59.85 160.55 -56.719140625 160.55 -55 160.95 -54.95 160.8587890625 -54.95 160.8
M -61.15 159.95
Q -60.8267578125 158.960546875 -61.1 158 -57.397265625 159.302734375 -57.35 159.35 -59.9033203125 159.5046875 -61.15 159.95
M -43.5 127.75
Q -44.3830078125 127.31796875 -44.9 127.1 -45.406640625 126.85 -45.45 126.85 -46.2 126.85 -46.25 127 -46.1875 127.15625 -46.25 127.25 -46.24375 127.3125 -46.3 127.35
L -46.3 127.65 -46.3 128
Q -46.2005859375 128.033203125 -46.1 128.05 -44.5923828125 128.05 -43.5 127.75
M -61.95 146.6
Q -61.35 147.45 -61.35 148.05 -61.35 148.63046875 -61.45 149.05 -61.558984375 149.55546875 -61.8 149.85 -60.95 149.65 -58.05 149.7 -57.9453125 149.6859375 -57.85 149.65
L -57.8 149.65
Q -57.53671875 149.615234375 -57.3 149.55 -56.0759765625 149.1689453125 -55.5 148.15 -55.47578125 148.221484375 -55.45 148.3 -54.9525390625 149.177734375 -54.35 149.8 -54.2916015625 149.832421875 -54.25 149.85 -53.658984375 150.428125 -52.95 150.75 -52.95 151.137109375 -52.95 151.6 -51.45 151.8 -49.95 152.05 -48.7 152.05 -48.8 151.6 -48.776171875 151.4208984375 -48.75 151.25
L -48.75 151.2
Q -48.0271484375 151.1501953125 -47.6 151 -47.3923828125 150.939453125 -47.25 150.85 -46.8763671875 150.6748046875 -46.8 150.4 -46.8 149.85 -46.8 149.55 -46.75 149 -46.3 148.6
L -47.3 148.3
Q -47.78125 148.810546875 -48.25 149.2 -48.616796875 149.5248046875 -49 149.75 -49.086328125 149.56015625 -49.2 149.35 -48.8771484375 149.212109375 -48.55 148.95 -48.2087890625 148.7244140625 -47.85 148.35 -46.8 147.3 -46.8 146.6 -46.8 146.5095703125 -46.85 146.4 -46.826953125 146.3474609375 -46.85 146.25 -46.9392578125 145.8607421875 -47.3 145.5 -47.8 145 -47.8 144.35 -47.2 141.75 -47.55 139.3 -48.2 134.35 -52.85 134.35 -53.0828125 134.35 -53.3 134.35 -55.1501953125 134.4248046875 -56.15 135.05 -56.2423828125 135.1099609375 -56.35 135.15 -57.3 135.9166015625 -57.3 137.3 -57.3 138.1685546875 -56.3 139.45 -55.74375 140.9396484375 -53.25 142.4 -49.6 145.524609375 -49.6 146.35 -49.6 146.46484375 -49.6 146.55 -49.708203125 147.4609375 -50.7 146.95 -50.806640625 146.8009765625 -50.95 146.65 -53.3681640625 143.3703125 -56.05 143.1 -57.267578125 142.85 -58.85 142.85 -62.6 142.85 -62.6 145.15 -62.6 145.8 -61.95 146.6
M -54.4 147.8
Q -53.929296875 147.873046875 -53.65 148.1 -53.133984375 148.47265625 -53 149.25 -52.97734375 149.31796875 -53 149.8 -52.9701171875 149.9140625 -53 150.05 -53.2421875 149.81796875 -53.5 149.5 -53.65703125 149.3115234375 -53.8 149.1 -53.8166015625 149.07578125 -53.85 149.05 -54.0876953125 148.6490234375 -54.4 147.85
L -54.45 147.8 -54.4 147.8
M -67.35 135.8
Q -66.65 135.5 -66.2 134.6 -65.83125 134.254296875 -65.05 134.05 -65.0072265625 134.722265625 -65.05 135.45 -64.9025390625 135.990625 -63.9 136.35 -64.05 136.5498046875 -64.05 136.65 -64.05 137.2740234375 -63.35 137.65 -63.5375 138.2205078125 -63.55 138.75 -63.6908203125 139.1154296875 -63.75 139.5 -64.35 140.005859375 -64.35 140.8 -64.35 141.5091796875 -63.35 142.2 -63.292578125 142.296484375 -63.25 142.35 -64.6 143.446875 -64.6 145.05 -64.6 145.570703125 -64.4 146.1 -64.079296875 146.820703125 -63.35 147.55 -63.20625 147.4908203125 -63.1 147.4 -63.037109375 147.7181640625 -62.9 148
L -63.85 147.3
Q -64.45 147.3 -66.05 149.35
L -66.05 149.4
Q -66.6537109375 149.6658203125 -67.15 150.05 -67.4091796875 150.26328125 -67.65 150.5 -67.9724609375 150.8904296875 -68.25 151.35 -68.29140625 151.4767578125 -68.35 151.6 -67.9181640625 152.24765625 -67.25 152.55 -66.632421875 152.8 -65.85 152.8 -63.494921875 152.8 -61.8 153.35 -61.515625 153.4423828125 -61.25 153.55 -59.7513671875 154.1416015625 -58.8 154.25 -58.561328125 154.3 -58.35 154.3 -58.25 154.3 -56.45 152.8 -56.5994140625 152.202734375 -56.8 151.7 -56.659375 151.758203125 -56.45 151.8 -56.2197265625 151.7232421875 -55.85 151.4 -55.4880859375 151.1125 -55 150.6 -54.55390625 150.10703125 -54.35 149.8 -54.9525390625 149.177734375 -55.45 148.3 -55.47578125 148.221484375 -55.5 148.15 -56.0759765625 149.1689453125 -57.3 149.55 -57.3 149.5943359375 -57.3 149.65 -57.3 149.714453125 -57.3 149.75 -57.2935546875 150.176953125 -57.25 150.4 -57.35 150.5654296875 -57.35 150.7 -57.35 150.7486328125 -57.35 150.8 -57.5578125 150.535546875 -57.8 150.35
L -57.8 149.65 -57.85 149.65
Q -57.9453125 149.6859375 -58.05 149.7 -60.95 149.65 -61.8 149.85 -61.558984375 149.55546875 -61.45 149.05 -61.35 148.63046875 -61.35 148.05 -61.35 147.45 -61.95 146.6 -62.6 145.8 -62.6 145.15 -62.6 142.85 -58.85 142.85 -57.267578125 142.85 -56.05 143.1 -53.3681640625 143.3703125 -50.95 146.65 -50.806640625 146.8009765625 -50.7 146.95 -49.708203125 147.4609375 -49.6 146.55 -49.6 146.46484375 -49.6 146.35 -49.6 145.524609375 -53.25 142.4 -55.74375 140.9396484375 -56.3 139.45 -57.3 138.1685546875 -57.3 137.3 -57.3 135.9166015625 -56.35 135.15
L -56.3 135.1 -56.35 135.05
Q -56.2349609375 135.065234375 -56.15 135.05 -55.1501953125 134.4248046875 -53.3 134.35 -53.475 133.974609375 -53.7 133.65 -54.471484375 132.6265625 -55.9 132.6 -55.913671875 132.6 -55.95 132.6 -57.39609375 132.6 -58.75 133.95 -58.799609375 133.8984375 -58.85 133.85 -58.8 133.2236328125 -58.8 133.1
L -59.05 132.35 -59.45 132.3 -60.85 132.1
Q -61.34921875 132.0412109375 -61.8 132.05 -62.6673828125 131.8 -63.6 131.8 -65.2 131.8 -66.6 132.85 -68.05 133.95 -68.05 135.3 -68.05 136.55 -67.35 135.8
M -62.35 134.65
Q -62.2158203125 134.647265625 -62.1 134.65 -62.153515625 134.6873046875 -62.2 134.7 -62.2693359375 134.69375 -62.35 134.65
M -62.25 148.85
Q -62.35859375 148.8712890625 -62.5 148.85 -62.41796875 148.8212890625 -62.35 148.75 -62.2947265625 148.8236328125 -62.25 148.85
M -66.2 134.6
Q -66.65 135.5 -67.35 135.8 -68.05 136.55 -68.05 135.3 -68.05 133.95 -66.6 132.85 -65.2 131.8 -63.6 131.8 -62.6673828125 131.8 -61.8 132.05 -61.34921875 132.0412109375 -60.85 132.1
L -59.45 132.3
Q -59.6125 130.85 -63.85 130.85 -67.8 130.85 -67.8 133.7 -67.8 134.6 -68.8 136.6 -69.2173828125 137.4140625 -69.45 138 -69.8 138.8005859375 -69.8 139.15 -69.8 140.4 -68.85 142.05
L -68.9 142.15
Q -69.8 143.180859375 -69.8 143.8 -69.8 144.55 -69.6 144.6 -69.559375 144.6 -69.5 144.6 -69.516796875 144.722265625 -69.55 144.85 -69.6724609375 145.794921875 -69.5 146.4 -69.29140625 147.1478515625 -68.65 147.4 -68.31328125 147.55 -67.85 147.55 -67.080859375 147.55 -66.4 147.35 -65.403515625 147.0439453125 -64.6 146.3 -64.487109375 146.198046875 -64.4 146.1 -64.6 145.570703125 -64.6 145.05 -64.6 143.446875 -63.25 142.35 -63.292578125 142.296484375 -63.35 142.2 -64.35 141.5091796875 -64.35 140.8 -64.35 140.005859375 -63.75 139.5 -63.6908203125 139.1154296875 -63.55 138.75 -63.5375 138.2205078125 -63.35 137.65 -64.05 137.2740234375 -64.05 136.65 -64.05 136.5498046875 -63.9 136.35 -64.9025390625 135.990625 -65.05 135.45 -65.0072265625 134.722265625 -65.05 134.05 -65.83125 134.254296875 -66.2 134.6
M -25.65 108.6
Q -27.1923828125 107.35 -28.35 107.35 -30.1 107.35 -31.3 108.35 -31.4470703125 108.475 -31.6 108.6 -32.1103515625 109.1353515625 -32.25 109.65 -36.198828125 114.42265625 -40.55 116.8 -42.15 117.65 -42.75 119.5 -43.1 120.55 -43.3 122.05 -43.95 124.3 -46.75 124.9 -49.35 125.5 -49.35 126.4 -49.35 126.8306640625 -48.7 127.6 -48.3560546875 128.0439453125 -47.85 128.55 -47.3841796875 128.2283203125 -46.85 127.9 -46.571875 127.7927734375 -46.3 127.65
L -46.3 127.35
Q -46.24375 127.3125 -46.25 127.25 -46.1875 127.15625 -46.25 127 -46.2 126.85 -45.45 126.85 -45.406640625 126.85 -44.9 127.1 -43.5296875 126.6162109375 -41.85 126.25 -41.3333984375 126.1263671875 -40.95 125.9 -39.55 125.2732421875 -39.55 123.8 -39.8650390625 122.77109375 -40 122 -40.144140625 121.19296875 -40.1 120.65 -40.08671875 120.45390625 -40.05 120.3 -39.97578125 120.37421875 -39.85 120.55 -39.7296875 120.7419921875 -39.55 121.05
L -39.55 121.05
Q -39.080859375 121.6 -38.35 121.6 -37.1 121.6 -37.1 121.1
L -37.1 119.5 -37.05 118.85
Q -35.71171875 118.7115234375 -34.4 118.4 -32.81171875 118.0423828125 -31.25 117.45 -28.45 116.35 -27.85 116.3 -27.61484375 116.53515625 -27.6 115.45 -27.6 115.374609375 -27.6 115.3 -27.6 114.231640625 -28.3 113.25 -28.5580078125 112.92890625 -28.9 112.6 -29.651171875 112.0560546875 -30.1 111.65 -29.830078125 111.7634765625 -29.55 111.85 -27.35 112.55 -26.35 112.55 -25.1 112.55 -23.1 111.35 -23.6375 110.37265625 -25.05 109.1 -25.0669921875 109.0794921875 -25.1 109.05
L -25.35 108.85
Q -25.4724609375 108.724609375 -25.65 108.6
M -7.8 122.1
L -8.1 122.1
Q -7.85 123.2755859375 -7.85 124.7 -7.85 125.1 -8.05 125.85 -7.7095703125 126.1904296875 -8.35 126.25 -8.35 126.4099609375 -8.35 126.55 -8.35 127.0927734375 -8.3 127.35 -9.5828125 128.0859375 -11.6 129.25
L -11.8 128.6
Q -12.3373046875 128.422265625 -12.85 128.25 -13.2658203125 127.6 -13.95 127.6 -14.2623046875 127.6 -14.5 127.7 -18.78671875 126.35 -19.45 126.35 -19.850390625 126.35 -20.5 126.8 -20.3900390625 125.4400390625 -21.65 124.75 -22.86015625 124.05 -25.45 124.05 -26.069921875 124.05 -26.65 124.15 -27.495703125 124.340625 -28.2 124.8
L -28.25 124.8
Q -28.3384765625 124.8 -28.45 124.8 -29.269921875 124.8 -31 126.7 -31.2103515625 125.3 -32.95 125.3 -34.3041015625 125.82421875 -35.35 126.25 -36.6640625 127.7033203125 -38.05 128.7 -37.8361328125 129.0865234375 -37.75 129.45 -38.771484375 129.2875 -39.25 129.8 -39.2787109375 129.6978515625 -39.3 129.6 -39.52890625 129.682421875 -39.75 129.75 -41.144921875 130.4955078125 -42.65 130.8 -42.6615234375 130.8171875 -42.7 130.8 -42.8865234375 130.86796875 -43.1 130.9 -43.95234375 131.05 -44.85 131.05 -45.5130859375 131.05 -46.15 131 -45.9681640625 131.794921875 -45.9 132.75 -45.6 133.6 -43.95 133.6 -43.7455078125 133.6 -43.55 133.6 -41.9681640625 133.7818359375 -40.55 135.2 -39 136.8 -38 136.8 -36.75 136.8 -36.3 136.35 -36.1806640625 135.5744140625 -36.85 134.7 -35.8830078125 134.153515625 -35.8 133.4 -35.8 133.3650390625 -35.8 133.3 -36.3 132.1 -36.3 131.8
L -35.95 131.8
Q -32.4 131.8 -31.6 130.9 -31.3634765625 130.6634765625 -31.35 129.75 -30.8818359375 129.558984375 -30.45 129.3 -30.45 129.04921875 -30.5 128.8 -30.490234375 128.6009765625 -30.55 128.4 -30.3572265625 128.5318359375 -30.2 128.65 -30.0677734375 128.728125 -29.95 128.8 -29.5046875 128.6515625 -28.75 127.9
L -28.7 127.95
Q -27.9 129.55 -26.45 129.55 -24.55 129.55 -23.3 127.8 -23.2 128.05 -23.2 128.35 -23.1 128.7 -23.2 129.45 -23.1 130.1 -21.95 130.55 -21.45 130.35 -20.8 130.05 -20.7865234375 129.8875 -20.8 129.7 -20.5904296875 130.1287109375 -20.45 130.55 -19.45 130.8 -18.7 130.8 -17.45 130.8 -15.45 129.85 -14.8 129.85 -14.7 130.35 -14.65 130.5 -14.55 130.6 -13.95 132.55 -12.95 132.55 -12.3 132.55 -11.5 131.95 -10.65 131.35 -10.05 131.35 -5.8017578125 131.35 -4.95 128.7 -4.7 128.0150390625 -4.7 127.15 -4.7 126.25 -4.85 126.15 -4.8974609375 126.1025390625 -5.15 126.05 -4.83515625 125.63515625 -4.4 125.2 -3.35 124.1 -3.35 123.8 -3.35 123.7 -5.35 122.6 -6.37578125 122.9931640625 -7.05 123.55 -7.3890625 122.6623046875 -7.8 122.1
M -8.1 122.1
Q -9.1607421875 116.55 -15.35 116.55 -15.7470703125 116.6634765625 -16.1 116.75 -17.2021484375 117.0046875 -17.55 116.85 -18.15 113.75 -18.9 112.6 -20.5087890625 110.0041015625 -23.75 109.3 -24.362890625 109.17109375 -25.05 109.1 -23.6375 110.37265625 -23.1 111.35 -25.1 112.55 -26.35 112.55 -27.35 112.55 -29.55 111.85 -29.830078125 111.7634765625 -30.1 111.65 -29.651171875 112.0560546875 -28.9 112.6 -28.5580078125 112.92890625 -28.3 113.25 -27.7466796875 113.53515625 -27.05 113.8 -26.1373046875 114.13671875 -25.4 114.45 -26.5408203125 114.9724609375 -27.6 115.45 -27.61484375 116.53515625 -27.85 116.3 -28.45 116.35 -31.25 117.45 -32.81171875 118.0423828125 -34.4 118.4 -36.1275390625 119.1439453125 -37.1 119.5
L -37.1 121.1
Q -37.1 121.6 -38.35 121.6 -39.080859375 121.6 -39.55 121.05 -39.7818359375 121.412109375 -39.95 121.8 -39.9736328125 121.8708984375 -40 122 -39.8650390625 122.77109375 -39.55 123.8 -39.55 125.2732421875 -40.95 125.9 -41.66015625 127.251953125 -43.5 127.75 -44.5923828125 128.05 -46.1 128.05 -46.2005859375 128.033203125 -46.3 128 -46.56953125 127.9798828125 -46.85 127.9 -47.3841796875 128.2283203125 -47.85 128.55 -48.3560546875 128.0439453125 -48.7 127.6 -49.10546875 127.5619140625 -49.5 127.5 -49.509765625 127.5775390625 -49.55 127.65 -49.55 128.15 -50.6 129.35 -50.948046875 129.7677734375 -51.2 130.05 -51.1919921875 130.1095703125 -51.2 130.15 -49.264453125 130.905078125 -46.15 131 -45.5130859375 131.05 -44.85 131.05 -43.95234375 131.05 -43.1 130.9 -42.8865234375 130.86796875 -42.7 130.8 -42.6615234375 130.8171875 -42.65 130.8 -41.144921875 130.4955078125 -39.75 129.75 -38.8744140625 129.303515625 -38.05 128.7 -36.6640625 127.7033203125 -35.35 126.25 -34.3041015625 125.82421875 -32.95 125.3 -31.2103515625 125.3 -31 126.7 -29.269921875 124.8 -28.45 124.8 -28.3384765625 124.8 -28.25 124.8
L -28.2 124.8
Q -27.495703125 124.340625 -26.65 124.15 -26.069921875 124.05 -25.45 124.05 -22.86015625 124.05 -21.65 124.75 -20.3900390625 125.4400390625 -20.5 126.8 -19.850390625 126.35 -19.45 126.35 -18.78671875 126.35 -14.5 127.7 -14.2623046875 127.6 -13.95 127.6 -13.2658203125 127.6 -12.85 128.25 -12.3373046875 128.422265625 -11.8 128.6
L -11.6 129.25
Q -9.5828125 128.0859375 -8.3 127.35 -8.35 127.0927734375 -8.35 126.55 -8.35 126.4099609375 -8.35 126.25 -7.7095703125 126.1904296875 -8.05 125.85 -7.85 125.1 -7.85 124.7 -7.85 123.2755859375 -8.1 122.1
M -86.5 168.6
L -85.35 170.05 -81.15 167.65 -79.6 168.45 -77.85 168.35 -77.6 164.8 -76.3 164.8 -75.8 165.95 -73.45 166.45 -73.1 164.9 -73.75 163.7 -68.05 160.2 -67.6 159.8 -68.55 158.25 -69.1 155.9 -63.95 155.15 -62.4 156 -61.1 154.55 -61.8 153.35
Q -63.494921875 152.8 -65.85 152.8 -67.698828125 153.13828125 -69.3 154.55
L -71.15 156.75
Q -71.2552734375 157.7451171875 -72.25 158.1
L -75.75 162.25
Q -76.9 162.35 -77.8 162.9 -78.521484375 163.316796875 -79.25 163.75 -79.317578125 163.7998046875 -79.4 163.85 -83.051171875 166.0544921875 -86.5 168.6
M -81.7 146.8
Q -81.5212890625 146.6765625 -81.35 146.55 -80.860546875 146.55 -80.35 146.7 -78.62578125 146.5544921875 -77.2 146.2 -77.398046875 146.7015625 -77.6 147.2 -77.6 147.4943359375 -77.55 147.75 -77.27890625 147.791796875 -76.9 147.85 -76.536328125 147.9001953125 -76.15 148 -76.0208984375 147.8720703125 -75.8 147.85 -75.6 147.85 -75.35 147.85 -75.059375 147.958984375 -74.5 148.85 -74.042578125 149.1611328125 -73.55 149.55
L -73.35 149.8
Q -73.1154296875 149.85 -72.85 149.85 -72.4443359375 149.85 -71.85 150.7 -71.173046875 150.8 -70.35 150.8 -69.8 150.8 -68.55 150.35 -67.9212890625 150.110546875 -67.45 150.05 -67.8755859375 149.644921875 -68.15 149.35 -68.55 148.936328125 -68.55 148.8 -68.55 147.7591796875 -68.65 147.4 -69.29140625 147.1478515625 -69.5 146.4 -70.2390625 145.6931640625 -71.6 144.55 -69.1 142.35 -69.1 141.8 -69.1 141.652734375 -70.35 139.35 -70.0501953125 138.7103515625 -69.45 138 -69.2173828125 137.4140625 -68.8 136.6 -67.8 134.6 -67.8 133.7 -67.8 130.85 -63.85 130.85 -59.6125 130.85 -59.45 132.3
L -59.05 132.35 -58.8 133.1
Q -58.8 133.2236328125 -58.85 133.85 -58.799609375 133.8984375 -58.75 133.95 -57.39609375 132.6 -55.95 132.6 -55.913671875 132.6 -55.9 132.6 -55.97890625 131.6921875 -56.4 130.85 -56.64609375 130.3951171875 -57 130 -57.7376953125 129.6716796875 -58.7 128.95 -58.9513671875 128.7310546875 -59.2 128.55 -59.7548828125 128.3134765625 -60.45 128.15 -61.113671875 128.0021484375 -61.9 127.9 -62.33125 127.8693359375 -62.85 127.85 -66.953515625 128.675 -69.6 132.45 -70.65 134.05 -71.4 136 -71.8 137.05 -72.1 138.05 -75.45 145.2 -84.45 146.65 -85.24453125 146.74921875 -90.1 147.15 -90.9365234375 148.9953125 -91.85 150.35 -93.7314453125 153.071484375 -97.4 154.4 -97.6349609375 154.621875 -97.85 154.8 -96.6791015625 154.5361328125 -95.55 154.15 -94.975390625 154.1537109375 -94.35 154.1
L -95.3 154.8
Q -96.077734375 155.1111328125 -97.05 155.3 -99.6412109375 155.6025390625 -102.1 155.8 -102.1740234375 155.8 -102.25 155.8 -103.7505859375 155.8 -104.9 156 -106.23203125 156.2546875 -107.05 156.8 -106.379296875 157.1576171875 -105.7 157.45 -107.245703125 158.159765625 -108.75 157.85 -109.15 157.75 -109.55 157.7 -109.85 157.7 -110.1 157.75
L -110.6 158.55
Q -109.2 159.05 -107.75 159.4 -107.1 159.6 -106.35 159.6 -105.65 159.4 -104.95 159.2
L -103.85 159.8 -101.1 158.7
Q -100.2146484375 158.8 -99.35 158.8 -97.8109375 158.8 -96.45 158.5 -97.2900390625 158.3599609375 -97.6 158.05 -96.5181640625 157.4970703125 -92.75 154.8 -91.086328125 153.669140625 -88.95 152.1 -88.445703125 151.175390625 -88.1 150.5 -86.6595703125 149.5154296875 -85.3 148.35
L -85.7 147.4
Q -84.9029296875 146.9421875 -83.95 146.85
L -83.85 147.05 -83.5 146.85
Q -82.5638671875 146.84765625 -81.7 146.8
M -81.35 146.55
Q -81.5212890625 146.6765625 -81.7 146.8 -85.8560546875 149.8732421875 -88.95 152.1 -91.086328125 153.669140625 -92.75 154.8 -96.5181640625 157.4970703125 -97.6 158.05 -97.2900390625 158.3599609375 -96.45 158.5 -95.810546875 158.6 -94.85 158.6 -94.5494140625 158.6 -83.15 153.45 -81.276171875 152.5892578125 -79.1 151.6
L -79.35 151.85
Q -79.9623046875 152.094921875 -80.65 153 -81.084765625 153.5970703125 -81.55 154.45 -82.6 156.4 -82.6 157.15 -82.6 157.8 -82.1 158.3
L -81.1 158.55
Q -79.3 158.55 -78.8 156.1 -77.8 158.35 -73.85 158.35 -72.8845703125 158.35 -72.25 158.1 -71.2552734375 157.7451171875 -71.15 156.75 -71.1 156.61328125 -71.1 156.45 -72.491015625 154.2984375 -73.75 152.6 -73.2232421875 152.85 -72.6 152.85 -71.066015625 152.85 -70.2 152.65 -69.5591796875 152.5375 -69.3 152.3 -68.688671875 151.7634765625 -68.25 151.35 -67.9724609375 150.8904296875 -67.65 150.5 -67.4091796875 150.26328125 -67.15 150.05 -67.2806640625 150.0603515625 -67.45 150.05 -67.9212890625 150.110546875 -68.55 150.35 -69.8 150.8 -70.35 150.8 -71.173046875 150.8 -71.85 150.7 -72.795703125 150.6001953125 -73.4 150.3 -73.221484375 150.1248046875 -73.3 149.85
L -73.35 149.8 -73.55 149.55
Q -74.042578125 149.1611328125 -74.5 148.85 -75.059375 147.958984375 -75.35 147.85 -75.6 147.85 -75.8 147.85 -76.0208984375 147.8720703125 -76.15 148 -76.536328125 147.9001953125 -76.9 147.85 -77.27890625 147.791796875 -77.55 147.75 -78.2291015625 147.6208984375 -78.3 147.55
L -78.65 147.55
Q -79.52578125 146.9435546875 -80.35 146.7 -80.860546875 146.55 -81.35 146.55
M -86.65 141.95
Q -87.612890625 142.134375 -88.4 142.3 -98.169140625 144.351953125 -99.25 150.7 -101.9072265625 151.706640625 -105.1 152.55 -112.05 154.05 -112.05 154.15 -112.05 155.4 -111.6 155.35
L -101.35 155.35
Q -100.126953125 155.1765625 -99.05 154.9 -98.5173828125 154.7712890625 -98.05 154.6 -97.947265625 154.7091796875 -97.85 154.8 -97.6349609375 154.621875 -97.4 154.4 -93.7314453125 153.071484375 -91.85 150.35 -90.9365234375 148.9953125 -90.1 147.15 -85.24453125 146.74921875 -84.45 146.65 -75.45 145.2 -72.1 138.05 -71.8 137.05 -71.4 136 -70.65 134.05 -69.6 132.45 -66.953515625 128.675 -62.85 127.85 -61.6466796875 127.6 -60.35 127.6 -60.2662109375 127.6 -59.2 128.55 -58.9513671875 128.7310546875 -58.7 128.95 -57.7376953125 129.6716796875 -57 130 -56.338671875 130.3 -55.85 130.3 -55.1412109375 130.3 -52.85 130.5
L -53.05 130.55
Q -52.6 132.35 -53 132.65 -53.55 133 -53.55 133.3 -53.55 134.243359375 -53.15 134.05 -53.0216796875 133.983984375 -52.85 133.8 -51.35 133.3 -51.1 132.85 -51.1 132.4603515625 -51.15 132.1 -51.0837890625 132.090625 -51.05 132.05 -51.0904296875 130.93828125 -51.2 130.15 -51.1919921875 130.1095703125 -51.2 130.05 -50.948046875 129.7677734375 -50.6 129.35 -49.55 128.15 -49.55 127.65 -49.509765625 127.5775390625 -49.5 127.5 -49.312109375 127.1314453125 -49.4 126.75 -49.45 126.35 -49.85 125.95 -51.013671875 124.748828125 -54.95 124.45 -56.0857421875 123.5763671875 -57.55 123.05 -58.3060546875 122.810546875 -59.15 122.65 -60.617578125 122.35 -62.35 122.35 -62.9193359375 122.35 -67.15 124.45 -67.3625 124.580078125 -67.6 124.7 -69.8203125 125.81015625 -71.2 126.6 -72.8625 127.5578125 -73.3 128.05 -73.3 128.1083984375 -73.3 128.15 -73.333203125 129.91953125 -74.3 133 -74.6490234375 134.1095703125 -75.1 135.35 -76.1 134.85 -76.35 134.85 -76.45 135.55 -76.6 137.55 -77.85 138.05 -78.55 138.05 -82.0634765625 138.05 -86.65 141.95
M -67.4 126.4
Q -68.1568359375 126.8482421875 -68.9 127.35 -70.1775390625 128.2677734375 -71.25 129.45 -70.1392578125 124.35 -62.45 124.35 -61.383203125 124.35 -60.45 124.45 -64.3919921875 124.851171875 -67.4 126.4
M -75.5 137.65
Q -75.5228515625 137.7326171875 -75.55 137.8 -75.7904296875 138.3859375 -76.35 138.9 -77.0201171875 139.225 -77.55 139.75 -78.6412109375 140.330078125 -80.3 140.75 -83.0501953125 141.24765625 -85.15 141.65 -82.746875 140.344140625 -79.25 139.25 -76.9146484375 138.5298828125 -75.5 137.65
M -82.4 135.65
Q -82.5 135.05 -81.75 135.05 -80.15 135.05 -80.05 134.9 -79.9 134.65 -78.8 132.35
L -78.35 132.9
Q -78.1 133.3 -77.35 133.3 -75.662890625 133.3 -74.3 133 -73.333203125 129.91953125 -73.3 128.15 -74.5578125 129.0193359375 -76.55 130.3 -76.15 129.7 -76.4 129.2 -76.8 128.3 -79.85 128.3 -83.35 128.3 -83.55 129.8 -83.6443359375 130.64921875 -83.8 132.8 -83.7916015625 132.9646484375 -83.8 133.1 -84.2453125 134.0275390625 -84.8 134.75 -85.2642578125 134.5626953125 -85.75 134.45 -86.47578125 134.36171875 -87.25 134.5 -88.8 134.8 -88.8 136.15 -88.8 136.26640625 -88.8 136.35 -88.8626953125 136.8447265625 -89.15 137.05 -89.3486328125 137.17421875 -89.45 137.35 -90.1845703125 137.334765625 -90.75 137.3 -92.35 137.31328125 -92.35 137.6 -92.35 137.832421875 -92.35 138.05 -92.19140625 139.8 -90.85 139.8 -90.335546875 139.8 -89.05 139.25 -88.9125 139.448828125 -88.8 139.65 -88.5662109375 139.9880859375 -88.3 140.35 -87.973046875 140.059375 -87.4 139.25 -87.06484375 138.787109375 -86.65 138.15 -85.717578125 137.6916015625 -84.6 137.1 -84.6 136.2 -84.35 136.05 -83.85 136.05 -82.35 136.55 -82.3 136.5 -82.4 135.65
M -105.65 137.75
L -105.5 138.55
Q -106.1541015625 138.69453125 -106.55 138.8 -106.35 139.1 -105.55 139.85
L -100.1 140.1
Q -97.1779296875 140.1 -92.35 138.05 -92.35 137.832421875 -92.35 137.6 -92.35 137.31328125 -90.75 137.3 -90.5427734375 137.241015625 -90.35 137.15 -89.5447265625 136.7638671875 -88.8 136.35 -88.8 136.26640625 -88.8 136.15 -88.8 134.8 -87.25 134.5 -86.47578125 134.36171875 -85.75 134.45 -84.6265625 133.668359375 -83.8 132.8 -83.6443359375 130.64921875 -83.55 129.8 -83.35 128.3 -79.85 128.3 -76.8 128.3 -76.4 129.2 -76.15 129.7 -76.55 130.3 -74.5578125 129.0193359375 -73.3 128.15 -73.3 128.1083984375 -73.3 128.05 -72.8625 127.5578125 -71.2 126.6 -71.05 126.35 -70.8 123.6 -71.726171875 123.9162109375 -72.7 124.1 -72.9 124.2 -73.15 124.1 -73.25 123.9 -73.25 123.7 -73.4 122.05 -72.7 120.6 -72.1 119.4 -71.35 118.3
L -72.95 118
Q -74.05 118.05 -74.9 118.7 -75.7 119.4 -75.75 120.35
L -77.75 123.85 -78.85 124.05 -80.8 122.45
Q -81.6689453125 124.3689453125 -82.85 125.7 -84.8654296875 128.112109375 -87.8 128.75 -88.05 128.85 -88.3 128.8
L -89.3 124.8 -92.8 130.3 -93.1 130.65
Q -99.7296875 136.922265625 -105.65 137.75
M -94.65 123.2
Q -94.75 123.45 -94.7 123.7 -94.1 129.7 -98.6 132.3 -99.55 132.65 -100.5 132.85 -104.25 134.1 -108.15 133.85 -110.25 134.25 -112.25 133.8 -115.75 132.9 -117.9 129.9
L -119.7 130.35
Q -119.7 130.65 -119.55 130.85 -113.2171875 138.815234375 -105.65 137.75 -99.7296875 136.922265625 -93.1 130.65
L -92.8 130.3 -89.3 124.8 -88.3 128.8
Q -88.05 128.85 -87.8 128.75 -84.8654296875 128.112109375 -82.85 125.7 -81.6689453125 124.3689453125 -80.8 122.45
L -78.85 124.05 -77.75 123.85 -75.75 120.35
Q -75.7 119.4 -74.9 118.7 -74.05 118.05 -72.95 118
L -71.35 118.3
Q -72.1 119.4 -72.7 120.6 -73.4 122.05 -73.25 123.7 -73.25 123.9 -73.15 124.1 -72.9 124.2 -72.7 124.1 -71.726171875 123.9162109375 -70.8 123.6 -66.692578125 122.1720703125 -63.55 118.05
L -61.6 117.1 -61.2 121.2 -59.85 121.4
Q -59.3298828125 121.1 -59.1 121.1
L -58.85 121
Q -58.63515625 121.04296875 -58.6 121.65
L -58.4 121.65 -57.9 120.5
Q -57.7744140625 119.808984375 -57.95 119.2 -58.0771484375 118.64765625 -58.5 118.2 -65.15 111.25 -76.55 113.95
L -77.2 112.4
Q -87.95 113.65 -94.65 123.2 Z"/>
</g>

<g id="Tempest_0_Layer1_0_FILL">
<path fill="#000000" stroke="none" d="
M 23.6 22.45
Q 25.15 22.45 28.4 23.9 31.65 25.3 32.25 25.3 33.4 25.3 34.15 25 34.35 24.05 34.35 23.85 32.3453125 21.8166015625 20.15 17.15 8.5603515625 29.1810546875 -13.45 25.9 -12.2859375 27.2109375 -9.15 29.65 -6.523828125 31.6634765625 -3.1 32.65 -3.709375 33.628125 -2.6 35.1 -5.020703125 36.005859375 -5.85 37 2.85 35.002734375 2.85 33.5 2.85 32.25 0 31.1 -4.35 29.3 -5 28.85 -1.7 28.65 4.2 27.7 10.15 26.7 11.15 26.2 18.95 22.45 23.6 22.45
M 33.25 -3.7
Q 34.15 -5.45 37.85 -9.05 41.2 -12.3 41.2 -12.9
L 41.05 -13.4
Q 34.65 -10.9 31 -4.5 28 0.8 28 6.2 28 6.8 31.1 9.75 34.7 13.15 37.35 13.15 39.55 13.15 39.55 11.5 39.55 10.7 35.2 8.35 30.8 6.05 30.8 5 30.8 3.9 31.9 0.3 32.85 -2.95 33.25 -3.7 Z"/>
</g>

<g id="ship_0_Layer0_0_FILL">
<path fill="#FF6600" stroke="none" d="
M 88.95 109.7
L 88.3 109.35 85.1 115.15
Q 85.1875 115.2328125 85.2 115.3 85.3439453125 115.3083984375 85.45 115.35 85.4986328125 115.397265625 85.55 115.45
L 85.75 115.55 88.95 109.7
M 113.75 58.95
L 113.75 58.9 113.45 58.75 111.7 62.3 111.7 62.3
Q 111.7787109375 62.5212890625 111.65 62.7
L 110.25 65.25 107.85 70.05
Q 107.8029296875 70.2220703125 107.85 70.35 107.89296875 70.5138671875 108 70.55 108.1716796875 70.6470703125 108.3 70.6 108.4638671875 70.556640625 108.5 70.4
L 108.55 70.4 114.1 59.1 113.75 58.95 Z"/>

<path fill="#653D01" stroke="none" d="
M 89.95 110.2
L 88.95 109.7 85.75 115.55 86.9 116.2 89.95 110.2
M 106.6 118.55
L 105.45 118.05 100.65 124.05 103.05 125.35 106.6 118.55
M 102.65 116.65
L 102.65 116.65 99 123.1 99.05 123.1 100.6 124 105.45 118 102.65 116.65
M 109.2 104.95
L 109.15 104.95 108.45 106.25 103.85 114.45 107.05 116 107.45 115.45 107.05 116.05 107.7 116.35 109.55 112.9 109.35 113.1 112.7 106.7 109.2 104.95
M 115.5 59.8
L 114.1 59.1 108.55 70.4 109.35 70.8 113.15 63.35
Q 113.2490234375 63.190234375 113.45 63.1 113.6431640625 63.058203125 113.8 63.15
L 115.5 59.8
M 146.9 37.7
L 146.9 37.7 146 39.25
Q 146.13125 39.3103515625 146.2 39.4 146.327734375 39.5966796875 146.3 39.8 146.15 40.6 146 41.4 145.88125 42.0333984375 145.75 42.65
L 148 38.2 148 38.2
Q 147.7123046875 38.058203125 147.4 37.95 147.330859375 37.95234375 147.25 37.9 147.0873046875 37.7798828125 146.9 37.7
M 78.5 172.9
L 75.1 170.85 69.85 180.5 69.8 180.5
Q 71.2841796875 181.7734375 74 181.55
L 78.5 172.9
M 60.8 167.65
L 63.15 163.05 60.15 161.25 49.05 181.4
Q 50.68125 182.427734375 53.15 182.75
L 55.95 177.15 60.8 167.65
M 129.3 70.95
L 130.75 71.7 132.6 68.15 131.2 67.5 129.3 70.95 Z"/>

<path fill="#875101" stroke="none" d="
M 85.85 108.15
L 85.85 108.1 82.7 113.8 82.75 113.8 85.05 115.1
Q 85.093359375 115.150390625 85.1 115.15
L 88.3 109.35 85.85 108.15
M 8.6 169.75
Q 8.7 168.95 9.15 166.85 5.232421875 168.9380859375 4.15 169.6 2.2806640625 170.8146484375 0.05 173.4 -0.69375 180.740234375 4.5 190.1 6.62734375 193.8498046875 9.1 197.05 11.567578125 197.898046875 14.45 198.6 6.748828125 185.249609375 8.6 169.75
M 107.65 69.95
L 107.85 70.05 110.25 65.25 107.65 69.95
M 113.45 58.75
L 113.3 58.65 111.45 62 111.5 62
Q 111.6595703125 62.1177734375 111.7 62.3
L 113.45 58.75
M 56.05 162
L 52.25 168.75 47.7 176.9 46.7 178.75
Q 47.4505859375 180.41953125 49.05 181.4
L 60.15 161.25 59.4 160.85 56.05 162
M 59.4 160.8
L 57.35 159.55 56 161.95 56.05 161.95 59.4 160.8 Z"/>

<path fill="#3C2300" stroke="none" d="
M 93.45 197.45
Q 93.153125 197.5068359375 92.9 197.6 89.8515625 202.3248046875 85.55 205.85 88.14921875 205.123046875 90.7 204.25 94.053515625 203.1923828125 96.85 201 106.05078125 193.717578125 107.3 183 105.3291015625 193.36171875 93.8 197.15 93.7908203125 197.201171875 93.75 197.2 93.65625 197.403125 93.45 197.45 Z"/>

<path fill="#4B2E01" stroke="none" d="
M 92.65 197.7
Q 92.6265625 197.71640625 92.55 197.7 80.76328125 200.9962890625 68.65 200.5
L 68.6 200.5 68.05 200.4
Q 67.63828125 200.391796875 66.6 200.2 65.5255859375 200.4353515625 64.3 200.65 61.1603515625 201.22421875 58.15 201.6 51.4451171875 202.5068359375 45.55 202.5 39.7994140625 202.50546875 30.4 201.4 21.2578125 200.336328125 14.45 198.6 11.567578125 197.898046875 9.1 197.05 11.5126953125 200.1166015625 14.45 202.3 14.496875 202.375390625 14.55 202.4 14.8421875 202.5486328125 15.15 202.65 23.6759765625 205.9416015625 32.6 208.25 36.5064453125 209.26484375 40.25 210.05 46.8705078125 210.395703125 53.4 210.3 56.21796875 210.284765625 59 210.15 72.5478515625 209.5025390625 85.55 205.85 89.8515625 202.3248046875 92.9 197.6 92.7818359375 197.648046875 92.65 197.7 Z"/>

<path fill="#764701" stroke="none" d="
M 9.15 166.85
Q 8.7 168.95 8.6 169.75 6.748828125 185.249609375 14.45 198.6 21.2578125 200.336328125 30.4 201.4 39.7994140625 202.50546875 45.55 202.5 51.4451171875 202.5068359375 58.15 201.6 61.1603515625 201.22421875 64.3 200.65 65.5255859375 200.4353515625 66.6 200.2 63.1302734375 199.95546875 59.6 199.4 56.1 198.78828125 52.5 197.85 47.9615234375 196.7251953125 43.95 195.45 43.865234375 195.4478515625 43.8 195.4 43.749609375 195.3921875 43.7 195.35 38.572265625 193.7130859375 34.4 191.85 34.34921875 191.828125 34.3 191.8 34.2279296875 191.7884765625 34.15 191.75 26.9244140625 188.51640625 22.25 184.65 17.7091796875 180.9138671875 14.55 177.05
L 14.5 177
Q 14.4875 176.9875 14.45 176.95
L 14.4 176.9
Q 12.0318359375 173.9884765625 9.15 166.85
M 74.9 170.7
L 73 169.55 68.35 177.8
Q 68.7140625 179.4337890625 69.65 180.35
L 74.9 170.7
M 131.2 67.5
L 130.45 67.15
Q 130.4484375 67.1357421875 130.4 67.1
L 128.45 70.55 129.3 70.95 131.2 67.5 Z"/>

<path fill="#AAAAAA" stroke="none" d="
M 107 69.1
L 110.8 62.2 104.2 58.85
Q 100.1923828125 62.8490234375 99.25 63.9 98.8208984375 64.4283203125 98.45 64.9
L 107 69.1
M 114.15 72.6
L 114.15 72.6 134.5 82.6
Q 134.7001953125 82.690625 134.75 82.85 134.84453125 83.04921875 134.75 83.2
L 134.1 85
Q 134.0548828125 85.41796875 134 85.85 135.2474609375 85.616015625 136.95 85.2 138.7986328125 84.738671875 141.2 84.05 145.4654296875 82.8236328125 149.05 81.35
L 140.05 76.85
Q 140.04140625 76.9056640625 140 76.9 139.9509765625 76.944921875 139.9 76.9 139.84921875 76.9021484375 139.8 76.85 139.805078125 76.80078125 139.8 76.75
L 131 72.35 131 72.35
Q 130.91484375 72.558984375 130.7 72.6 130.5212890625 72.691796875 130.3 72.6
L 128 71.45
Q 127.8412109375 71.3646484375 127.75 71.15 127.7080078125 70.97109375 127.8 70.75
L 127.8 70.75 114.05 63.8 110.45 70.8 114.1 72.6 114.15 72.6 Z"/>

<path fill="#888888" stroke="none" d="
M 102.45 115.95
Q 102.5486328125 115.7900390625 102.75 115.7 102.9423828125 115.6583984375 103.1 115.75
L 106.1 117.2 107.05 116 103.85 114.45 101.2 113.15 71.3 97.9 70.4 99.65 85.65 107.45
Q 85.7615234375 107.2859375 85.95 107.2 86.1423828125 107.1583984375 86.3 107.25
L 89.7 108.95 90.35 108 89.75 108.95 90.4 109.3
Q 90.6095703125 109.3990234375 90.65 109.6 90.741796875 109.792578125 90.65 109.95
L 90.65 110 102.45 115.95
M 107.7 116.35
L 107.05 116.05 106.1 117.25 107.05 117.7
Q 107.2595703125 117.7990234375 107.3 118 107.391796875 118.192578125 107.3 118.35
L 119.9 125 119.9 125 117.3 121.1 107.7 116.35
M 51.55 87.8
L 50.35 89.4 66.1 97.45 66.2 97.3 66.15 97.45 70.35 99.6 71.3 97.85 69.45 96.95 65.55 94.95 65.1 95.95 65.5 94.95 64.2 94.3 51.55 87.8
M 82.1 57.5
L 81.4 59.1 89.7 63.2 90.55 61.6 82.1 57.5
M 113.9 73.6
Q 113.883203125 73.5775390625 113.6 73.45
L 112.8 74.65 132.65 84.5 132.55 84.35 132.7 84.45 133.15 84.65 133.15 84.7 133.65 83.3 113.9 73.6
M 109.35 70.8
L 109.35 70.8 108.55 70.4 108.5 70.4
Q 108.4638671875 70.556640625 108.3 70.6 108.1716796875 70.6470703125 108 70.55 107.89296875 70.5138671875 107.85 70.35 107.8029296875 70.2220703125 107.85 70.05
L 107.65 69.95 107.6 70
Q 107.533203125 70.16875 107.35 70.2 107.158203125 70.285546875 106.95 70.2
L 97.9 65.8
Q 97.7408203125 65.7142578125 97.65 65.5 97.6080078125 65.320703125 97.7 65.1
L 90.55 61.65 89.7 63.25 112.8 74.6 113.55 73.45 109.55 71.5
Q 109.38984375 71.4029296875 109.3 71.2 109.256640625 71.007421875 109.35 70.8
M 155.95 22.1
Q 155.8298828125 22.1298828125 155.7 22.05 155.5447265625 21.9556640625 155.5 21.75 155.44765625 21.631640625 155.5 21.5
L 138.75 13.95 138.75 13.9 137.5 16.3 158.05 25.45 158.9 23 156.9 22.1 156.9 22.15
Q 156.8154296875 22.3580078125 156.6 22.4 156.434375 22.4919921875 156.25 22.4 156.05390625 22.3154296875 155.95 22.1
L 155.95 22.1
M 174.45 32.7
L 175.45 30.5 159.15 23.15 158.3 25.55 174.45 32.7 Z"/>

<path fill="#9D9D9D" stroke="none" d="
M 116 108.5
L 116.05 108.5
Q 117.1390625 106.778125 117.75 105.65 118.019921875 105.271484375 118.2 104.95 117.218359375 104.7224609375 115.7 105.3
L 114 107.45 116 108.5
M 112.75 98.35
L 112.4 98.95
Q 112.265625 99.278515625 112.1 99.6 111.8041015625 100.21640625 111.45 100.85 110.4943359375 101.5314453125 110 102.75 109.5259765625 103.96484375 109.2 104.85 109.2125 104.91171875 109.2 104.95
L 112.7 106.7 113.95 107.4 115.65 105.3
Q 114.56328125 105.687109375 113.45 105.15
L 114.05 104
Q 114.07734375 103.774609375 113.95 103.5 113.4669921875 102.2701171875 113.45 102.2 114.5814453125 101.6796875 113.6 99.75 113.324609375 99.1935546875 112.75 98.35
M 134 85.85
Q 134.007421875 85.9181640625 134 86 132.49140625 100.5416015625 125.8 113.7
L 126.55 114.05
Q 126.605859375 114.0455078125 126.65 114 126.6990234375 114.005078125 126.75 114 126.8005859375 114.0478515625 126.8 114.1 126.8447265625 114.1490234375 126.8 114.2
L 135.95 118.5
Q 144.9966796875 105.453515625 148.5 90 149.441015625 85.98671875 149.95 81.8
L 149.05 81.35
Q 145.4654296875 82.8236328125 141.2 84.05 138.7986328125 84.738671875 136.95 85.2 135.2474609375 85.616015625 134 85.85
M 170.5 41.25
L 171.45 39.15
Q 166.70546875 38.2966796875 165.7 38.15 164.499609375 38.006640625 160.1 33.1 159.359375 34.003515625 158.8 34.8 159.1484375 35.24140625 159.45 35.65 162.978125 39.92109375 164.6 39.9 166.415625 39.9416015625 170.5 41.25 Z"/>

<path fill="#CCCCCC" stroke="none" d="
M 70.45 94.95
L 69.45 96.95 71.3 97.85 72.5 95.6
Q 71.5552734375 95.2615234375 70.45 94.95
M 60.95 71.2
L 60.95 66.8
Q 60.7638671875 66.8306640625 60.55 66.8 55.6203125 66.6669921875 51.95 65.75 52.1662109375 67.4798828125 55.4 69 55.49296875 69.0787109375 60.95 71.2
M 103.5 87.65
Q 102.516015625 86.9810546875 102.45 86.95 98.5859375 89.3345703125 93.7 91.65 83.9310546875 96.3201171875 78.25 96.3 74.7767578125 96.31796875 73.5 96 73.1373046875 95.8361328125 72.5 95.65
L 71.3 97.9 101.2 113.15
Q 102.1953125 112.273828125 103.25 110.4 105.1712890625 107.13359375 106.2 105.9
L 106 107.55 106.35 108.05
Q 107.476171875 107.4162109375 108.45 106.25
L 109.15 104.95 109.2 104.85
Q 109.5259765625 103.96484375 110 102.75 110.4943359375 101.5314453125 111.45 100.85 111.8041015625 100.21640625 112.1 99.6 112.265625 99.278515625 112.4 98.95 112.5970703125 98.626171875 112.75 98.3
L 112.75 98.35
Q 113.324609375 99.1935546875 113.6 99.75 114.5814453125 101.6796875 113.45 102.2 113.4669921875 102.2701171875 113.95 103.5 114.07734375 103.774609375 114.05 104
L 113.45 105.15
Q 114.56328125 105.687109375 115.65 105.3
L 115.7 105.3
Q 117.218359375 104.7224609375 118.2 104.95 118.019921875 105.271484375 117.75 105.65 117.1390625 106.778125 116.05 108.5
L 116 108.5
Q 114.893359375 110.5806640625 114.7 112.1 114.59453125 112.9390625 115.1 115.55 115.517578125 115.59765625 115.55 115.15 117.998828125 115.54375 117.3 121.1
L 119.9 125
Q 119.9451171875 124.9802734375 119.95 124.95
L 120 124.95
Q 122.144140625 119.2916015625 123.95 116.05 124.548046875 114.998046875 125.1 113.95 124.93984375 113.8509765625 124.85 113.65 124.808203125 113.457421875 124.9 113.25 131.5083984375 100.2580078125 133 85.9 133.05 85.3498046875 133.1 84.85 133.104296875 84.787109375 133.1 84.7
L 133.15 84.7 133.15 84.65 132.7 84.45 132.65 84.5 132.7 84.5 132.7 84.5 132.55 84.6 132.35 84.9 131.75 86.1 129.1 86.1
Q 123.1201171875 84.6228515625 122 84.35
L 121.8 84.3
Q 117.613671875 84.3169921875 113.65 86.95 109.748828125 89.6453125 108 89.65 106.6845703125 89.65390625 104.5 88.3 104.337109375 88.21328125 103.85 87.9 103.732421875 87.7810546875 103.55 87.65
L 103.5 87.65
M 94.9 48.3
L 91.2 47.3 96.7 50 97.45 48.55
Q 96.2998046875 48.3275390625 94.9 48.3
M 132.65 38.55
Q 123.5634765625 37.6681640625 122.45 37.65 118.1978515625 37.675390625 114.05 39.2
L 114 39.2
Q 110.2564453125 40.728515625 107 43.65 105.302734375 45.2263671875 103.2 47.8 101.6654296875 49.6705078125 101.35 49.65 100.7748046875 49.670703125 99 49 98.39375 48.7662109375 97.5 48.6
L 96.75 50 102.7 52.95 103.15 52.4
Q 102.9666015625 52.6779296875 102.75 52.95
L 113.1 58.05 113.1 58
Q 113.2283203125 57.823828125 113.4 57.75 113.623046875 57.7212890625 113.8 57.8
L 114.25 58.05 114.2 58.05 115.95 58.9
Q 116.1595703125 58.9990234375 116.2 59.2 116.291796875 59.392578125 116.2 59.55
L 121.25 62.05 121.3 62.05 130.25 66.45
Q 130.3486328125 66.2900390625 130.55 66.2 130.7423828125 66.1583984375 130.9 66.25
L 133.05 67.3
Q 133.2595703125 67.3990234375 133.3 67.6 133.391796875 67.792578125 133.3 67.95
L 135.2 68.9
Q 141.540234375 59.162109375 144.7 44.95 144.5376953125 44.8953125 144.4 44.7 144.309375 44.5509765625 144.35 44.35 144.6998046875 42.7998046875 145 41.2 145.15 40.4 145.3 39.6 145.3462890625 39.4072265625 145.5 39.3 145.680859375 39.183984375 145.85 39.2 146.0388671875 38.1841796875 146.15 37.2 145.9796875 37.1603515625 145.85 37 145.7236328125 36.845703125 145.75 36.65 145.88046875 35.5623046875 146 34.5 145.160546875 34.941796875 144.25 35.35 140.8244140625 36.9736328125 137.55 37.9
L 137.5 37.85
Q 134.8888671875 38.5498046875 132.65 38.55
M 47.5 136.45
L 46.75 138.15 47.45 136.4
Q 40.5931640625 134.4826171875 36.45 133.55 32.834765625 132.75078125 31.35 132.75 30.4994140625 132.7478515625 21.65 138.1
L 43.05 150.95 43.75 149.7 43.1 151 56.15 158.85
Q 56.8625 159.2875 57.35 159.55
L 59.4 160.8 59.4 160.85 60.15 161.25 63.15 163.05 69.7 167.05
Q 69.828515625 166.873828125 70 166.8 70.2236328125 166.7716796875 70.4 166.85
L 85.05 175.65 85.3 175.8 100.35 184.95
Q 103.740234375 182.8251953125 106.8 179.5 106.9396484375 179.3837890625 107.1 179.35 107.2537109375 179.3271484375 107.4 179.4 107.4724609375 179.4259765625 107.5 179.45 112.81015625 173.5611328125 117.15 163.9 120.7763671875 156.003515625 125.95 138.05
L 125.75 138.1 125.9 138.05 119.5 134.65
Q 119.4953125 134.7037109375 119.45 134.7 119.4009765625 134.744921875 119.35 134.7 119.29921875 134.7021484375 119.25 134.65 116.3177734375 136.0388671875 111.8 136.85
L 111.5 137.2 111.75 136.85
Q 107.0943359375 137.6482421875 100.9 137.65 98.1638671875 137.6484375 93.45 136.8 92.684765625 136.68828125 91.85 136.5 91.4578125 136.44375 90.8 136.3 86.465234375 135.4201171875 86 135.4 84.872265625 135.4181640625 84.45 136.3 84.15703125 137.588671875 83.75 138.3 82.200390625 141.1939453125 74.45 141.2 71.830859375 141.1994140625 68.2 140.85 68.014453125 140.8693359375 67.8 140.85
L 67.8 140.8
Q 60.165625 139.98125 50.3 137.4 49.887890625 137.1150390625 49.4 136.95 48.5470703125 136.730078125 47.5 136.45 Z"/>

<path fill="#DDDDDD" stroke="none" d="
M 81.4 59.1
L 81.4 59.15
Q 80.612890625 59.4638671875 76.8 62.35 73.3677734375 65.060546875 69.7 66 66.1267578125 66.9228515625 60.95 66.8
L 60.95 71.2 61.3 71.65 59.95 72.7
Q 59.8169921875 73.559765625 60.6 73.65 60.2419921875 75.0509765625 58.25 75.6 55.6794921875 76.3509765625 55.6 76.4 61.3384765625 80.483203125 71 81.35 68.724609375 83.09296875 67.4 83
L 67.35 83.4
Q 68.4283203125 83.8068359375 70.35 84.5 71.5623046875 84.928515625 73 85.45 70.3248046875 87.58671875 68.3 89.2
L 68.3 89.3
Q 64.57734375 92.477734375 64.2 94.3
L 65.5 94.95 66 94 65.55 94.95 69.45 96.95 70.45 94.95
Q 71.5552734375 95.2615234375 72.5 95.6
L 72.5 95.55
Q 72.5103515625 95.6177734375 72.5 95.65 73.1373046875 95.8361328125 73.5 96 74.7767578125 96.31796875 78.25 96.3 83.9310546875 96.3201171875 93.7 91.65 98.5859375 89.3345703125 102.45 86.95 102.516015625 86.9810546875 103.5 87.65
L 103.55 87.65
Q 103.732421875 87.7810546875 103.85 87.9 104.337109375 88.21328125 104.5 88.3 106.6845703125 89.65390625 108 89.65 109.748828125 89.6453125 113.65 86.95 117.613671875 84.3169921875 121.8 84.3
L 122 84.35
Q 123.1201171875 84.6228515625 129.1 86.1
L 131.75 86.1 132.35 84.9 132.55 84.6 132.7 84.5 132.7 84.5 132.65 84.5 112.8 74.65 112.5 75.05 112.8 74.6 89.7 63.25 89.7 63.2 81.4 59.1
M 40.8 90.55
L 40.75 90.55 40.75 90.55
Q 7.0490234375 112.723046875 16.6 134.95 16.6515625 134.9677734375 16.7 135 16.7525390625 135.012109375 16.75 135.05
L 16.8 135.15 21.35 137.9 21.4 137.85 21.4 137.9 21.65 138.1
Q 30.4994140625 132.7478515625 31.35 132.75 32.834765625 132.75078125 36.45 133.55 40.5931640625 134.4826171875 47.45 136.4
L 47.5 136.45
Q 48.5470703125 136.730078125 49.4 136.95 49.887890625 137.1150390625 50.3 137.4 60.165625 139.98125 67.8 140.8
L 67.8 140.85
Q 68.014453125 140.8693359375 68.2 140.85 71.830859375 141.1994140625 74.45 141.2 82.200390625 141.1939453125 83.75 138.3 84.15703125 137.588671875 84.45 136.3 84.872265625 135.4181640625 86 135.4 86.465234375 135.4201171875 90.8 136.3 91.4578125 136.44375 91.85 136.5 92.684765625 136.68828125 93.45 136.8 98.1638671875 137.6484375 100.9 137.65 107.0943359375 137.6482421875 111.75 136.85
L 112.35 135.95 111.8 136.85
Q 116.3177734375 136.0388671875 119.25 134.65 119.255078125 134.6009765625 119.25 134.55
L 103.3 126.05
Q 103.1994140625 126.2615234375 103 126.3 102.7927734375 126.3916015625 102.6 126.3
L 100 124.85 99.55 125.35 100 124.8 98.55 123.95
Q 98.375390625 123.873046875 98.3 123.65 98.2708984375 123.478515625 98.35 123.3
L 87.1 116.9
Q 87.023046875 117.075 86.8 117.1 86.6287109375 117.17890625 86.45 117.05
L 84.85 116.15
Q 84.7986328125 116.0998046875 84.75 116.05 84.6544921875 116.035546875 84.55 115.95
L 82.25 114.65
Q 82.07578125 114.5732421875 82 114.35 81.973828125 114.18828125 82.05 114
L 67.2 105.6 67.2 105.55 40.8 90.55
M 61.85 115.65
L 61.85 115.7
Q 63.9625 115.802734375 66 115.85 62.5736328125 118.253125 59.35 120.35 55.6662109375 122.7623046875 52.7 124.45 49.015234375 126.528125 47.8 126.5 46.7169921875 126.526953125 43 125.6 41.9025390625 125.3400390625 40.5 124.95 34.6560546875 123.422265625 32.45 123.4 30.8380859375 123.4251953125 26.75 124.6
L 26.7 124.6 26.75 124.55
Q 25.446484375 124.934765625 23.9 125.4 22.1251953125 125.994140625 21.55 125.65 20.79453125 125.2830078125 21.15 123.4 22.0798828125 118.4474609375 28.85 115.8 29.6685546875 115.521484375 30.5 115.25 35.8845703125 113.6490234375 42.45 113.65 48.3291015625 113.6439453125 52.3 114.35 52.810546875 114.4279296875 53.25 114.5 54.84921875 114.8712890625 56.75 115.1
L 56.95 114.7 56.75 115.15
Q 59.226953125 115.475 61.85 115.65
L 61.85 115.65 Z"/>

<path fill="#E6E6E6" stroke="none" d="
M 133.5 24.3
Q 133.458984375 24.3052734375 133.4 24.25
L 114.9 16.2 114.9 16.25
Q 88.493359375 33.220703125 91.2 47.3
L 94.9 48.3
Q 96.2998046875 48.3275390625 97.45 48.55
L 98.2 47.3 97.5 48.6
Q 98.39375 48.7662109375 99 49 100.7748046875 49.670703125 101.35 49.65 101.6654296875 49.6705078125 103.2 47.8 105.302734375 45.2263671875 107 43.65 110.2564453125 40.728515625 114 39.2
L 114.05 39.2
Q 118.1978515625 37.675390625 122.45 37.65 123.5634765625 37.6681640625 132.65 38.55 134.8888671875 38.5498046875 137.5 37.85
L 138.4 36.55 137.55 37.9
Q 140.8244140625 36.9736328125 144.25 35.35 145.160546875 34.941796875 146 34.5 146.03046875 34.355859375 146.05 34.2 146.28046875 31.8642578125 146.35 29.7
L 133.95 24.6
Q 133.7802734375 24.5482421875 133.7 24.35
L 133.65 24.35 133.7 24.4 133.6 24.35
Q 133.569921875 24.36171875 133.5 24.3
M 61.5 116.25
L 61.85 115.65
Q 59.226953125 115.475 56.75 115.15
L 56.55 115.55 56.75 115.1
Q 54.84921875 114.8712890625 53.25 114.5 52.810546875 114.4279296875 52.3 114.35 48.3291015625 113.6439453125 42.45 113.65 35.8845703125 113.6490234375 30.5 115.25 29.6685546875 115.521484375 28.85 115.8 22.0798828125 118.4474609375 21.15 123.4 20.79453125 125.2830078125 21.55 125.65 22.1251953125 125.994140625 23.9 125.4 25.446484375 124.934765625 26.75 124.55
L 26.95 124.15 26.75 124.6
Q 30.8380859375 123.4251953125 32.45 123.4 34.6560546875 123.422265625 40.5 124.95 41.9025390625 125.3400390625 43 125.6 46.7169921875 126.526953125 47.8 126.5 49.015234375 126.528125 52.7 124.45 55.6662109375 122.7623046875 59.35 120.35 62.5736328125 118.253125 66 115.85 63.9625 115.802734375 61.85 115.7
L 61.5 116.25
M 136.05 20.2
L 136 20.35
Q 136.76015625 21.0041015625 138.15 21.95 139.9857421875 23.21328125 145.6 25.35 147.923828125 26.274609375 150.9 27.3 151.574609375 28.0013671875 152.35 28.6 153.111328125 29.157421875 153.95 29.65 156.7599609375 27.710546875 156.8 27.65 157.578125 26.7900390625 158.05 25.5 158.058984375 25.4908203125 158.05 25.45
L 137.5 16.3 136.1 20.1
Q 136.076171875 20.175 136.05 20.2 Z"/>

<path fill="#5B4A0B" stroke="none" d="
M 99.95 185.85
L 99.95 185.85 94 196.05
Q 105.305859375 192.08984375 106.55 181.2 103.737109375 184.0818359375 100.65 185.95 100.548046875 186.04921875 100.4 186.05 100.2646484375 186.049609375 100.15 185.95
L 99.95 185.85
M 10.9 169.8
Q 10.9763671875 169.966015625 11.05 170.1
L 15.8 175.85 15.2 176.3
Q 15.22265625 176.32265625 15.25 176.35
L 15.25 176.35
Q 18.406640625 180.19921875 22.9 183.9 27.47578125 187.6833984375 34.55 190.85 34.58203125 190.8638671875 34.6 190.85
L 34.85 190.35 34.65 190.9 35.4 191.2
Q 39.310546875 192.9103515625 44 194.4 44.084765625 194.45234375 44.75 194.7
L 44.7 194.65
Q 48.5041015625 195.8421875 52.75 196.9 56.2998046875 197.81171875 59.75 198.4 63.7845703125 199.040234375 68.25 199.5 68.0884765625 199.6048828125 68.95 199.5 80.74453125 199.9578125 92.2 196.8 92.6638671875 196.5759765625 93.2 196.45 93.3076171875 196.2875 93.5 196.2 93.5771484375 196.199609375 93.65 196.15
L 99.75 185.7 92.6 181.4 92.25 182.05
Q 87.753515625 185.8095703125 78.7 189.1 77.021484375 189.7125 75 190.35 68.6626953125 192.2455078125 63.05 192.6 61.637109375 192.73046875 60.25 192.7 53.90703125 192.7234375 46.8 191.2
L 46.7 191.3 46.8 191.15
Q 46.2171875 191.041796875 45.6 190.9 45.1517578125 190.7873046875 44.65 190.65 44.6369140625 190.66484375 44.6 190.65 44.5494140625 190.63984375 44.5 190.6 40.700390625 189.63125 36.75 188.2
L 36.7 188.2
Q 36.25078125 188.009375 36 187.9 23.43828125 183.238671875 10.9 169.8 Z"/>

<path fill="#666666" stroke="none" d="
M 99.95 185.85
L 99.95 185.85 99.75 185.7 93.65 196.15
Q 93.8287109375 196.1134765625 94 196.05
L 99.95 185.85
M 126.65 114
Q 126.605859375 114.0455078125 126.55 114.05
L 126.55 114.1 119.25 134.55
Q 119.255078125 134.6009765625 119.25 134.65 119.29921875 134.7021484375 119.35 134.7 119.4009765625 134.744921875 119.45 134.7 119.4953125 134.7037109375 119.5 134.65
L 119.5 134.65 126.8 114.2
Q 126.8447265625 114.1490234375 126.8 114.1 126.8005859375 114.0478515625 126.75 114 126.6990234375 114.005078125 126.65 114
M 127.8 70.75
L 127.8 70.75
Q 127.7080078125 70.97109375 127.75 71.15 127.8412109375 71.3646484375 128 71.45
L 130.3 72.6
Q 130.5212890625 72.691796875 130.7 72.6 130.91484375 72.558984375 131 72.35
L 131 72.35
Q 131.0884765625 72.16796875 131 71.95 130.9587890625 71.7853515625 130.75 71.7
L 129.3 70.95 128.45 70.55
Q 128.2787109375 70.458203125 128.05 70.5 127.896484375 70.587109375 127.8 70.75
M 153.3 39.55
Q 153.3447265625 39.49921875 153.3 39.45 153.3005859375 39.3978515625 153.25 39.35 153.1990234375 39.355078125 153.15 39.35 153.0978515625 39.39921875 153.05 39.45
L 153.05 39.45 139.8 76.75
Q 139.805078125 76.80078125 139.8 76.85 139.84921875 76.9021484375 139.9 76.9 139.9509765625 76.944921875 140 76.9 140.04140625 76.9056640625 140.05 76.85
L 140.05 76.85 153.3 39.55
M 164.1 6.1
L 164.05 6.15 155.5 21.45
Q 155.5109375 21.4748046875 155.5 21.5 155.44765625 21.631640625 155.5 21.75 155.5447265625 21.9556640625 155.7 22.05 155.8298828125 22.1298828125 155.95 22.1
L 155.95 22.1
Q 156.05390625 22.3154296875 156.25 22.4 156.434375 22.4919921875 156.6 22.4 156.8154296875 22.3580078125 156.9 22.15
L 156.9 22.1 157.75 20.5
Q 157.8419921875 20.3275390625 157.75 20.1 157.7103515625 19.9689453125 157.55 19.85
L 164.55 7.15 158.9 23 158.05 25.45
Q 158.058984375 25.4908203125 158.05 25.5
L 158.05 25.55
Q 158.0994140625 25.60234375 158.15 25.6 158.2009765625 25.644921875 158.25 25.6 158.3021484375 25.6005859375 158.3 25.55
L 159.15 23.15 165 6.6
Q 165.0447265625 6.5490234375 165 6.5 165.0005859375 6.4478515625 164.95 6.4
L 165.1 6.1
Q 165.1828125 5.9373046875 165.1 5.75 165.036328125 5.5998046875 164.85 5.5 164.6998046875 5.466796875 164.5 5.55 164.35 5.6134765625 164.25 5.75
L 164.1 6.1 Z"/>

<path fill="#735E0D" stroke="none" d="
M 60.4 181.15
Q 60.252734375 181.7140625 60.1 184.05 59.855078125 188.298046875 56.45 188.3 55.80546875 188.2927734375 54 187.15 52.9666015625 186.5177734375 52.2 186.25 51.7263671875 186.0736328125 51.35 186.05 51.287890625 186.0748046875 50.85 186.15
L 46.8 191.2
Q 53.90703125 192.7234375 60.25 192.7 61.637109375 192.73046875 63.05 192.6 68.6626953125 192.2455078125 75 190.35 77.021484375 189.7125 78.7 189.1 87.753515625 185.8095703125 92.25 182.05
L 92.6 181.4 85.3 176.95 85.25 176.95 85.1 177.15
Q 84.15 178.837109375 81.8 180.85
L 81.8 180.85 81.8 180.85 81.8 180.9
Q 80.7060546875 181.77421875 80.25 182.1 77.772265625 183.9990234375 75.5 184.85 75.311328125 184.95390625 75.1 185 73.38046875 185.625 71.8 185.6 70.3056640625 185.6248046875 67.75 184 66.8861328125 183.46484375 65.9 182.7 62.3419921875 179.843359375 62.25 179.85 61.5716796875 179.8458984375 61.1 180.15 60.6548828125 180.5021484375 60.4 181.15
M 65.35 167.4
L 65.75 167.45 65.85 167.35
Q 65.59765625 167.3837890625 65.35 167.4
M 65.35 167.4
Q 63.1423828125 167.473828125 61.25 167.55 61.0369140625 167.6109375 60.8 167.65
L 55.95 177.15
Q 56.8583984375 177.1322265625 58.6 176.45 58.753515625 176.4078125 58.9 176.35 58.7791015625 176.4265625 58.7 176.5 59.2462890625 176.2470703125 59.45 176.15 60.380078125 175.7615234375 61.45 175.2 63.4931640625 174.2095703125 66 172.75 65.1306640625 171.85 65.1 170.95 66.0193359375 169.18046875 66 168.3
L 65.35 167.4
M 15.15 176.25
Q 15.17265625 176.27265625 15.2 176.3
L 15.8 175.85 11.05 170.1
Q 12.6939453125 173.21875 15.2 176.25
L 15.15 176.25
M 28.9 171.55
L 28.25 171.65 28.3 171.7
Q 28.2962890625 171.7205078125 28.25 171.7 28.242578125 171.6796875 28.2 171.65
L 28.2 171.6
Q 22.192578125 172.103515625 20.15 171.8 17.36171875 171.4615234375 14.9 170.55 12.4142578125 169.5259765625 10.35 168.7 10.6103515625 169.2802734375 10.9 169.8 23.43828125 183.238671875 36 187.9 36.25078125 188.009375 36.7 188.2
L 36.75 188.2
Q 40.700390625 189.63125 44.5 190.6 44.5494140625 190.63984375 44.6 190.65 44.6369140625 190.66484375 44.65 190.65 45.1517578125 190.7873046875 45.6 190.9 46.2171875 191.041796875 46.8 191.15
L 50.8 186.15
Q 49.9564453125 186.387890625 48.95 187.4 47.7220703125 188.72890625 46 188.7 45.6265625 188.7263671875 45.15 188.55 43.4162109375 187.8947265625 40.7 184.85 40.170703125 184.2921875 39.55 183.6
L 38.55 185.2 39.5 183.55
Q 36.7001953125 180.5228515625 36.25 180.3 38.0291015625 176.830859375 39.65 175.45 41.54609375 173.8904296875 45.15 173.15
L 45.55 174.05
Q 45.6923828125 174.1546875 45.8 174.25 46.8279296875 175.1095703125 47.4 176.25 47.5880859375 176.59609375 47.7 176.9
L 52.25 168.75
Q 50.8814453125 168.926171875 49.25 169.15
L 48.6 170.1 49.2 169.15
Q 46.903515625 169.439453125 44.7 169.7
L 44.65 169.7
Q 42.9923828125 169.9427734375 41.4 170.15 36.4623046875 170.7697265625 32.6 171.15
L 32.6 171.2 32.3 171.2
Q 30.486328125 171.4041015625 28.9 171.55
M 32.4 171.3
L 32.45 171.25
Q 32.5234375 171.3142578125 32.45 171.3 32.4361328125 171.3306640625 32.4 171.3 Z"/>

<path fill="#333333" stroke="none" d="
M 75.1 170.85
L 74.9 170.7 69.65 180.35 69.65 180.4
Q 69.6177734375 180.435546875 69.6 180.45 69.6470703125 180.5248046875 69.7 180.55 69.735546875 180.5822265625 69.75 180.55 69.8123046875 180.5583984375 69.8 180.5
L 69.85 180.5 75.1 170.85 Z"/>

<path fill="#826A0F" stroke="none" d="
M 39.5 183.55
L 40.4 182.25 39.55 183.6
Q 40.170703125 184.2921875 40.7 184.85 43.4162109375 187.8947265625 45.15 188.55 45.6265625 188.7263671875 46 188.7 47.7220703125 188.72890625 48.95 187.4 49.9564453125 186.387890625 50.8 186.15 50.8587890625 186.1236328125 50.9 186.1 50.8712890625 186.1234375 50.85 186.15 51.287890625 186.0748046875 51.35 186.05 51.7263671875 186.0736328125 52.2 186.25 52.9666015625 186.5177734375 54 187.15 55.80546875 188.2927734375 56.45 188.3 59.855078125 188.298046875 60.1 184.05 60.252734375 181.7140625 60.4 181.15 60.6548828125 180.5021484375 61.1 180.15 61.5716796875 179.8458984375 62.25 179.85 62.3419921875 179.843359375 65.9 182.7 66.8861328125 183.46484375 67.75 184 70.3056640625 185.6248046875 71.8 185.6 73.38046875 185.625 75.1 185 75.311328125 184.95390625 75.5 184.85 77.772265625 183.9990234375 80.25 182.1 80.7060546875 181.77421875 81.8 180.9
L 81.8 180.85 81.8 180.85 81.8 180.85
Q 84.15 178.837109375 85.1 177.15
L 85.25 176.95
Q 85.23046875 176.921875 85.2 176.9
L 78.5 172.9 74 181.55
Q 71.2841796875 181.7734375 69.8 180.5 69.8123046875 180.5583984375 69.75 180.55 69.735546875 180.5822265625 69.7 180.55 69.6470703125 180.5248046875 69.6 180.45 69.6177734375 180.435546875 69.65 180.4
L 69.65 180.35
Q 68.7140625 179.4337890625 68.35 177.8
L 73 169.55 69.9 167.7
Q 69.7240234375 167.62109375 69.65 167.4 69.6556640625 167.353125 69.65 167.25 67.85546875 167.321875 65.85 167.4
L 65.8 167.45 65.75 167.45 65.35 167.4 66 168.3
Q 66.0193359375 169.18046875 65.1 170.95 65.1306640625 171.85 66 172.75 63.4931640625 174.2095703125 61.45 175.2 60.380078125 175.7615234375 59.45 176.15 59.2462890625 176.2470703125 58.7 176.5 58.7791015625 176.4265625 58.9 176.35 58.753515625 176.4078125 58.6 176.45 56.8583984375 177.1322265625 55.95 177.15
L 53.15 182.75
Q 50.68125 182.427734375 49.05 181.4 47.4505859375 180.41953125 46.7 178.75
L 47.7 176.9
Q 47.5880859375 176.59609375 47.4 176.25 46.8279296875 175.1095703125 45.8 174.25 45.6923828125 174.1546875 45.55 174.05
L 45.15 173.15
Q 41.54609375 173.8904296875 39.65 175.45 38.0291015625 176.830859375 36.25 180.3 36.7001953125 180.5228515625 39.5 183.55 Z"/>

<path fill="#B7B7B7" stroke="none" d="
M 155.25 30.35
Q 154.585546875 30.021484375 153.95 29.65 153.3755859375 30.06328125 152.65 30.55 151.6580078125 31.26796875 150.55 31.95 150.453125 32.027734375 150.35 32.1 148.794140625 33.0681640625 147.05 33.95 147.06640625 34.1310546875 147.05 34.3 146.9 35.5 146.75 36.75 146.732421875 36.8703125 146.65 36.95
L 146.7 37
Q 146.8130859375 36.8353515625 147 36.75 147.1923828125 36.7083984375 147.35 36.8 147.5880859375 36.9078125 147.8 37.05 148.1505859375 37.17734375 148.5 37.35 148.67421875 37.4767578125 148.7 37.65 148.7681640625 37.832421875 148.7 37.95 150.4537109375 38.7201171875 153.05 39.45
L 153.05 39.45
Q 153.0978515625 39.39921875 153.15 39.35 153.1990234375 39.355078125 153.25 39.35 153.3005859375 39.3978515625 153.3 39.45 153.3447265625 39.49921875 153.3 39.55 154.7142578125 39.9166015625 156.3 40.3
L 156.85 39.5
Q 156.8376953125 38.533984375 157.35 37.3 157.4083984375 37.2203125 157.45 37.15 157.7 36.5615234375 158.05 35.9 158.3908203125 35.380078125 158.8 34.8 159.359375 34.003515625 160.1 33.1 160.33828125 32.855078125 160.6 32.55 160.9232421875 32.2162109375 161.2 31.85 158.88984375 31.8732421875 156.25 30.8 155.7833984375 30.5939453125 155.25 30.35 Z"/>

<path fill="#B3B3B3" stroke="none" d="
M 136 20.35
L 134.35 23.65 144.05 27.65 144.35 27.8 147.05 28.85
Q 147.191796875 28.940234375 147.25 29.05 147.3564453125 29.199609375 147.35 29.35 147.3041015625 31.5685546875 147.05 33.95 148.794140625 33.0681640625 150.35 32.1 150.453125 32.027734375 150.55 31.95 151.6580078125 31.26796875 152.65 30.55 153.3755859375 30.06328125 153.95 29.65 153.111328125 29.157421875 152.35 28.6 151.574609375 28.0013671875 150.9 27.3 147.923828125 26.274609375 145.6 25.35 139.9857421875 23.21328125 138.15 21.95 136.76015625 21.0041015625 136 20.35
M 144.6 27.7
Q 144.62890625 27.7556640625 144.35 27.7
L 144.4 27.65
Q 144.4265625 27.63359375 144.45 27.6 144.52890625 27.61796875 144.55 27.65 144.61640625 27.6765625 144.6 27.7
M 171.45 39.15
L 174.45 32.7 158.3 25.55
Q 158.3021484375 25.6005859375 158.25 25.6 158.2009765625 25.644921875 158.15 25.6 158.0994140625 25.60234375 158.05 25.55
L 158.05 25.5
Q 157.578125 26.7900390625 156.8 27.65 156.7599609375 27.710546875 153.95 29.65 154.585546875 30.021484375 155.25 30.35 155.7833984375 30.5939453125 156.25 30.8 158.88984375 31.8732421875 161.2 31.85 160.9232421875 32.2162109375 160.6 32.55 160.33828125 32.855078125 160.1 33.1 164.499609375 38.006640625 165.7 38.15 166.70546875 38.2966796875 171.45 39.15 Z"/>

<path fill="#AEAEAE" stroke="none" d="
M 162.5 45.25
Q 165.1625 46.908203125 167.65 47.3
L 170.5 41.25
Q 166.415625 39.9416015625 164.6 39.9 162.978125 39.92109375 159.45 35.65 159.1484375 35.24140625 158.8 34.8 158.3908203125 35.380078125 158.05 35.9 157.7 36.5615234375 157.45 37.15 157.4083984375 37.2203125 157.35 37.3 156.8376953125 38.533984375 156.85 39.5
L 156.3 40.3
Q 160.124609375 43.63125 161.65 44.65 162.08828125 44.99453125 162.5 45.25 Z"/>
</g>

<g id="texture_0_Layer0_0_FILL">
<path fill="#FFFFFF" stroke="none" d="
M 111.85 105.85
L 114.4 103.3 114.4 98.2 106.75 105.85 111.85 105.85
M 37.8 19.25
L 32.75 19.25 27.15 24.8 27.15 29.9 37.8 19.25
M 27.15 19.25
L 27.15 19.85 27.8 19.25 27.15 19.25
M 78 19.25
L 72.9 19.25 27.15 65 27.15 70.05 78 19.25
M 67.95 19.25
L 62.85 19.25 27.15 54.95 27.15 60.05 67.95 19.25
M 57.9 19.25
L 52.8 19.25 27.15 44.9 27.15 50 57.9 19.25
M 47.85 19.25
L 42.75 19.25 27.15 34.85 27.15 39.95 47.85 19.25
M 114.4 53.1
L 114.4 48 56.55 105.85 61.65 105.85 114.4 53.1
M 114.4 63.15
L 114.4 58.05 66.6 105.85 71.7 105.85 114.4 63.15
M 114.4 83.2
L 114.4 78.15 86.7 105.85 91.75 105.85 114.4 83.2
M 114.4 73.2
L 114.4 68.1 76.65 105.85 81.75 105.85 114.4 73.2
M 114.4 93.25
L 114.4 88.15 96.7 105.85 101.8 105.85 114.4 93.25
M 114.4 43.05
L 114.4 37.95 46.5 105.85 51.6 105.85 114.4 43.05
M 88.05 19.25
L 82.95 19.25 27.15 75 27.15 80.1 88.05 19.25
M 98.05 19.25
L 93 19.25 27.15 85.05 27.15 90.15 98.05 19.25
M 108.1 19.25
L 103 19.25 27.15 95.1 27.15 100.2 108.1 19.25
M 114.4 19.25
L 113.05 19.25 27.15 105.15 27.15 105.65 27.35 105.85 31.55 105.85 114.4 22.95 114.4 19.25
M 114.4 33
L 114.4 27.9 36.5 105.85 41.55 105.85 114.4 33 Z"/>
</g>

<g id="iconTemp_0_Layer0_0_FILL">
<path fill="#822798" stroke="none" d="
M 114.75 -1
L 3 -1
Q -1 -1 -1 3
L -1 114.75
Q -1 118.75 3 118.75
L 114.75 118.75
Q 118.75 118.75 118.75 114.75
L 118.75 3
Q 118.75 -1 114.75 -1
M 114.75 1
Q 116.75 1 116.75 3
L 116.75 114.75
Q 116.75 116.75 114.75 116.75
L 3 116.75
Q 1 116.75 1 114.75
L 1 3
Q 1 1 3 1
L 114.75 1 Z"/>
</g>

<path id="Tempest_0_Layer2_0_1_STROKES" stroke="#FFFFFF" stroke-width="1" stroke-linejoin="round" stroke-linecap="round" fill="none" d="
M -72.25 158.125
Q -72.8845703125 158.35 -73.85 158.35 -77.8 158.35 -78.8 156.1 -79.3 158.55 -81.1 158.55
L -82.1 158.3
Q -82.6 157.8 -82.6 157.15 -82.6 156.4 -81.55 154.45 -81.084765625 153.5970703125 -80.65 153.025 -79.9623046875 152.094921875 -79.35 151.85
L -79.1 151.6
Q -81.276171875 152.5892578125 -83.15 153.45 -94.5494140625 158.6 -94.85 158.6 -95.810546875 158.6 -96.45 158.5 -97.8109375 158.8 -99.35 158.8 -100.2146484375 158.8 -101.075 158.7
L -103.85 159.8 -104.95 159.2
Q -105.65 159.4 -106.35 159.6 -107.1 159.6 -107.75 159.4 -109.2 159.05 -110.6 158.55
L -110.1 157.75
Q -109.85 157.7 -109.55 157.7 -109.15 157.75 -108.75 157.85 -107.245703125 158.159765625 -105.7 157.45 -106.379296875 157.1576171875 -107.05 156.8 -106.23203125 156.2546875 -104.875 156 -103.7505859375 155.8 -102.25 155.8 -102.1740234375 155.8 -102.1 155.8 -99.6412109375 155.6025390625 -97.05 155.325 -96.077734375 155.1111328125 -95.3 154.8
L -94.35 154.1
Q -94.975390625 154.1537109375 -95.525 154.175 -96.6791015625 154.5361328125 -97.85 154.8 -97.947265625 154.7091796875 -98.05 154.625 -98.5173828125 154.7712890625 -99.025 154.9 -100.126953125 155.1765625 -101.35 155.35
L -111.6 155.35
Q -112.05 155.4 -112.05 154.15 -112.05 154.05 -105.1 152.55 -101.9072265625 151.706640625 -99.225 150.7 -98.169140625 144.351953125 -88.4 142.3 -87.612890625 142.134375 -86.65 141.95 -82.0634765625 138.05 -78.55 138.05 -77.85 138.05 -76.6 137.55 -76.45 135.55 -76.35 134.85 -76.1 134.85 -75.1 135.35 -74.6490234375 134.1095703125 -74.3 133.025 -75.662890625 133.3 -77.35 133.3 -78.1 133.3 -78.35 132.9
L -78.8 132.35
Q -79.9 134.65 -80.05 134.9 -80.15 135.05 -81.75 135.05 -82.5 135.05 -82.4 135.65 -82.3 136.5 -82.35 136.55 -83.85 136.05 -84.35 136.05 -84.6 136.2 -84.6 137.1 -85.717578125 137.6916015625 -86.65 138.15 -87.06484375 138.787109375 -87.4 139.25 -87.973046875 140.059375 -88.3 140.35 -88.5662109375 139.9880859375 -88.775 139.675 -88.9125 139.448828125 -89.025 139.25 -90.335546875 139.8 -90.85 139.8 -92.19140625 139.8 -92.325 138.05 -97.1779296875 140.1 -100.1 140.1
L -105.55 139.85
Q -106.35 139.1 -106.55 138.8 -106.1541015625 138.69453125 -105.5 138.575
L -105.625 137.75
Q -113.2171875 138.815234375 -119.55 130.85 -119.7 130.65 -119.7 130.35
L -117.9 129.9
Q -115.75 132.9 -112.25 133.8 -110.25 134.25 -108.125 133.85 -104.25 134.1 -100.5 132.85 -99.55 132.65 -98.6 132.3 -94.1 129.7 -94.7 123.7 -94.75 123.45 -94.65 123.2 -87.95 113.65 -77.2 112.4
L -76.55 113.95
Q -65.15 111.25 -58.5 118.2 -58.0771484375 118.64765625 -57.925 119.225 -57.7744140625 119.808984375 -57.9 120.525
L -58.4 121.675 -58.6 121.65
Q -58.63515625 121.04296875 -58.85 121
L -59.1 121.1
Q -59.3298828125 121.1 -59.85 121.425
L -61.2 121.2 -61.6 117.1 -63.55 118.05
Q -66.692578125 122.1720703125 -70.8 123.6 -71.05 126.35 -71.2 126.6 -69.8203125 125.81015625 -67.6 124.7 -67.3625 124.580078125 -67.125 124.475 -62.9193359375 122.35 -62.35 122.35 -60.617578125 122.35 -59.15 122.65 -58.3060546875 122.810546875 -57.55 123.075 -56.0857421875 123.5763671875 -54.95 124.45 -51.013671875 124.748828125 -49.85 125.95 -49.45 126.35 -49.375 126.775 -49.312109375 127.1314453125 -49.475 127.5 -49.10546875 127.5619140625 -48.7 127.625 -49.35 126.8306640625 -49.35 126.4 -49.35 125.5 -46.75 124.9 -43.95 124.3 -43.3 122.05 -43.1 120.55 -42.75 119.5 -42.15 117.65 -40.55 116.8 -36.198828125 114.42265625 -32.25 109.675 -32.1103515625 109.1353515625 -31.575 108.6 -31.4470703125 108.475 -31.3 108.35 -30.1 107.35 -28.35 107.35 -27.1923828125 107.35 -25.625 108.6 -25.4724609375 108.724609375 -25.325 108.85
L -25.1 109.05
Q -25.0669921875 109.0794921875 -25.025 109.1 -24.362890625 109.17109375 -23.75 109.3 -20.5087890625 110.0041015625 -18.9 112.6 -18.15 113.75 -17.55 116.85 -17.2021484375 117.0046875 -16.075 116.75 -15.7470703125 116.6634765625 -15.35 116.55 -9.1607421875 116.55 -8.075 122.1
L -7.8 122.1
Q -7.3890625 122.6623046875 -7.05 123.575 -6.37578125 122.9931640625 -5.35 122.6 -3.35 123.7 -3.35 123.8 -3.35 124.1 -4.4 125.2 -4.83515625 125.63515625 -5.15 126.075 -4.8974609375 126.1025390625 -4.85 126.15 -4.7 126.25 -4.7 127.15 -4.7 128.0150390625 -4.925 128.7 -5.8017578125 131.35 -10.05 131.35 -10.65 131.35 -11.5 131.95 -12.3 132.55 -12.95 132.55 -13.95 132.55 -14.55 130.6 -14.65 130.5 -14.7 130.35 -14.8 129.85 -15.45 129.85 -17.45 130.8 -18.7 130.8 -19.45 130.8 -20.45 130.55 -20.5904296875 130.1287109375 -20.775 129.725 -20.7865234375 129.8875 -20.8 130.05 -21.45 130.35 -21.95 130.55 -23.1 130.1 -23.2 129.45 -23.1 128.7 -23.2 128.35 -23.2 128.05 -23.3 127.8 -24.55 129.55 -26.45 129.55 -27.9 129.55 -28.7 127.95
L -28.725 127.925
Q -29.5046875 128.6515625 -29.95 128.8 -30.0677734375 128.728125 -30.175 128.65 -30.3572265625 128.5318359375 -30.525 128.4 -30.490234375 128.6009765625 -30.475 128.825 -30.45 129.04921875 -30.45 129.3 -30.8818359375 129.558984375 -31.325 129.75 -31.3634765625 130.6634765625 -31.6 130.9 -32.4 131.8 -35.95 131.8
L -36.3 131.8
Q -36.3 132.1 -35.8 133.3 -35.8 133.3650390625 -35.8 133.425 -35.8830078125 134.153515625 -36.825 134.725 -36.1806640625 135.5744140625 -36.3 136.35 -36.75 136.8 -38 136.8 -39 136.8 -40.55 135.2 -41.9681640625 133.7818359375 -43.55 133.625 -43.7455078125 133.6 -43.95 133.6 -45.6 133.6 -45.9 132.75 -45.9681640625 131.794921875 -46.125 131.025 -49.264453125 130.905078125 -51.175 130.175 -51.0904296875 130.93828125 -51.05 132.05 -51.0837890625 132.090625 -51.125 132.125 -51.1 132.4603515625 -51.1 132.85 -51.35 133.3 -52.85 133.8 -53.0216796875 133.983984375 -53.15 134.05 -53.55 134.243359375 -53.55 133.3 -53.55 133 -53 132.65 -52.6 132.35 -53.05 130.55
L -52.825 130.5
Q -55.1412109375 130.3 -55.85 130.3 -56.338671875 130.3 -57 130 -56.64609375 130.3951171875 -56.4 130.85 -55.97890625 131.6921875 -55.875 132.6 -54.471484375 132.6265625 -53.7 133.675 -53.475 133.974609375 -53.3 134.35
M -54.325 149.8
Q -54.55390625 150.10703125 -55 150.6 -55.4880859375 151.1125 -55.85 151.4 -56.2197265625 151.7232421875 -56.45 151.8 -56.659375 151.758203125 -56.8 151.725 -56.5994140625 152.202734375 -56.45 152.8 -58.25 154.3 -58.35 154.3 -58.561328125 154.3 -58.8 154.275 -59.7513671875 154.1416015625 -61.25 153.55 -61.515625 153.4423828125 -61.8 153.35
M -62.4 156
Q -61.9755859375 156.4154296875 -61.675 156.85
L -61.6 156.55
Q -61.35 156.55 -59.85 156.35 -57.3 156.35 -54.95 160.8 -54.95 160.8587890625 -54.975 160.95
M -60.575 166.475
Q -60.55 166.6384765625 -60.55 166.85 -60.55 166.9853515625 -60.55 167.1 -60.14609375 166.8482421875 -59.6 166.6
L -59.35 166.5
Q -59.1 166.55 -59.1 167.35 -59.1 167.975 -59.4 168.525
L -59.35 168.5
Q -59.1 168.55 -59.1 169.35 -59.1 169.5080078125 -59.125 169.65 -58.71640625 169.9189453125 -58.3 170.1
L -58.05 170.85
Q -58.15546875 171.019921875 -58.25 171.175
M -66.7 168.725
Q -67.5787109375 169.8982421875 -68.5 171.05 -71.65 171.25 -73.75 169 -76.25 170.8 -79 169.65 -79.217578125 169.5775390625 -79.4 169.475 -79.5951171875 169.3548828125 -79.75 169.2 -80.45 168.45 -81.125 167.65
M -72.25 158.125
Q -71.2552734375 157.7451171875 -71.125 156.775 -71.1 156.61328125 -71.1 156.45 -72.491015625 154.2984375 -73.75 152.625 -73.2232421875 152.85 -72.6 152.85 -71.066015625 152.85 -70.2 152.675 -69.5591796875 152.5375 -69.3 152.3 -68.688671875 151.7634765625 -68.225 151.35 -67.9724609375 150.8904296875 -67.625 150.5 -67.4091796875 150.26328125 -67.15 150.05 -67.2806640625 150.0603515625 -67.425 150.075 -67.9212890625 150.110546875 -68.55 150.35 -69.8 150.8 -70.35 150.8 -71.173046875 150.8 -71.825 150.725 -72.795703125 150.6001953125 -73.375 150.3 -73.221484375 150.1248046875 -73.3 149.85
L -73.325 149.8 -73.55 149.55
Q -74.042578125 149.1611328125 -74.5 148.85 -75.059375 147.958984375 -75.35 147.85 -75.6 147.85 -75.8 147.85 -76.0208984375 147.8720703125 -76.15 148.025 -76.536328125 147.9001953125 -76.9 147.85 -77.27890625 147.791796875 -77.55 147.75 -78.2291015625 147.6208984375 -78.3 147.55
L -78.625 147.55
Q -79.52578125 146.9435546875 -80.325 146.7 -80.860546875 146.55 -81.35 146.55 -81.5212890625 146.6765625 -81.7 146.8 -85.8560546875 149.8732421875 -88.95 152.125 -91.086328125 153.669140625 -92.725 154.825 -96.5181640625 157.4970703125 -97.6 158.05 -97.2900390625 158.3599609375 -96.45 158.5
M -70.8 123.6
Q -71.726171875 123.9162109375 -72.7 124.1 -72.9 124.2 -73.15 124.1 -73.25 123.9 -73.25 123.7 -73.4 122.05 -72.7 120.6 -72.1 119.4 -71.35 118.3
L -72.925 118.025
Q -74.05 118.05 -74.875 118.725 -75.7 119.4 -75.725 120.35
L -77.75 123.85 -78.85 124.05 -80.8 122.45
Q -81.6689453125 124.3689453125 -82.825 125.725 -84.8654296875 128.112109375 -87.8 128.75 -88.05 128.85 -88.3 128.8
L -89.3 124.8 -92.8 130.3 -93.075 130.65
Q -99.7296875 136.922265625 -105.625 137.75
M -85.75 134.475
Q -85.2642578125 134.5626953125 -84.8 134.75 -84.2453125 134.0275390625 -83.8 133.1 -83.7916015625 132.9646484375 -83.775 132.825 -84.6265625 133.668359375 -85.75 134.475 -86.47578125 134.36171875 -87.25 134.5 -88.8 134.8 -88.8 136.15 -88.8 136.26640625 -88.8 136.375 -88.8626953125 136.8447265625 -89.15 137.05 -89.3486328125 137.17421875 -89.45 137.375 -90.1845703125 137.334765625 -90.725 137.325 -92.35 137.31328125 -92.35 137.6 -92.35 137.832421875 -92.325 138.05
M -83.775 132.825
Q -83.6443359375 130.64921875 -83.55 129.8 -83.35 128.3 -79.85 128.3 -76.8 128.3 -76.4 129.2 -76.15 129.7 -76.55 130.3 -74.5578125 129.0193359375 -73.3 128.175 -73.3 128.1083984375 -73.3 128.05 -72.8625 127.5578125 -71.2 126.6
M -90.725 137.325
Q -90.5427734375 137.241015625 -90.35 137.15 -89.5447265625 136.7638671875 -88.8 136.375
M -81.7 146.8
Q -82.5638671875 146.84765625 -83.5 146.85
L -83.85 147.05 -83.95 146.875
Q -84.9029296875 146.9421875 -85.7 147.425
L -85.3 148.35
Q -86.6595703125 149.5154296875 -88.075 150.5 -88.445703125 151.175390625 -88.95 152.125
M -62.825 127.85
Q -66.953515625 128.675 -69.6 132.45 -70.65 134.05 -71.4 136 -71.8 137.05 -72.1 138.05 -75.45 145.2 -84.45 146.65 -85.24453125 146.74921875 -90.075 147.15 -90.9365234375 148.9953125 -91.85 150.35 -93.7314453125 153.071484375 -97.375 154.4 -97.6349609375 154.621875 -97.85 154.8
M -25.025 109.1
Q -23.6375 110.37265625 -23.1 111.35 -25.1 112.55 -26.35 112.55 -27.35 112.55 -29.55 111.85 -29.830078125 111.7634765625 -30.075 111.675 -29.651171875 112.0560546875 -28.9 112.6 -28.5580078125 112.92890625 -28.3 113.275 -27.7466796875 113.53515625 -27.05 113.8 -26.1373046875 114.13671875 -25.375 114.45 -26.5408203125 114.9724609375 -27.6 115.45 -27.61484375 116.53515625 -27.85 116.3 -28.45 116.35 -31.25 117.45 -32.81171875 118.0423828125 -34.375 118.4 -36.1275390625 119.1439453125 -37.075 119.5
L -37.1 121.1
Q -37.1 121.6 -38.35 121.6 -39.080859375 121.6 -39.525 121.075 -39.7818359375 121.412109375 -39.95 121.8 -39.9736328125 121.8708984375 -40 122 -39.8650390625 122.77109375 -39.55 123.8 -39.55 125.2732421875 -40.925 125.925 -41.66015625 127.251953125 -43.475 127.75 -44.5923828125 128.05 -46.1 128.05 -46.2005859375 128.033203125 -46.3 128.025 -46.56953125 127.9798828125 -46.825 127.925 -47.3841796875 128.2283203125 -47.85 128.55 -48.3560546875 128.0439453125 -48.7 127.625
M -34.375 118.4
Q -35.71171875 118.7115234375 -37.05 118.85
L -37.075 119.5
M -39.525 121.075
L -39.55 121.05
Q -39.7296875 120.7419921875 -39.85 120.55 -39.97578125 120.37421875 -40.05 120.3 -40.08671875 120.45390625 -40.1 120.65 -40.144140625 121.19296875 -40 122
M -28.3 113.275
Q -27.6 114.231640625 -27.6 115.3 -27.6 115.374609375 -27.6 115.45
M -38.05 128.7
Q -36.6640625 127.7033203125 -35.325 126.275 -34.3041015625 125.82421875 -32.95 125.3 -31.2103515625 125.3 -30.975 126.7 -29.269921875 124.8 -28.45 124.8 -28.3384765625 124.8 -28.225 124.825
L -28.2 124.8
Q -27.495703125 124.340625 -26.625 124.175 -26.069921875 124.05 -25.45 124.05 -22.86015625 124.05 -21.625 124.75 -20.3900390625 125.4400390625 -20.5 126.825 -19.850390625 126.35 -19.45 126.35 -18.78671875 126.35 -14.5 127.725 -14.2623046875 127.6 -13.95 127.6 -13.2658203125 127.6 -12.825 128.25 -12.3373046875 128.422265625 -11.8 128.6
L -11.575 129.25
Q -9.5828125 128.0859375 -8.3 127.35 -8.35 127.0927734375 -8.35 126.55 -8.35 126.4099609375 -8.35 126.275 -7.7095703125 126.1904296875 -8.05 125.85 -7.85 125.1 -7.85 124.7 -7.85 123.2755859375 -8.075 122.1
M -39.725 129.75
Q -38.8744140625 129.303515625 -38.05 128.7 -37.8361328125 129.0865234375 -37.75 129.475 -38.771484375 129.2875 -39.25 129.8 -39.2787109375 129.6978515625 -39.3 129.6 -39.52890625 129.682421875 -39.725 129.75 -41.144921875 130.4955078125 -42.625 130.8 -42.6615234375 130.8171875 -42.7 130.825 -42.8865234375 130.86796875 -43.075 130.9 -43.95234375 131.05 -44.85 131.05 -45.5130859375 131.05 -46.125 131.025
M -59.175 128.55
Q -59.7548828125 128.3134765625 -60.45 128.15 -61.113671875 128.0021484375 -61.875 127.925 -62.33125 127.8693359375 -62.825 127.85 -61.6466796875 127.6 -60.35 127.6 -60.2662109375 127.6 -59.175 128.55 -58.9513671875 128.7310546875 -58.7 128.95 -57.7376953125 129.6716796875 -57 130
M -67.375 126.425
Q -64.3919921875 124.851171875 -60.425 124.475 -61.383203125 124.35 -62.45 124.35 -70.1392578125 124.35 -71.25 129.45 -70.1775390625 128.2677734375 -68.875 127.35 -68.1568359375 126.8482421875 -67.375 126.425 Z
M -64.375 146.1
Q -64.6 145.570703125 -64.6 145.05 -64.6 143.446875 -63.225 142.375 -63.292578125 142.296484375 -63.35 142.2 -64.35 141.5091796875 -64.35 140.8 -64.35 140.005859375 -63.75 139.5 -63.6908203125 139.1154296875 -63.55 138.775 -63.5375 138.2205078125 -63.325 137.65 -64.05 137.2740234375 -64.05 136.65 -64.05 136.5498046875 -63.875 136.35 -64.9025390625 135.990625 -65.05 135.45 -65.0072265625 134.722265625 -65.05 134.075 -65.83125 134.254296875 -66.2 134.6 -66.65 135.5 -67.35 135.8 -68.05 136.55 -68.05 135.3 -68.05 133.95 -66.6 132.85 -65.2 131.8 -63.6 131.8 -62.6673828125 131.8 -61.8 132.075 -61.34921875 132.0412109375 -60.85 132.1
L -59.45 132.3
Q -59.6125 130.85 -63.85 130.85 -67.8 130.85 -67.8 133.7 -67.8 134.6 -68.8 136.6 -69.2173828125 137.4140625 -69.45 138 -69.8 138.8005859375 -69.8 139.15 -69.8 140.4 -68.85 142.05
L -68.875 142.175
Q -69.8 143.180859375 -69.8 143.8 -69.8 144.55 -69.6 144.6 -69.559375 144.6 -69.475 144.6 -69.516796875 144.722265625 -69.55 144.85 -69.6724609375 145.794921875 -69.5 146.4 -69.29140625 147.1478515625 -68.65 147.4 -68.31328125 147.55 -67.85 147.55 -67.080859375 147.55 -66.4 147.35 -65.403515625 147.0439453125 -64.6 146.3 -64.487109375 146.198046875 -64.375 146.1 -64.079296875 146.820703125 -63.35 147.55 -63.20625 147.4908203125 -63.075 147.425 -63.037109375 147.7181640625 -62.9 148
L -63.85 147.3
Q -64.45 147.3 -66.05 149.35
L -66.025 149.4
Q -66.6537109375 149.6658203125 -67.15 150.05
M -62.325 134.65
Q -62.2693359375 134.69375 -62.2 134.725 -62.153515625 134.6873046875 -62.1 134.65 -62.2158203125 134.647265625 -62.325 134.65 Z
M -74.3 133.025
Q -73.333203125 129.91953125 -73.3 128.175
M -75.5 137.675
Q -76.9146484375 138.5298828125 -79.25 139.25 -82.746875 140.344140625 -85.15 141.65 -83.0501953125 141.24765625 -80.3 140.75 -78.6412109375 140.330078125 -77.55 139.75 -77.0201171875 139.225 -76.325 138.9 -75.7904296875 138.3859375 -75.55 137.8 -75.5228515625 137.7326171875 -75.5 137.675 Z
M -77.55 147.75
Q -77.6 147.4943359375 -77.6 147.2 -77.398046875 146.7015625 -77.2 146.225 -78.62578125 146.5544921875 -80.325 146.7
M -69.45 138
Q -70.0501953125 138.7103515625 -70.325 139.35 -69.1 141.652734375 -69.1 141.8 -69.1 142.35 -71.6 144.55 -70.2390625 145.6931640625 -69.5 146.4
M -56.325 135.175
Q -57.3 135.9166015625 -57.3 137.3 -57.3 138.1685546875 -56.3 139.45 -55.74375 140.9396484375 -53.225 142.425 -49.6 145.524609375 -49.6 146.35 -49.6 146.46484375 -49.6 146.575 -49.708203125 147.4609375 -50.7 146.95 -50.806640625 146.8009765625 -50.925 146.65 -53.3681640625 143.3703125 -56.025 143.125 -57.267578125 142.85 -58.85 142.85 -62.6 142.85 -62.6 145.15 -62.6 145.8 -61.95 146.6 -61.35 147.45 -61.35 148.05 -61.35 148.63046875 -61.45 149.05 -61.558984375 149.55546875 -61.8 149.85 -60.95 149.65 -58.05 149.7 -57.9453125 149.6859375 -57.85 149.65
L -57.8 149.65
M -57.3 149.55
Q -56.0759765625 149.1689453125 -55.5 148.15 -55.47578125 148.221484375 -55.45 148.3 -54.9525390625 149.177734375 -54.325 149.8
M -44.875 127.1
Q -43.5296875 126.6162109375 -41.85 126.25 -41.3333984375 126.1263671875 -40.925 125.925
M -46.3 127.675
L -46.3 127.35
Q -46.24375 127.3125 -46.225 127.25 -46.1875 127.15625 -46.25 127 -46.2 126.85 -45.45 126.85 -45.406640625 126.85 -44.875 127.1
M -49.475 127.5
Q -49.509765625 127.5775390625 -49.55 127.65 -49.55 128.15 -50.6 129.35 -50.948046875 129.7677734375 -51.2 130.05 -51.1919921875 130.1095703125 -51.175 130.175
M -46.825 127.925
Q -46.571875 127.7927734375 -46.3 127.675
M -59.45 132.3
L -59.05 132.35 -58.8 133.1
Q -58.8 133.2236328125 -58.85 133.85 -58.799609375 133.8984375 -58.75 133.95 -57.39609375 132.6 -55.95 132.6 -55.913671875 132.6 -55.875 132.6
M -56.15 135.05
Q -56.2349609375 135.065234375 -56.325 135.075
L -56.3 135.1 -56.325 135.175
M -53.3 134.35
Q -55.1501953125 134.4248046875 -56.15 135.05
M -57.8 149.65
L -57.8 150.35
Q -57.5578125 150.535546875 -57.35 150.8 -57.35 150.7486328125 -57.35 150.7 -57.35 150.5654296875 -57.25 150.4 -57.2935546875 150.176953125 -57.3 149.775 -57.3 149.714453125 -57.3 149.65 -57.3 149.5943359375 -57.3 149.55
M -54.975 160.95
Q -56.719140625 160.55 -59.85 160.55 -62.46171875 160.55 -62.75 162.95
M -62.8 163.675
Q -62.799609375 163.712890625 -62.8 163.75 -62.7412109375 166.3994140625 -60.575 166.475
M -62.225 148.875
Q -62.2947265625 148.8236328125 -62.35 148.775 -62.41796875 148.8212890625 -62.475 148.875 -62.35859375 148.8712890625 -62.225 148.875 Z
M -68.65 147.4
Q -68.55 147.7591796875 -68.55 148.8 -68.55 148.936328125 -68.15 149.35 -67.8755859375 149.644921875 -67.425 150.075
M -65.85 152.8
Q -66.632421875 152.8 -67.225 152.55 -67.9181640625 152.24765625 -68.35 151.6 -68.29140625 151.4767578125 -68.225 151.35
M -61.8 153.35
Q -63.494921875 152.8 -65.85 152.8
M -81.125 167.65
L -79.6 168.45 -77.85 168.35 -77.6 164.8 -76.3 164.8 -75.8 165.95 -73.45 166.45 -73.1 164.9 -73.75 163.7 -68.025 160.2 -67.6 159.8 -68.55 158.25 -69.075 155.925 -63.95 155.15 -62.4 156
M -61.15 159.975
Q -59.9033203125 159.5046875 -57.35 159.35 -57.397265625 159.302734375 -61.1 158 -60.8267578125 158.960546875 -61.15 159.975 Z
M -73.325 149.8
Q -73.1154296875 149.85 -72.85 149.85 -72.4443359375 149.85 -71.825 150.725
M -62.75 162.95
Q -63.0123046875 163.3486328125 -63.275 163.75 -63.3099609375 163.8125 -63.35 163.875 -63.24375 163.81328125 -63.125 163.75 -62.9953125 163.6759765625 -62.85 163.6 -62.824609375 163.6353515625 -62.8 163.675
M -64.925 166.7
Q -64.9697265625 166.540234375 -65 166.375 -65.080078125 166.4896484375 -65.15 166.6 -65.851953125 166.35 -66.35 166.35 -66.8 166.35 -67.3 166.85 -67.3 167.706640625 -66.7 168.725
M -58.25 171.175
Q -60.0220703125 169.7498046875 -61.6 168.65 -63.5900390625 167.2416015625 -64.925 166.7"/>
</defs>

<g transform="matrix( 1.009735107421875, 0, 0, 1.01007080078125, 4.05,3.55) ">
<g transform="matrix( 1, 0, 0, 1, 0,0) ">
<use xlink:href="#iconTemp_0_Layer5_0_FILL"/>
</g>

<g transform="matrix( 1, 0, 0, 1, 0,0) ">
<use xlink:href="#iconTemp_0_Layer4_0_FILL"/>
</g>

<g transform="matrix( 1, 0, 0, 1, 0,0) ">
<use xlink:href="#iconTemp_0_Layer3_0_FILL"/>
</g>

<g transform="matrix( 0.4840087890625, 0, 0, 0.4840087890625, 60.3,25.6) ">
<g transform="matrix( 1, 0, 0, 1, 0,0) ">
<use xlink:href="#Tempest_0_Layer2_0_FILL"/>

<use xlink:href="#Tempest_0_Layer2_0_1_STROKES"/>
</g>

<g transform="matrix( 1, 0, 0, 1, 0,0) ">
<use xlink:href="#Tempest_0_Layer1_0_FILL"/>
</g>

<g transform="matrix( 1, 0, 0, 1, -61.5,-39.05) ">
<g transform="matrix( 1, 0, 0, 1, 0,0) ">
<use filter="url(#Filter_1)" xlink:href="#ship_0_Layer0_0_FILL"/>
</g>
</g>
</g>

<g transform="matrix( 1.35797119140625, 0, 0, 1.35797119140625, -30.8,-42.35) ">
<g transform="matrix( 1, 0, 0, 1, -4.55,11.8) ">
<use filter="url(#Filter_2)" xlink:href="#texture_0_Layer0_0_FILL"/>
</g>
</g>

<g transform="matrix( 1, 0, 0, 1, 0,0) ">
<use xlink:href="#iconTemp_0_Layer0_0_FILL"/>
</g>
</g>
</svg>
