
<svg xmlns="http://www.w3.org/2000/svg" version="1.1" xmlns:xlink="http://www.w3.org/1999/xlink" preserveAspectRatio="none" x="0px" y="0px" width="125px" height="125px" viewBox="0 0 125 125">
<defs>
<radialGradient id="Gradient_1" gradientUnits="userSpaceOnUse" cx="0" cy="0" r="300.7375" fx="0" fy="0" gradientTransform="matrix( 1, 0, 0, 0.4029261399060643, 62.7,117.75) " spreadMethod="pad">
<stop  offset="21.176470588235293%" stop-color="#FFFFFF"/>

<stop  offset="100%" stop-color="#822798"/>
</radialGradient>

<filter id="Filter_1" x="-20%" y="-20%" width="140%" height="140%" color-interpolation-filters="sRGB">
<feColorMatrix in="SourceGraphic" type="matrix" values="0 0 0 0 1 0 0 0 0 1 0 0 0 0 1 0 0 0 1 0" result="result1"/>
</filter>

<filter id="Filter_2" x="-20%" y="-20%" width="140%" height="140%" color-interpolation-filters="sRGB">
<feColorMatrix in="SourceGraphic" type="matrix" values="1 0 0 0 0 0 1 0 0 0 0 0 1 0 0 0 0 0 0.09 0" result="result1"/>
</filter>

<g id="Intro_0_Layer6_0_FILL">
<path fill="#FFFFFF" stroke="none" d="
M 114.75 -3
L 3 -3
Q -3 -3 -3 3
L -3 114.75
Q -3 120.75 3 120.75
L 114.75 120.75
Q 120.75 120.75 120.75 114.75
L 120.75 3
Q 120.75 -3 114.75 -3
M 114.75 1
Q 116.75 1 116.75 3
L 116.75 114.75
Q 116.75 116.75 114.75 116.75
L 3 116.75
Q 1 116.75 1 114.75
L 1 3
Q 1 1 3 1
L 114.75 1 Z"/>
</g>

<g id="Intro_0_Layer5_0_FILL">
<path fill="url(#Gradient_1)" stroke="none" d="
M 117.75 3
Q 117.75 0 114.75 0
L 3 0
Q 0 0 0 3
L 0 114.75
Q 0 117.75 3 117.75
L 114.75 117.75
Q 117.75 117.75 117.75 114.75
L 117.75 3 Z"/>
</g>

<g id="Intro_0_Layer4_0_FILL">
<path fill="#FFFFFF" fill-opacity="0.2" stroke="none" d="
M 117.75 38.2
L 117.75 3
Q 117.75 0 114.75 0
L 3 0
Q 0 0 0 3
L 0 38.2
Q 58.875 49.688671875 117.75 38.2 Z"/>
</g>

<g id="Mask_Intro_0_3_MASK_0_FILL">
<path fill="#FFFFFF" stroke="none" d="
M 117.75 3
Q 117.75 0 114.75 0
L 3 0
Q 0 0 0 3
L 0 114.75
Q 0 117.75 3 117.75
L 114.75 117.75
Q 117.75 117.75 117.75 114.75
L 117.75 3 Z"/>
</g>

<g id="dagger_0_Layer2_0_FILL">
<path fill="#000000" stroke="none" d="
M 85.7 243.75
Q 84.06640625 243.7408203125 82.45 243.7 74.8626953125 243.7095703125 68.15 243.7 68.012890625 243.700390625 67.85 243.7 62.0845703125 243.7115234375 55.65 243.7 51.6072265625 243.737890625 47.3 243.75
L 45.5 243.75
Q 46.6697265625 245.9595703125 47.25 247.2 47.313671875 247.3435546875 47.35 247.45
L 48.3 247.45
Q 48.3978515625 247.50546875 48.45 247.5 48.9203125 247.6349609375 49.2 247.6 49.166796875 248.1767578125 49.45 250.7 49.7529296875 253.226953125 49.9 255.45 50.0626953125 257.6712890625 51.8 261.6 49.7345703125 265.965234375 51.7 271.3
L 51.55 272.05
Q 51.253515625 273.2765625 51 275.3 51.054296875 275.460546875 50.9 280.65 50.7970703125 285.8765625 51.7 288.3 52.6435546875 290.74765625 53.6 293.05 51.5791015625 297.6599609375 53 301.6 53.670703125 303.5529296875 53.95 303.95 51.74921875 310.68984375 54.85 313.55 54.8185546875 313.8974609375 54.8 314.2
L 54.75 314.2
Q 54.634375 317.11796875 55 318.2 55.4853515625 319.548828125 55.55 319.85 55.621484375 319.9013671875 55.7 319.9 55.6275390625 319.98671875 55.55 320.05 55.51953125 320.0703125 55.1 321.05 54.7298828125 322.0904296875 54.35 323.4 53.9703125 324.6982421875 53.6 327.25 53.2248046875 329.8490234375 54 332.75 54.7853515625 335.6935546875 56.05 337.5 56.0703125 337.52890625 56.1 337.55 56.448828125 338.032421875 57.1 338.55
L 58.2 339.3
Q 58.45078125 339.4791015625 58.7 339.6 59.9923828125 340.8873046875 62.3 341.4 62.532421875 341.507421875 62.75 341.6
L 62.85 341.65
Q 68.40390625 343.9607421875 75.6 340.05 82.842578125 336.1458984375 82.35 328.75 81.9095703125 321.3591796875 80.95 320.3
L 81.75 319.85
Q 82.3693359375 314.970703125 81.85 314.35 81.3048828125 313.7556640625 81.1 313.75 82.4064453125 312.2361328125 82.8 309.85 83.1810546875 307.4638671875 82.85 305.8 82.5126953125 304.1357421875 82.05 303.25 81.9873046875 303.066015625 81.9 302.9 84.010546875 299.6662109375 83.3 296.5 82.6310546875 293.3125 82.55 292.95 84.4962890625 288.504296875 84.9 285.6 85.3375 282.754296875 84.5 279.45 83.6560546875 276.1435546875 83.3 274.3 83.004296875 272.4580078125 83.85 271.35 84.706640625 270.2392578125 85.15 268 85.18359375 267.926171875 85.2 267.85 85.5759765625 265.6677734375 84.45 261.75 84.7263671875 261.4119140625 85.7 259.4 86.0802734375 258.719921875 86.5 257.8 88.2291015625 254.37109375 87.55 250 87.3267578125 248.3609375 87.1 247.45
L 87.85 247.45
Q 88.7384765625 246.7490234375 90.5 243.75
L 88.7 243.75
Q 87.208984375 243.7447265625 85.7 243.75
M 125.6 224.9
Q 125.2 224.5 124.75 224.25 123.95 223.7 123.1 223.7
L 120.95 223.7
Q 120.8 223.6 120.2 223.6
L 118.6 223.25
Q 117.75 223.25 117.75 223.95 117.75 224.1552734375 118.05 224.6 118.0017578125 224.5984375 117.95 224.6
L 117.5 224.6
Q 118.7337890625 225.4900390625 119.5 227.65 120.2 229.5595703125 120.3 231.55 120.3181640625 231.6607421875 120.35 232.75 120.2734375 234.008984375 119.75 235.05 118.0884765625 238.323046875 112.45 238.3 111.1828125 238.32890625 110.85 236.85 110.723046875 236.194140625 110.7 233.75 110.7240234375 232.8388671875 112.45 230.9 113.9794921875 231.35 114.55 231.75 114.514453125 231.910546875 113.25 232.15 112.0291015625 232.4294921875 111.65 233.85 111.3267578125 235.2859375 111.4 236.15 111.480859375 237.055078125 115.2 236.85 118.8953125 236.640625 119.2 232.8 119.50859375 228.95234375 118 227.05 116.4970703125 225.1525390625 113.6 225.2 110.7462890625 225.2875 109.65 226.05 108.546484375 226.82265625 106.45 228.4 104.416015625 230.01875 104.95 233.4 105.5171875 236.837890625 106.9 238.95 108.34375 241.11328125 110 241.55 110.248046875 241.63046875 110.55 241.65 110.97734375 241.74453125 111.55 241.75 113.2240234375 241.9798828125 113.65 242.1 114.310546875 242.1404296875 115.05 242.1 115.1080078125 242.1419921875 115.1 242.15 115.7439453125 242.1447265625 116.5 242.1 116.5228515625 242.06640625 116.55 242.05 117.503515625 242.0001953125 118.6 241.9 123.9365234375 241.18984375 124.35 236.15 124.6736328125 232.2541015625 124.8 230.05 124.899609375 230.5349609375 124.9 228.95
L 124.8 228.95
Q 124.598046875 229.51953125 123.45 230.7 122.8888671875 230.474609375 122.75 230.05 125.895703125 227.640234375 124.05 226.65 122.2623046875 225.665234375 121.2 229
L 120.95 229
Q 120.77890625 229.612890625 120.75 228.5 120.7763671875 227.69375 121.2 226.75 121.6923828125 225.7265625 122.3 225.7 124.1966796875 225.725 124.8 226.45 125.0099609375 227 125.55 227 126.25 227 126.25 226.3 126.05 225.8 126.05 225.6 125.95 225.15 125.6 224.9
M 122.7 232.25
Q 123.6544921875 232.569921875 123.65 233.65 123.6462890625 234.958203125 122.3 235.5 121.762890625 235.309375 121.7 235.05 123.580078125 234.4271484375 122.7 232.25
M 48.4 90.45
L 48.4 91.6 48.4 90.45 48.4 90.45
M 87.3 93.3
L 87.3 91 87.25 91 87.3 93.3
M 85.8 52.2
L 85.85 52.2
Q 85.8166015625 52.0751953125 85.75 51.95
L 85.75 51.95
Q 81.0041015625 34.0013671875 69.25 9.05 69.126953125 8.7888671875 69 8.5
L 69 10.25
Q 68.9427734375 13.4578125 68.7 18.35
L 67.8 51.95 67.85 51.95 67.85 52.2 67.8 52.2 68 222.85
Q 67.50234375 222.84765625 66.7 222.9
L 65.1 222.9 65.1 222.9 65.1 222.9
Q 65.1412109375 222.873828125 65.15 222.85 65.166796875 222.801171875 65.15 222.75 65.4078125 222.0599609375 65.6 221.05 65.7640625 220.3109375 65.9 219.4 65.921875 219.2041015625 65.95 219 66.6427734375 214.0990234375 66.9 204.65 66.9392578125 204.4123046875 66.95 204.15 67.06171875 199.5703125 67.05 193.95 67.0861328125 192.8857421875 67.1 191.75
L 67.05 189.6
Q 67.0169921875 184.35859375 67 178.7
L 66.95 174.2
Q 66.951171875 174.0005859375 66.95 173.8
L 66.85 163.9
Q 66.834765625 162.2982421875 66.8 160.65 66.809765625 159.512890625 66.8 158.35 66.75625 155.122265625 66.7 151.9 66.7107421875 149.1943359375 66.7 146.5 66.7017578125 146.1193359375 66.7 145.75 66.68515625 142.3505859375 66.65 139 66.6755859375 138.4986328125 66.65 138 66.6734375 135.3474609375 66.65 132.7 66.6810546875 129.58515625 66.7 126.45 66.740625 113.177734375 66.9 100.55 67.004296875 95.3892578125 67.1 90.3 67.419921875 74.0580078125 67.4 56.9 67.4076171875 54.55859375 67.4 52.2
L 67.4 52.2
Q 67.42734375 52.0751953125 67.4 51.95
L 67.4 51.95
Q 67.89921875 30.604296875 67.9 7.9
L 67.9 7.85
Q 67.9345703125 7.303515625 67.95 6.7
L 67.95 6.7
Q 67.9341796875 6.4783203125 67.9 6.25 67.8904296875 6.3255859375 67.85 6.4 57.07890625 29.711328125 50 51.95
L 50 51.95
Q 49.9888671875 52.075 49.95 52.2
L 49.9 52.2
Q 49.871875 52.3626953125 49.8 52.5 49.813671875 54.650390625 49.8 56.9 49.7876953125 58.4697265625 49.75 60.1 49.9568359375 81.1 49.75 124.2 49.773828125 125.394921875 49.7 171.25 49.05 171.95625 49.05 174.3 49 176.05 49.25 179.15 49.25 181.85 49.05 187.55
L 49.5 205.3
Q 49.526953125 206.1091796875 49.55 207.15
L 49.55 207.85
Q 49.5248046875 211.0013671875 49.5 214 49.25 214.1623046875 49.25 214.85 49.25 215.7 49.45 216.7
L 49.3 219.4 49.2 219.8 49.15 221.4 49.2 222.1 49.3 222.4 49.45 222.6
Q 49.4521484375 222.863671875 49.45 223.1
L 49.5 223.1
Q 49.48359375 223.2486328125 49.45 223.45 49.45 223.716015625 49.55 223.85 30.34140625 223.95 30.1 223.95 27.8474609375 223.9869140625 27.15 224.25
L 26.55 224.2 26.05 224.25 25.5 224.15
Q 25.2 224.15 25.2 224.4 25.2 224.6 26.2 224.9
L 26.55 224.95
Q 27.4833984375 225.379296875 28.25 225.9 29.708203125 226.8931640625 30.65 228.35 31.3982421875 229.4173828125 31.75 230.5
L 32.15 233.15 32.15 233.15
Q 31.8498046875 230.776953125 32 231.4 32.1951171875 232.2953125 32.15 232.9
L 32.15 233
Q 32.180859375 233.13828125 32.2 233.3
L 32.2 233.45
Q 32.2326171875 233.99921875 32.35 234.8 32.51953125 236.078515625 33.25 237.35 34.481640625 239.4591796875 37.3 239.45 41.1810546875 239.4525390625 43.7 237.1
L 46.15 233.45
Q 46.4197265625 232.857421875 46.55 232.2 46.5626953125 231.47734375 45.95 230.25 45.599609375 229.473046875 44.95 229.05 44.3462890625 228.6306640625 43.5 228.5 42.0728515625 228.381640625 41.65 229.05 41.5626953125 229.1908203125 41.5 229.35 41.3015625 230.42578125 41.35 231.75 41.3888671875 233.0595703125 42.15 233.05
L 42.15 233.1
Q 43.191015625 232.921484375 43.35 232.5 43.4658203125 232.2646484375 43.85 231.35 43.654296875 231.349609375 43.05 231.15
L 43.3 230.3 44 230.05
Q 44.3375 230.171875 44.65 230.2 44.8458984375 230.3072265625 44.85 231 44.84453125 231.8283203125 44.2 232.85 43.4109375 234.1791015625 42.15 234.15 40.72421875 234.1791015625 40.4 232.85
L 40.4 231.55
Q 40.4162109375 230.014453125 40.75 229.05 41.349609375 227.47734375 42.85 227.45 45.513671875 227.47734375 46.65 229.05 46.9388671875 229.4185546875 47.1 229.85 47.6654296875 231.075390625 47.5 232.45 48.0310546875 232.10390625 48.6 231.75 51.5427734375 229.8044921875 53.65 229.05
L 53.6 229.05
Q 53.73046875 229.0619140625 53.8 229.05 57.7734375 228.23515625 59.7 229.05 60.3001953125 229.2896484375 60.7 229.65 61.05078125 229.998828125 61.25 230.4 61.921875 231.7787109375 61.7 233.5 61.7197265625 234.79140625 60.5 236.6 58.9453125 239.0244140625 56.65 239 53.34453125 239.023828125 52.7 238.3
L 52.7 237.3
Q 52.6986328125 234.7921875 55.55 233.35
L 56.65 233.75
Q 55.9953125 234.703125 54.6 235.7 53.6578125 236.322265625 53.65 237.25
L 53.65 237.9
Q 59.41875 238.852734375 60.75 233.5 60.99375 233.2578125 60.55 231.6 60.1130859375 229.9486328125 56.75 229.55 53.430078125 229.141015625 50.5 231.2 47.6115234375 233.25546875 47.15 234 46.7501953125 234.7541015625 44.8 237.05 41.69453125 240.778515625 39.05 240.75 33.7857421875 240.7677734375 31.95 238.1 31.5337890625 237.467578125 31.35 236.7 30.830859375 238.503125 28.8 239.8 28.9498046875 239.6595703125 29.05 239.45 30.4302734375 237.464453125 30.4 234.3 30.3904296875 231.128515625 29.8 229.95 29.2005859375 228.8318359375 27.5 227.1 25.8169921875 225.3580078125 21.95 225.3 18.117578125 225.3013671875 17.3 227.6 16.4873046875 229.932421875 16.7 233.3 16.9267578125 236.6796875 21.1 237.3 25.253125 237.909765625 24.3 234.7 23.4564453125 231.8638671875 22.85 231.3 25.302734375 233.4484375 25.3 235.15 25.3025390625 236.8966796875 25.05 237.6 24.84296875 238.3181640625 23.55 238.3 17.936328125 238.323046875 16.25 235.05 15.7513671875 234.008984375 15.65 232.75 15.706640625 231.6607421875 15.7 231.55 15.8244140625 229.5595703125 16.5 227.65 17.291015625 225.4900390625 18.5 224.6 18.4310546875 224.598046875 18.3 224.6 18.5126953125 224.44609375 18.65 224.25
L 15.35 224.2 16.8 224.25 12.3 224.2
Q 11.25 224.2 10.6 224.55
L 10.6 225.1
Q 10.4 225.4 10.4 225.7
L 10.55 226.4 10.4 227.05 10.8 227.5
Q 10.903125 227.5 11.05 226.95 11.075390625 227.0669921875 11.05 227.15 11.0654296875 227.5275390625 11.05 227.85 11.2458984375 227.48671875 11.55 227 12.30078125 225.9044921875 12.95 225.7
L 13.9 225.95 14.1 226.3
Q 13.5240234375 226.8060546875 13 227.2 12.0728515625 228.071484375 11.85 228.7 12.2734375 229.029296875 13.9 230.05 13.8482421875 230.303125 13.9 230.55 13.9126953125 230.749609375 13.3 230.75 12.183203125 230.7451171875 11.4 229.65
L 11.15 229.65
Q 11.2314453125 231.815625 11.25 235.8
L 11.25 235.95
Q 10.995703125 235.8 10.7 235.8 10.1 235.8 10.1 236.85 10.1 237.55 10.95 239 11.8 240.45 12.3 240.8 16 243.9 23 243.9 25.6 243.9 26.1 243.05 25.801953125 242.578125 24.25 242.2 24.3111328125 242.2029296875 24.35 242.2
L 107.3 242.2
Q 105.5095703125 240.066015625 104.4 235.65 103.07109375 239.902734375 98.5 239.9 93.25234375 239.896875 91.65 235.9 91.6123046875 235.8251953125 91.55 235.7 91.47734375 235.6271484375 91.35 235.5 89.8001953125 233.9646484375 89.3 233.8 83.4412109375 230.924609375 79.45 230.35 75.4921875 229.81796875 74.85 231.55 74.196875 233.3236328125 74.25 234.7 74.3703125 236.1421875 75.05 237.35 75.722265625 238.5994140625 77.5 238.25 79.330859375 237.8966796875 79.5 235.6 79.8685546875 232.5712890625 75.85 234.45
L 75.8 234.4
Q 76.7482421875 233.095703125 78.15 233.1 80.97890625 233.094140625 80.65 235.4 80.67265625 239.197265625 77 239.2 74.6833984375 239.20625 73.8 237.25 73.4205078125 235.2404296875 73.4 235.15 73.4294921875 229.6521484375 77.4 229.65 85.7451171875 229.6529296875 91.25 234.65 91.11875 233.918359375 91.05 233.1 91.075 231.742578125 91.05 231.65 91.083984375 225.7255859375 94.5 226.25 97.8998046875 226.8 97.35 229.75 96.8181640625 232.723828125 94.7 232.7 92.5748046875 232.65859375 92.55 231.1 92.5763671875 230.863671875 93 229.4 94.491796875 233.6322265625 96.1 230.6 97.7267578125 227.6275390625 94.25 227.1 92.9375 227.410546875 92.4 228.5 92.033203125 229.395703125 92 231.55 92.03125 233.8861328125 92.55 235.3 93.7921875 238.598046875 97.35 238.6 101.69296875 238.5982421875 103.35 235.5 103.7888671875 234.685546875 104 233.9 103.8943359375 233.4478515625 103.8 232.95 103.8333984375 230.575390625 105.3 228.35 106.30390625 226.8931640625 107.75 225.9 108.723046875 225.2611328125 109.9 224.8 110.0603515625 224.756640625 110.2 224.7 110.3388671875 224.6607421875 110.45 224.6 110.37265625 224.62578125 110.3 224.6
L 110.3 224.6
Q 111.3 224.490625 111.3 224.2 111.3 224.05 111.05 224 110.9580078125 224.00625 110.85 224 110.8869140625 223.98203125 110.9 223.95 110.5 223.75 110.4 223.75 110.3 223.75 108.7 224.1 108.6306640625 224.1384765625 108.55 224.15 107.1962890625 224.0380859375 104.75 223.95
L 94.95 223.95
Q 90.9380859375 223.9619140625 87.85 224 87.59765625 223.6015625 86.6 223.6 86.6947265625 223.339453125 86.6 222.55
L 86.65 221.15
Q 86.55 220.3 86.6 219.85 86.6 219.3 86.3 218.55 86.1380859375 199.632421875 86.05 175.6 85.976171875 125.45 85.95 124.2 85.793359375 81.1 85.95 60.1 85.9623046875 58.4697265625 85.95 56.9 85.936328125 54.650390625 85.9 52.5 85.8783203125 52.362890625 85.8 52.2
M 86.1 223.05
Q 86.1451171875 223.4705078125 86.2 223.65
L 83.05 223.65
Q 62.590625 223.766796875 50.05 223.85 50.19609375 223.64921875 50.2 223.05
L 50.2 223.05
Q 50.24296875 223.112890625 50.25 223.15
L 50.5 223.1 50.5 223.05 50.5 223.05 50.55 223.2 50.85 223.35 59.5 223.35
Q 59.6005859375 223.5 60.25 223.5
L 65.95 223.6
Q 69.3 223.6 69.3 223.25 69.3 223.1380859375 69.05 223.05
L 85.55 223.1
Q 85.43984375 223.0875 85.3 223.05
L 86.1 223.05
M 73.5 229.05
Q 73.5576171875 229.271484375 73.6 229.5 73.61484375 229.8724609375 73.4 230.5 72.8634765625 230.51953125 71.65 231.1 71.1326171875 231.651171875 72.1 230.6 73.084765625 229.5951171875 72.85 229.05 72.862109375 229.024609375 72.85 229 72.5822265625 228.4390625 71.15 228.35 70.3419921875 228.297265625 69.8 229.05 69.402734375 229.5666015625 69.15 230.45 68.5654296875 232.7154296875 68.55 232.8 68.4451171875 232.02734375 68.45 231.35 68.436328125 230.1796875 69.1 229.05 69.166796875 229 69.2 228.95 70.16875 227.47109375 71.65 227.45 73.04140625 227.47734375 73.5 229.05
M 62.8 228.75
Q 63.2509765625 227.6455078125 63.6 227.65 66.29765625 227.6521484375 66.8 229.05 67.0255859375 229.5927734375 66.9 230.35 66.9083984375 231.7900390625 66.7 232.9
L 66.45 232.9
Q 66.551171875 231.61796875 66.5 229.85 66.480078125 229.35859375 66.2 229.05 65.664453125 228.3052734375 63.8 228.7 63.6650390625 228.8912109375 63.55 229.05 62.5017578125 230.3880859375 65.3 231.1 65.0134765625 231.3931640625 64.05 231.4
L 62.65 231.1
Q 62.447265625 231.213671875 62.45 230.1 62.4494140625 229.83125 62.7 229.05 62.7765625 228.9185546875 62.8 228.75
M 63.4 239.2
Q 66.4375 238.8037109375 67.8 238.8 70.96953125 238.8072265625 71.25 239.4 70.93125 239.90234375 67.8 239.9 63.40625 239.898828125 63.4 239.2
M 67.8 237.25
Q 63.1759765625 237.27734375 62.8 236.8 63.1376953125 236.1947265625 67.8 236.2 72.61875 236.1978515625 73 236.85 72.61875 237.2806640625 67.8 237.25
M 14.3 232.05
Q 13.3388671875 232.1298828125 12.8 233.3 12.230859375 234.4869140625 12.75 235.3 12.0755859375 236.4091796875 11.85 235.4 11.7990234375 234.136328125 11.8 234.05 11.7951171875 232.703515625 13.3 231.55 14.0234375 231.659765625 14.3 232.05 Z"/>
</g>

<g id="blood_0_Layer1_0_FILL">
<path fill="#990000" stroke="none" d="
M 6.05 160.65
Q 6.05 160.1 5.8 159.85 5 159.85 5 160.7 5 161.3 5.1 161
L 5.65 161.15
Q 6 160.95 6.05 160.65
M 0.8 160.5
Q 1 160.1435546875 1 159.7 1.4 157.15 1.4 156.5 0.933984375 153.487890625 0.8 152.5
L 0.8 160.5
M 3.6 154.8
Q 3.65 156.15 4.5 156.15 4.9 156.15 5.25 155.4 4.75 153.85 4.4 153 3.6 153.3 3.6 154.8
M 3.25 151.8
Q 3.9 151.8 4.05 151.5 4.25 151.5 4.25 150.85 4.25 148.45 2.65 147.1 1.75 147.8 1.75 149 1.95 151.8 3.25 151.8
M 38.35 66.25
Q 38.410546875 65.5990234375 38.45 65 38.25 65.29453125 38.25 65.55 38.25 66.15 38.35 66.25
L 38.35 66.25
M 28.15 68.05
Q 28.15 66.9943359375 27.6 66.5 27.8396484375 66.72890625 27.95 67.05 27.7583984375 67.1927734375 27.45 67.3 26.2 67.7 26 68.25 25.9 68.65 25.8 69.7 25.7470703125 69.8798828125 25.65 70 25.816796875 70.05 26 70.05 28.15 70.05 28.15 68.05
M 30.25 62.4
Q 30.25 62 29.6 62
L 29.25 62.25 29.8 62.65
Q 30.15 62.6 30.25 62.4
M 24.35 61.65
L 23.85 61.75 24.4 62.15
Q 25.4 62 25.4 60.25 24.4 61.65 24.35 61.65
M 23.5 61.75
L 23.55 61.05
Q 23.35 59.65 22.5 59.65
L 22.25 59.75
Q 21.8 60.55 21.8 61.05
L 21.85 61.75
Q 22.35 62.05 22.65 62.05 23.3 62.05 23.5 61.75
M 23.5 51
Q 23.2529296875 50.77890625 23.05 50.55 22.7435546875 51.0064453125 22 51.75 21.9 52.15 22.15 53.35 21.9853515625 54.07890625 21.65 54.45 21.900390625 54.5 22.15 54.5 24.15 54.5 24.15 52.3 24.15 51.6 23.5 51
M 35.1 50
L 34.8 49.55
Q 32.653125 51.888671875 32.15 53.7 32.2412109375 53.905078125 32.3 54.15
L 32 54.45
Q 32 54.601171875 32 54.75 32 54.8 32.25 56.1 32.7 57.4 33.6 57.4 34.05 57.4 34.3 57
L 34.4 56.6
Q 34.16953125 55.966015625 34 55.45 33.3931640625 55.3634765625 33.2 54.9 33.15 54.25 33.15 54.2 33.15 53.038671875 34.05 52.75 35.1 50.041796875 35.1 50
M 38.6 55.3
Q 38.4060546875 54.4828125 38.25 53.8
L 38 53.8 38 55.65
Q 38.5 56.45 38.5 56.95
L 37.4 59.7
Q 37.28125 59.358203125 37.05 59.1 37.1095703125 59.2982421875 37.15 59.5 37.15 60.45 35.25 61.1 34.9296875 62.7470703125 33.8 62.85 33.80625 62.7013671875 33.8 62.5 33.8185546875 63.760546875 34.2 65 34.95 67.25 36.55 67.25 37.2 67.25 37 67.15 37.1 66.8 37.1 66.6 37.1 66 36.55 65.35 36.03203125 64.7888671875 36 64 36.144921875 64.0779296875 36.3 64.15
L 36.35 64
Q 37.5 62.7 37.5 60.9 37.51015625 60.783203125 37.5 60.65 37.7376953125 61.15234375 38.15 62 38.38984375 61.8560546875 38.6 61.4 38.6 61.05546875 38.6 60.8
L 38.6 55.3
M 18.5 162.9
Q 17.925 164.30234375 17.4 165.65 16.8330078125 170.1701171875 15.05 180 15.7490234375 181.18515625 15.75 184.1 15.745703125 184.4388671875 15.6 184.65 15.7115234375 184.881640625 15.8 185.1 15.9265625 184.6837890625 16.45 184.65 17.0283203125 184.67578125 17 185.35 17.0283203125 185.6125 16.45 185.85 16.215625 185.793359375 16 185.65 16.483203125 186.7873046875 17.4 187.85 19.1607421875 187.5763671875 19.7 185.35
L 19.7 167.2
Q 19.6220703125 163.9458984375 19.55 160.55 19.0626953125 161.6619140625 18.5 162.9
M 1.75 146.85
Q 1.7591796875 146.8822265625 1.75 146.9 1.5310546875 146.5310546875 1.1 146.1 0.930859375 145.9421875 0.8 145.75
L 0.8 152.3
Q 1.209765625 151.603515625 1.35 150.65 1.4 148.7 1.6 147.75 1.69375 147.34375 1.75 146.85
M 17.95 104.7
Q 17.5947265625 103.9595703125 17.25 103.25 17.276171875 105.58984375 17.25 107.9
L 17.75 107.9 17.95 104.7
M 20.9 105.25
Q 20.7908203125 104.58671875 20.7 104.05 20.5390625 103.641015625 20.35 103.2 20.1619140625 102.7587890625 19.95 102.3 19.9423828125 102.8435546875 19.9 103.35 20.3947265625 104.329296875 20.9 105.25
M 16.9 96.15
Q 17.085546875 96.69140625 17.25 97.2 17.2751953125 97.630078125 17.25 98 17.7740234375 99.1302734375 18.05 99.85
L 18 97.75
Q 16.428515625 94.015234375 15.25 91.3 15.982421875 93.4314453125 16.9 96.15
M 11.85 77.05
Q 11.8623046875 77.0873046875 11.85 77.1 11.9673828125 77.3576171875 12.05 77.6 12.031640625 77.7193359375 12 77.8 12.3267578125 78.3869140625 12.7 79 12.6201171875 79.2296875 12.6 79.4 12.6142578125 79.5212890625 13.7 80.95 13.923828125 80.9546875 14 80.9 14.07578125 80.8578125 14.05 80.75 14.10234375 80.6 14.1 80.4 13.552734375 78.9994140625 13.2 79
L 12.9 79
Q 12.292578125 77.8921875 11.85 77.05
M 17.4 71.35
Q 17.3419921875 71.04296875 17.3 70.75 17.2861328125 80.66171875 17.25 90.45 17.606640625 91.22734375 17.95 92.05
L 17.75 72.55
Q 17.7908203125 71.8896484375 17.8 71.25
L 17.4 71.35
M 2.75 60.8
Q 1.64296875 60.488671875 0.8 58.25
L 0.8 88.85
Q 0.84609375 89.591796875 0.9 90.2 0.8705078125 92.2375 0.8 94.45
L 0.8 143.25
Q 1.18671875 142.87109375 1.9 142.75 1.089453125 142.48515625 1.25 141 1.25 138.65 2.65 138.65 3.6 138.65 3.65 139.75 3.65 142.3525390625 2.7 142.75 3.605078125 142.86640625 4 143.4 3.918359375 143.87265625 3.8 144.25 4.3 142.52734375 4.3 139.45 3.7 132.6 3.75 129.25 3.75 121.25 3.65 119 2.8693359375 108.9076171875 2.5 103.65
L 2.75 103.65
Q 2.8177734375 103.2314453125 2.85 102.8 2.5 102.29375 2.5 101.1 2.5 99.45 4 98.55
L 4.75 99.3
Q 4.201953125 102.1181640625 3.75 102.95 4.4033203125 104.35 5.3 104.35 5.7357421875 104.35 6.05 104.2 6.594921875 107.35 7.25 107.35 7.9 107.35 7.65 107.15
L 7.8 106.75
Q 7.182421875 104.6697265625 6.7 103.4 6.75 103.2595703125 6.75 103.05 5.7 99.8 5.35 98.5 5.3 98.4 5 93.9 4.935546875 92.8701171875 4.85 92 5.166015625 93.176953125 5.5 94
L 5.65 93.8
Q 5.4787109375 92.6005859375 5.3 91.6 5.6478515625 91.871484375 6 92.15 5.283203125 90.8009765625 4.7 88.95 3.75 85.75 3.75 83 3.75 80.5 5.05 80.5 5.6291015625 80.5 6.4 84.8
L 6.4 84.75
Q 6.7412109375 85.6953125 7.1 86.65 7.1 88.0359375 7.3 89.25 7.24140625 88.840234375 7.2 88.4 8.05 91.6748046875 8.05 93.1 8.05 93.528515625 7.85 93.95 7.99140625 94.14765625 8.05 94.3 8.1400390625 94.540234375 8.3 95.35 9.769921875 95.60390625 10.45 98.4 10.4744140625 98.374609375 10.5 98.35 10.54765625 98.66640625 10.6 99
L 11.05 99
Q 11.25 98.8 11.25 98.6 10.75 90.4 10.25 88.4 9.5447265625 85.6705078125 8.3 83.95 6.7380859375 79.50390625 6.1 78 5.7935546875 77.2875 5.5 76.55 5.5 76.4990234375 5.5 76.45 5.413671875 75.090234375 5.3 73.75 8.6857421875 82.40703125 13.8 92.45 13.7783203125 92.159765625 13.75 91.85 13.2390625 90.5765625 12.9 89.85
L 13.1 89.85
Q 13.433203125 90.4677734375 13.75 91.05
L 8.1 78.1
Q 8.5599609375 79 9.65 79 9.7826171875 79 9.9 78.95 9.8498046875 78.9703125 9.8 78.95 8.6974609375 76.487890625 7.75 74.25 7.811328125 75.26953125 7.8 76.35 7.7826171875 77.2751953125 8 77.85
L 5 71
Q 4.977734375 70.8158203125 4.95 70.6 4.92734375 69.9408203125 4.9 69.3 4.917578125 69.3625 4.9 69.4 5.1740234375 71.05234375 6.5 73.75
L 6.5 73.4
Q 6.710546875 72.7685546875 6.75 72.2 7.2271484375 73.194140625 7.75 74.25 5.8326171875 69.73828125 4.55 66.25 2.75 65.6513671875 2.75 63.5 2.75 63.0373046875 3.1 62.05 2.9359375 61.398828125 2.75 60.8
M 3.15 68.75
Q 3.75 68.9 3.75 69.25 3.75 69.9 3.3 75.65
L 3.3 86.25
Q 3.3 86.6 2.65 86.6 1.2 86.6 1.5 78.35 1.5 70.55 3.15 68.75
M 1.1 111
L 1.35 111
Q 1.85 113 1.75 116.05 1.7 117.75 1.55 121.15 1.7 124.65 2.65 131.25 2.65 131.55 1.85 132.15 1.2267578125 131.7794921875 0.8 130.65
L 0.8 112.05
Q 0.948046875 111.46953125 1.1 111
M 26.7 57.9
Q 26.6541015625 58.287109375 26.6 58.65 26.4076171875 58.75 26 58.75 25.575 58.75 25.25 58.55 25.2603515625 59.7271484375 25.75 61
L 26 60.85
Q 26.5359375 59.7783203125 26.7 57.9
M 28.85 54.05
Q 28.625 54.1 28.35 54.1 27.600390625 54.1 27.3 53.65 27.3 54.1935546875 26.9 57.25 27.2107421875 58.0611328125 27.75 59.05
L 27.9 58.9
Q 28.1 58.75 28.1 58.1 28.1 57.7568359375 28.1 57.4 28.3904296875 58.48671875 29.15 58.85 29.95 58.2 30.35 56.5 30.7048828125 55.9908203125 30.95 55.55
L 30 56.5
Q 28.95 56.5 28.75 55.7 28.75 54.85 28.75 54.8 28.75 54.373828125 28.85 54.05
M 30 52.05
Q 30 52.1947265625 30 52.3 30.75 50.9779296875 30.75 50.75 30.2 50.25 30 50 29.5876953125 50.4859375 29.15 50.95 29.8916015625 51.1826171875 30 52.05
M 30.85 52.9
Q 30.8857421875 52.9 30.9 52.9 30.8423828125 52.84921875 30.75 52.8 30.3931640625 52.94921875 30.05 53.1 30.28125 53.01796875 30.5 52.9 30.6603515625 52.9 30.85 52.9
M 2.4 41.2
Q 2.4609375 41.09375 2.5 40.95 2.64375 41.0203125 2.75 41.1 2.75703125 40.7048828125 2.8 40.2 2.5951171875 40.7357421875 2.4 41.2
M 8.15 25.05
Q 8.328125 24.9576171875 8.5 24.9 8.48125 24.520703125 8.45 24.15 8.19765625 24.92109375 7.95 25.6 8.073046875 25.3439453125 8.15 25.05
M 11.8 49.05
L 11.55 49.05
Q 11.4052734375 49.3421875 11.4 49.55 11.410546875 50.2296875 11.75 50.8 12.076953125 49.880859375 12.05 49.65 12.0744140625 49.052734375 11.8 49.05
M 12.9 20.85
L 12.8 20.85
Q 12.953125 22.3912109375 13.1 24.3 13.1 24.9 12.25 25.5 11.94609375 25.3150390625 11.7 25 11.8287109375 26.1625 12 27.4 12.085546875 27.41875 12.15 27.45 12.35 26.791015625 12.35 26.6
L 12.55 26.6
Q 12.8134765625 27.126953125 12.85 27.65 14.05 28.1419921875 14.05 29.1 14.05 29.9 13.05 30.6 12.3041015625 31.1703125 11.6 31.25 11.65 31.3845703125 11.65 31.55 11.65 32.2 11.15 34.75
L 13.1 38.9
Q 13.1 39.55 12.55 40.1 11.7 39.6 10.75 36.95 9.9 34.5 9.9 33.15 9.9 32.0009765625 10.2 30.95
L 10.2 30.95
Q 10.0486328125 31 9.85 31 9.35 31 7.55 29.55 7.05 30.3 7.05 30.75 7.05 31.4 6.75 33.35
L 6.65 33.65
Q 6 32.75 6 31.55 6.01171875 31.4185546875 6 31.3 5.651953125 32.38046875 5.3 33.4
L 5.35 33.4
Q 5.5 33.75 5.1 34.55 5.1 35.2 5.65 35.85 5.65 36.316796875 5.4 38.9 5.5498046875 39.4037109375 5.7 40.1 5.954296875 41.0806640625 6.3 42.75 7.35 41.6580078125 7.35 39.65 7.35 39.35 6.8 38.9 6.25 38.4 6.25 37.55 6.25 37.15 6.65 37 8.05 38.4 8.05 39.65 8.05 43.7162109375 6.9 45.3 7.75 48.5525390625 7.75 50.5 7.75 54.9 5.3 54.9 3.5869140625 54.9 2.3 50.6 2.305078125 50.930078125 2.3 51.25 2.4 52.8 4.5 59.55 4.5 60.3029296875 4.05 60.6
L 4.05 60.65
Q 4.1521484375 60.6 4.25 60.6 5.5 60.6 5.15 62.8 5.15 63.3 5.75 64.25 6.25 65.05 6.05 65.85
L 7.55 66
Q 6.5 60.6240234375 6.5 56.8
L 6.5 56.5 6.75 56.5
Q 6.35 60.7 8.45 67.05 9.3447265625 69.659375 10.9 74.25 10.890625 71.70546875 10.7 70.8 10.5478515625 69.9251953125 9.7 67.6 10.1212890625 67.8568359375 10.55 68 9.3578125 65.8439453125 7.65 61.1 7.65 59.3 9 58.4 9.1 60.8 11.1 64.5 12.4220703125 67.03984375 12.8 68.25 13.9 68.030078125 13.9 66.9 14 65.35 12.8 65.35 12.1056640625 65.35 11.45 64.95 11.75 64.637109375 11.75 64.05 10.80078125 61.5529296875 9.95 59.8 10.5 58.9212890625 10.5 57.25 10.5 56.669140625 10.4 55.95 10.4 55.9130859375 10.4 55.85 10.3861328125 55.8232421875 10.35 55.8 10.107421875 54.15390625 9.3 51.9 8.96171875 50.9798828125 8.7 50.15 8.80234375 49.88046875 8.8 49.65 8.951171875 49.636328125 9.1 49.55 9.2431640625 49.5322265625 9.35 49.5 9.9001953125 49.4775390625 10.25 50 10.7990234375 49.6361328125 10.8 48.95 10.2580078125 48.4453125 10.1 47.95 9.81953125 46.7259765625 9.35 46.7 9.0189453125 46.8669921875 8.85 46.9 8.9482421875 46.728515625 9.05 46.55 8.9451171875 46.3318359375 8.95 45.95 8.948828125 45.787890625 8.95 45.6 9.18984375 46.01796875 9.5 46 10.0447265625 46.0142578125 10.4 45.35 9.4822265625 45.185546875 9.4 44.4 9.85 43.7984375 9.85 43.75
L 9.85 43.7 10.1 43.7
Q 10.474609375 43.6984375 10.55 43.85
L 10.55 43.75
Q 10.4751953125 43.398046875 10.35 43.2 10.5669921875 43.019140625 10.8 42.85 10.8 43.0162109375 10.8 43.2 10.8 43.7322265625 11.1 44.15 11.128125 43.3978515625 11.5 42.05 11.95 40.25 12.5 40.25 13.35 40.25 13.35 41.15 13.35 41.8 12.85 44.15 12.85 44.446484375 14 45.6 13.9 45.2177734375 13.9 44.9 14.8 43.8 14.8 43.2 14.7056640625 41.974609375 13.95 41.5 14.068359375 41.4841796875 14.2 41.45 13.8728515625 38.827734375 13.85 37.25 13.8576171875 36.6689453125 13.85 36.05 14.2841796875 37.977734375 15.05 41.25 15.05 43.5927734375 15.7 48.25 15.7009765625 48.037109375 15.65 47.8 16 48.5501953125 16 49.25 16 49.9 15.85 50 15.8 50.15 15.15 50.15 14.4 50.15 14.1 48.7 13.9 47.2 13.75 47.05 13.17109375 46.6970703125 12.7 46.4 12.773828125 46.5861328125 12.8 46.75 12.9 47.5 13.65 48.8 14.55 50.4 15.25 50.4 15.7345703125 50.4 15.8 50.3
L 15.8 51.8
Q 16.15 50.5 16.15 47.9 16.8 45.6 16.8 43.75 16.8 39.0171875 16.05 36.35 16.1 36.2400390625 16.1 36.1 16.05 34.8 16.05 34.75 16.786328125 33.1298828125 16.95 32.55 17.1107421875 33.3095703125 17.3 34.25 17.3126953125 48.5103515625 17.3 62.55 17.88359375 48.230078125 17.8 42.3 17.7580078125 35.036328125 17.5 21.45 17.199609375 21.95 16.7 22.2 16.806640625 23.03125 16.9 23.9 16.9 27.55 16.1 30.55
L 15.75 30.75
Q 15.15 30 14.95 28.3 14.85 26.45 14.75 25.8 14 21.25 14 21 13.86953125 19.101171875 13.75 17.5 13.3841796875 19.0251953125 12.9 20.85
M 16.9 32.05
Q 16.630078125 31.6705078125 16.6 31.2 16.619921875 31.276171875 16.65 31.15 16.7072265625 31.1576171875 16.75 31.15 16.7962890625 31.484375 16.85 31.8 16.86953125 31.9365234375 16.9 32.05
M 17.1 4.25
Q 16.8544921875 4.6330078125 16.6 4.9 16.2833984375 5.556640625 15.9 6.3 15.9400390625 6.22578125 15.95 6.15 16.4666015625 7.35390625 17.05 10.05 17.2609375 8.7564453125 17.45 7.35 17.2169921875 5.370703125 17.1 4.25
M 22.05 13.6
Q 22.05 13.5478515625 22.05 13.5 20.9271484375 13.4541015625 20.15 11.2 19.84453125 11.77578125 19.1 11.85 19.2384765625 13.751953125 19.4 16 19.05 34.4 19 43.6 19 48.25 18.6 57.5 18.6181640625 57.912890625 18.6 58.4 18.780859375 55.844921875 18.8 55.5
L 19 55.5
Q 19.25 57.9 19.25 61.15 19.25 61.1919921875 19.4 67.05 19.43671875 63.5830078125 19.45 60.05
L 19.5 53.45
Q 19.4986328125 53.2681640625 19.5 53.05 19.520703125 50.159765625 19.5 47.9 19.53828125 45.1236328125 19.5 43.4 20.312109375 44.15 21.6 44.15 21.98671875 44.15 22.45 43.85 22.757421875 43.97734375 23.05 44 23.3765625 44.6794921875 24.05 44.8 24 45.4478515625 24 46.15 24 46.65 24.4 47.95 24.8 49.1 24.65 50
L 25 49.9
Q 25.128515625 49.2486328125 25.25 48.65 25.2962890625 48.687890625 25.35 48.7 25.35 48.7888671875 25.35 48.85 25.35 49.2 25.85 49.35 26.0412109375 49.2013671875 26.25 49 26.320703125 49 26.4 49 26.7181640625 49 27.05 48.85 27.44375 49.85 28.35 49.85 29 49.85 29 49.55
L 29 49.35
Q 29.3994140625 49.8806640625 30 50 30.1837890625 50.05 30.4 50.05 31.8 50.05 31.7 49.1 31.35 47.9 31.5 47.5 31.6154296875 47.2779296875 31.7 47.05 32.021484375 47.14921875 32.4 47.15 32.86484375 47.148046875 33.4 46.8 33.9296875 47.55 34.4 47.55 34.6037109375 47.55 34.75 47.5 34.813671875 47.75078125 34.85 48 35.2 50.05 36 51.05 36.1748046875 50.91875 36.3 50.8 36.731640625 51.3970703125 37.4 51.55 37.8529296875 52.65 38.5 52.65 38.5513671875 52.65 38.6 52.65
L 38.6 48.9
Q 37.5150390625 48.8140625 37 47.55 36.926953125 47.15546875 36.85 46.85 36.301171875 47.1 35.35 47.1 33.35 47.1 32.3 45.7 31.6 44.3 31.6 44.25 31.6 41.3 34.4 39.55 35.15 40.2 34.6 42.75 34.75 44.15 36.3 44.65 36.63515625 44.75390625 36.9 44.85 37.01640625 43.6720703125 37.05 43 37.1544921875 42.0603515625 37.35 41.45 37.019140625 40.29375 36.6 38.85 36.1123046875 37.8306640625 35.6 36.6 35.5080078125 38.261328125 34.1 38.5 34.0654296875 38.7798828125 33.95 39.1 33.9150390625 39.04609375 33.85 38.95 33.80078125 38.7603515625 33.75 38.55 33.6767578125 38.55 33.6 38.55 32.4 38.55 31.85 37.55 31.6 36.55 31.6 36.5 31.6 34.25 33.6 34.25 34.26484375 34.25 34.7 34.45 34.7857421875 34.687109375 34.85 34.9 34.665625 34.3716796875 34.45 33.8 34.227734375 34 33.85 34 32.8 34 31.1 31.6 29.5 29.4 29.5 28.85 29.5 27.35 31 27.35 31.61796875 27.35 32.2 27.8 31.4771484375 25.8205078125 30.7 23.6 30.540625 24.38046875 30.4 26.35 30.15 28.05 29.05 28.05 27.85 28.05 27.8 26.6 27.8 24.8 27.75 24.75 26.6787109375 23.56875 26.2 22.8 26.198046875 22.983984375 26.2 23.15 26.4900390625 23.756640625 26.65 24.45 26.95 25.5 27.25 27.6 27.5 28.55 27.5 30.6 27.5 31.375 28.05 32.95 28.0919921875 32.5134765625 28.25 31.25 28.5 31.25 29.05 31.05 30.25 31.05 30.05 33.2 30.05 34.90859375 29.15 35 28.8724609375 35.7470703125 27.85 36.9 28.75 36.944921875 28.75 37.9 28.75 38.75 27.25 40.25 25.9736328125 41.48515625 25.25 41.7 25.25 41.80078125 25.25 41.9 25.25 43.3 24.25 43.3 22.75 41.65 21.75 40.75 20.65 39.9 20.65 38.45 20.65 36.3904296875 21.35 33.2 21.2818359375 32.581640625 21.25 31.85 21.25 28.0650390625 21.85 25.9 21.1 21.47734375 21.1 19.8 22.05 14.3 22.05 13.6
M 27.05 47.95
Q 26.8 46.85 26.8 46.8 26.8 43.25 29.05 43.25 30.65 43.25 30.65 44 30.65 44.35 29.65 46 29.65 46.5 30.4 47.75 30.4 49 28.8 49 27.6 49 27.05 47.95
M 34.6 39.5
Q 34.675390625 39.7720703125 34.75 40 34.6548828125 39.86328125 34.6 39.7 34.6 39.626953125 34.6 39.55
L 34.6 39.5
M 28.6 17.75
Q 28.7111328125 17.9375 28.8 18.1 26.937109375 14.7978515625 25.9 12.8 26.0880859375 16.0818359375 26.15 20.5 26.4025390625 19.9962890625 26.8 19.4 27.59140625 18.2275390625 28.6 17.75
M 18.05 102.5
L 18.05 100.55
Q 17.77890625 100.18828125 17.5 99.75 17.8240234375 100.944140625 18.05 102.5
M 7.7 66.7
Q 7.6240234375 67.691015625 6.85 67.85 8.23671875 71.2373046875 9.65 74.4 8.9080078125 71.834375 7.9 67.5 7.814453125 67.1123046875 7.7 66.7
M 4.6 47.5
L 4.75 47.5
Q 4.55 47.1 4.35 46.3 4.35 46.5 4.6 47.5
M 23 12.75
L 23.05 12.75
Q 23.05 12.4611328125 23.05 12.25 23.04296875 12.53203125 23 12.75
M 21.95 4.4
Q 21.9900390625 4.851953125 22 5.35 23.0220703125 11.044140625 23.05 12.1 23.05 11.6984375 23.05 11.65 23.2208984375 9.7466796875 23.75 8.25 22.765625 6.159765625 21.95 4.4 Z"/>

<path fill="#BA0101" stroke="none" d="
M 26.35 66.05
Q 26.288671875 66.051171875 26.2 66.05
L 26.15 66.05
Q 24.15 66.05 24.15 68.05
L 24.4 69.05
Q 24.816796875 69.88359375 25.65 70 25.7470703125 69.8798828125 25.8 69.7 25.9 68.65 26 68.25 26.2 67.7 27.45 67.3 27.7583984375 67.1927734375 27.95 67.05 27.8396484375 66.72890625 27.6 66.5
L 26.4 66.05 26.35 66.05
M 21.65 54.45
Q 21.9853515625 54.07890625 22.15 53.35 21.9 52.15 22 51.75 22.7435546875 51.0064453125 23.05 50.55 22.4720703125 49.9939453125 22.25 49.55 20.15 51.4 20.15 52.3 20.15 54.2255859375 21.65 54.45
M 34 55.45
Q 33.6 54.255859375 33.6 53.9 33.84375 53.2744140625 34.05 52.75 33.15 53.038671875 33.15 54.2 33.15 54.25 33.2 54.9 33.3931640625 55.3634765625 34 55.45
M 32.15 53.7
Q 32.124609375 53.814453125 32.1 53.9
L 32.1 53.95
Q 32.0806640625 54.051171875 32.05 54.1 32.058203125 54.1962890625 32.05 54.25 32.03125 54.3638671875 32 54.45
L 32.3 54.15
Q 32.2412109375 53.905078125 32.15 53.7
M 37.05 59.1
Q 36.54609375 58.6 35.5 58.6 33.5 58.6 33.5 60.9 33.5 61.5462890625 33.8 62.1 33.8 62.254296875 33.8 62.4
L 33.8 62.5
Q 33.80625 62.7013671875 33.8 62.85 34.9296875 62.7470703125 35.25 61.1 37.15 60.45 37.15 59.5 37.1095703125 59.2982421875 37.05 59.1
M 2.65 138.65
Q 1.25 138.65 1.25 141 1.089453125 142.48515625 1.9 142.75 1.18671875 142.87109375 0.8 143.25
L 0.8 145.75
Q 0.930859375 145.9421875 1.1 146.1 1.5310546875 146.5310546875 1.75 146.9 1.7591796875 146.8822265625 1.75 146.85 1.7875 146.7251953125 1.8 146.6
L 1.8 146.5
Q 2.383984375 146.4794921875 2.8 146.1 2.9015625 146.034375 2.95 145.95
L 3.8 144.25
Q 3.918359375 143.87265625 4 143.4 3.605078125 142.86640625 2.7 142.75 3.65 142.3525390625 3.65 139.75 3.6 138.65 2.65 138.65
M 2.85 102.8
Q 3.0142578125 101.8650390625 3.1 100.95 3.3875 102.1771484375 3.75 102.95 4.201953125 102.1181640625 4.75 99.3
L 4 98.55
Q 2.5 99.45 2.5 101.1 2.5 102.29375 2.85 102.8
M 14.2 93.25
L 14.15 93.4
Q 14.15 94.2259765625 14.2 93.25
M 8.3 95.35
Q 8.440234375 95.93125 8.6 96.75 9.1 98.6 9.85 98.6 10.2017578125 98.6 10.45 98.4 9.769921875 95.60390625 8.3 95.35
M 5.05 80.5
Q 3.75 80.5 3.75 83 3.75 85.75 4.7 88.95 5.283203125 90.8009765625 6 92.15
L 6.05 92.2
Q 7.38984375 93.31015625 7.85 93.95 8.05 93.528515625 8.05 93.1 8.05 91.6748046875 7.2 88.4 7.24140625 88.840234375 7.3 89.25
L 7.45 90.1
Q 7.5091796875 90.2458984375 7.55 90.4 6.73984375 89.7244140625 6.25 89.1 6.4 86.893359375 6.4 86.25 6.3341796875 85.6896484375 6.25 85.15
L 6.4 84.75 6.4 84.8
Q 5.6291015625 80.5 5.05 80.5
M 5.5 87.35
L 5.6 87
Q 5.8537109375 87.9591796875 5.95 88.65 5.5 87.9740234375 5.5 87.35
M 9 58.4
Q 7.65 59.3 7.65 61.1 9.3578125 65.8439453125 10.55 68 11.3291015625 68.2880859375 12.15 68.3 12.2115234375 68.3 12.25 68.3 12.56796875 68.3 12.8 68.25 12.4220703125 67.03984375 11.1 64.5 9.1 60.8 9 58.4
M 1.35 111
L 1.1 111
Q 0.948046875 111.46953125 0.8 112.05
L 0.8 130.65
Q 1.2267578125 131.7794921875 1.85 132.15 2.65 131.55 2.65 131.25 1.7 124.65 1.55 121.15 1.7 117.75 1.75 116.05 1.85 113 1.35 111
M 3.75 69.25
Q 3.75 68.9 3.15 68.75 1.5 70.55 1.5 78.35 1.2 86.6 2.65 86.6 3.3 86.6 3.3 86.25
L 3.3 75.65
Q 3.75 69.9 3.75 69.25
M 30.9 52.9
Q 30.8857421875 52.9 30.85 52.9 30.6603515625 52.9 30.5 52.9 30.28125 53.01796875 30.05 53.1
L 29.95 53.2
Q 29.916015625 53.2240234375 29.85 53.25 29.8486328125 53.2599609375 29.8 53.25 29.8 53.2841796875 29.75 53.3
L 29.75 53.25
Q 29.5728515625 53.4052734375 29.4 53.55
L 29.25 53.6
Q 29.3642578125 53.465234375 29.45 53.3
L 29.75 52.8
Q 29.878125 52.5599609375 30 52.35
L 30 52.3
Q 30 52.1947265625 30 52.05 29.8916015625 51.1826171875 29.15 50.95 28.1876953125 52.0623046875 27.2 53.05 27.173828125 53.086328125 27.15 53.1 26.71484375 53.770703125 26.6 54.75 26.4455078125 54.16875 26.15 53.75 25.25 54.4 25.25 58.5
L 25.25 58.55
Q 25.575 58.75 26 58.75 26.4076171875 58.75 26.6 58.65 26.6541015625 58.287109375 26.7 57.9
L 26.75 57.05
Q 26.746484375 56.8982421875 26.75 56.75
L 26.75 56.8
Q 26.8328125 57.024609375 26.9 57.25 27.3 54.1935546875 27.3 53.65 27.600390625 54.1 28.35 54.1 28.625 54.1 28.85 54.05 28.75 54.373828125 28.75 54.8 28.75 54.85 28.75 55.7 28.95 56.5 30 56.5
L 30.95 55.55 30.95 55.5
Q 31.139453125 55.21953125 31.25 54.95 31.308984375 54.83203125 31.35 54.7 31.36171875 54.6873046875 31.35 54.65 31.4171875 54.519921875 31.45 54.4 31.4810546875 54.247265625 31.5 54.1
L 31.5 53.9
Q 31.5 53.2861328125 30.9 52.9
M 37.35 41.45
Q 37.1544921875 42.0603515625 37.05 43 37.01640625 43.6720703125 36.9 44.85 36.63515625 44.75390625 36.3 44.65 34.75 44.15 34.6 42.75 35.15 40.2 34.4 39.55 31.6 41.3 31.6 44.25 31.6 44.3 32.3 45.7 33.35 47.1 35.35 47.1 36.301171875 47.1 36.85 46.85 36.926953125 47.15546875 37 47.55 37.5150390625 48.8140625 38.6 48.9
L 38.6 47.4 38.55 47.4 38.6 47.35 38.6 46.4
Q 38.5568359375 45.6607421875 37.35 41.45
M 33.6 34.25
Q 31.6 34.25 31.6 36.5 31.6 36.55 31.85 37.55 32.4 38.55 33.6 38.55 33.6767578125 38.55 33.75 38.55 33.639453125 38.077734375 33.5 37.6 33.812890625 38.0947265625 34.15 38.4 34.139453125 38.4490234375 34.1 38.5 35.5080078125 38.261328125 35.6 36.6
L 34.85 34.9
Q 34.7857421875 34.687109375 34.7 34.45 34.26484375 34.25 33.6 34.25
M 32.2 27.8
Q 31.61796875 27.35 31 27.35 29.5 27.35 29.5 28.85 29.5 29.4 31.1 31.6 32.8 34 33.85 34 34.227734375 34 34.45 33.8 33.3765625 31.133984375 32.2 27.8
M 13.35 41.15
Q 13.35 40.25 12.5 40.25 11.95 40.25 11.5 42.05 11.128125 43.3978515625 11.1 44.15 11.302734375 44.484375 11.65 44.75 12.475390625 45.4015625 12.7 46.4 13.17109375 46.6970703125 13.75 47.05 13.9 47.2 14.1 48.7 14.4 50.15 15.15 50.15 15.8 50.15 15.85 50 16 49.9 16 49.25 16 48.5501953125 15.65 47.8 15.7009765625 48.037109375 15.7 48.25
L 15.8 49
Q 15.8423828125 49.049609375 15.85 49.1
L 15.85 49.35
Q 15.70859375 49.125 15.55 48.9
L 14.35 46.65
Q 14.1431640625 46.1080078125 14 45.65
L 14 45.6
Q 12.85 44.446484375 12.85 44.15 13.35 41.8 13.35 41.15
M 26.8 46.8
Q 26.8 46.85 27.05 47.95 27.6 49 28.8 49 30.4 49 30.4 47.75 29.65 46.5 29.65 46 30.65 44.35 30.65 44 30.65 43.25 29.05 43.25 26.8 43.25 26.8 46.8
M 22 5.35
Q 21.9900390625 4.851953125 21.95 4.4 20.616796875 1.355859375 19.85 -0.7 19.5927734375 -0.144140625 19.35 0.35 19.066015625 0.9115234375 18.8 1.4
L 18.8 1.4
Q 18.6970703125 1.6078125 18.6 1.8
L 18.4 2.15 18.4 2.1
Q 18.3767578125 2.1671875 18.35 2.2
L 18.35 2.25
Q 18.327734375 2.2892578125 18.3 2.3 17.657421875 3.4673828125 17.1 4.25 17.2169921875 5.370703125 17.45 7.35 17.2609375 8.7564453125 17.05 10.05 16.4666015625 7.35390625 15.95 6.15 15.9400390625 6.22578125 15.9 6.3 15.26328125 7.5734375 14.85 8.6 14.7869140625 8.75390625 14.7 8.9 14.4404296875 9.6310546875 14.25 10.2 14.05 11.041015625 14.05 11.6 14.05 11.647265625 14.05 11.7
L 13.85 12.05
Q 13.717578125 12.3701171875 13.55 12.65 12.6107421875 14.571875 11.8 16.3 11.7759765625 16.3505859375 11.75 16.4 11.6228515625 16.67734375 11.5 16.95 9.568359375 21.0830078125 8.45 24.15 8.48125 24.520703125 8.5 24.9 8.328125 24.9576171875 8.15 25.05 8.073046875 25.3439453125 7.95 25.6 7.79765625 26.21171875 7.65 26.75 7.6193359375 26.828125 7.6 26.9 7.3859375 27.7029296875 6.7 29.3 6.3537109375 30.324609375 6 31.3 6.01171875 31.4185546875 6 31.55 6 32.75 6.65 33.65
L 6.75 33.35
Q 7.05 31.4 7.05 30.75 7.05 30.3 7.55 29.55 9.35 31 9.85 31 10.0486328125 31 10.2 30.95
L 10.2 30.95
Q 9.9 32.0009765625 9.9 33.15 9.9 34.5 10.75 36.95 11.7 39.6 12.55 40.1 13.1 39.55 13.1 38.9
L 11.15 34.75
Q 11.65 32.2 11.65 31.55 11.65 31.3845703125 11.6 31.25 12.3041015625 31.1703125 13.05 30.6 14.05 29.9 14.05 29.1 14.05 28.1419921875 12.85 27.65 12.8134765625 27.126953125 12.55 26.6
L 12.35 26.6
Q 12.35 26.791015625 12.15 27.45 12.085546875 27.41875 12 27.4 11.8287109375 26.1625 11.7 25 11.94609375 25.3150390625 12.25 25.5 13.1 24.9 13.1 24.3 12.953125 22.3912109375 12.8 20.85
L 12.9 20.85
Q 13.3841796875 19.0251953125 13.75 17.5 13.86953125 19.101171875 14 21 14 21.25 14.75 25.8 14.85 26.45 14.95 28.3 15.15 30 15.75 30.75
L 16.1 30.55
Q 16.9 27.55 16.9 23.9 16.806640625 23.03125 16.7 22.2 17.199609375 21.95 17.5 21.45 17.7580078125 35.036328125 17.8 42.3 17.88359375 48.230078125 17.3 62.55
L 17.3 70.75
Q 17.3419921875 71.04296875 17.4 71.35
L 17.8 71.25
Q 17.7908203125 71.8896484375 17.75 72.55
L 17.95 92.05
Q 17.606640625 91.22734375 17.25 90.45 17.2759765625 91.7009765625 17.25 92.9 15.35078125 86.6333984375 13.9 83.4 12.555078125 80.6853515625 11.35 78.2 11.098828125 77.66875 10.85 77.15 10.85859375 77.08125 10.85 77
L 10.85 76.95
Q 10.9296875 76.4037109375 10.9 75.65 11.1560546875 76.2115234375 11.5 76.85 11.674609375 77.3388671875 11.8 77.5 11.91171875 77.6591796875 12 77.8 12.031640625 77.7193359375 12.05 77.6 11.9673828125 77.3576171875 11.85 77.1 11.8623046875 77.0873046875 11.85 77.05
L 11.05 74.95 10.9 74.95
Q 10.98125 75.196484375 11 75.4 10.971484375 75.259375 10.9 75.1 10.923046875 75.038671875 10.9 74.95 10.912890625 74.7310546875 10.9 74.5 10.9 74.3705078125 10.9 74.25 9.3447265625 69.659375 8.45 67.05 6.35 60.7 6.75 56.5
L 6.5 56.5 6.5 56.8
Q 6.5 60.6240234375 7.55 66
L 6.05 65.85
Q 6.25 65.05 5.75 64.25 5.15 63.3 5.15 62.8 5.5 60.6 4.25 60.6 4.1521484375 60.6 4.05 60.65
L 4.05 60.6
Q 4.5 60.3029296875 4.5 59.55 2.4 52.8 2.3 51.25 2.305078125 50.930078125 2.3 50.6 3.5869140625 54.9 5.3 54.9 7.75 54.9 7.75 50.5 7.75 48.5525390625 6.9 45.3 8.05 43.7162109375 8.05 39.65 8.05 38.4 6.65 37 6.25 37.15 6.25 37.55 6.25 38.4 6.8 38.9 7.35 39.35 7.35 39.65 7.35 41.6580078125 6.3 42.75 5.954296875 41.0806640625 5.7 40.1 5.5498046875 39.4037109375 5.4 38.9 5.65 36.316796875 5.65 35.85 5.1 35.2 5.1 34.55 5.5 33.75 5.35 33.4
L 5.3 33.4 5.25 33.4
Q 5.035546875 34.09453125 4.8 34.75
L 3.45 38.5
Q 3.413671875 38.5970703125 3.35 38.7 3.2365234375 39.0685546875 3.1 39.4
L 3 39.7
Q 2.8953125 39.94921875 2.8 40.15
L 2.8 40.2
Q 2.75703125 40.7048828125 2.75 41.1 2.64375 41.0203125 2.5 40.95 2.4609375 41.09375 2.4 41.2
L 2.3 41.4 2.3 41.45
Q 2.006640625 41.68515625 2 42.2
L 2 42.25
Q 1.7560546875 42.8466796875 1.5 43.4 1.2716796875 44.0162109375 1 44.55 0.91328125 44.844921875 0.8 45.1
L 0.8 58.25
Q 1.64296875 60.488671875 2.75 60.8 2.9359375 61.398828125 3.1 62.05 2.75 63.0373046875 2.75 63.5 2.75 65.6513671875 4.55 66.25 5.8326171875 69.73828125 7.75 74.25 8.6974609375 76.487890625 9.8 78.95 9.8498046875 78.9703125 9.9 78.95
L 9.95 78.9
Q 10.03203125 78.9033203125 10.05 78.85
L 10.1 78.85
Q 11.369140625 81.3388671875 12.85 84.1 12.85 84.138671875 15.25 91.3 16.428515625 94.015234375 18 97.75
L 18.05 99.85
Q 17.7740234375 99.1302734375 17.25 98 16.1154296875 95.4892578125 13.75 91.05 13.433203125 90.4677734375 13.1 89.85
L 12.9 89.85
Q 13.2390625 90.5765625 13.75 91.85 13.7783203125 92.159765625 13.8 92.45 13.999609375 92.86171875 14.2 93.25 14.6236328125 98.4880859375 14.35 103.85 14.0759765625 109.2740234375 13.9 111.95 13.7259765625 114.67109375 13.85 116.05 13.9716796875 117.476171875 14.75 118.25 15.523828125 119.02265625 15.85 116.9 16.2322265625 114.82890625 16.05 113.75 15.9140625 112.6619140625 15.85 112 15.8658203125 111.613671875 15.85 111.25 15.869921875 111.3376953125 15.9 111.4 15.9783203125 107.692578125 15.4 100.7 14.8189453125 93.775390625 15.3 96.2
L 15.75 98.45 15.75 98.05
Q 15.55 96.35 15.25 95.5
L 15.15 95.5
Q 15.1263671875 95.3115234375 15.1 95.15 15.175 95.32734375 15.25 95.5 16.2638671875 97.8447265625 17.25 99.4 17.2759765625 101.3548828125 17.25 103.25 17.5947265625 103.9595703125 17.95 104.7
L 17.75 107.9 17.25 107.9
Q 17.276953125 113.5166015625 17.25 119.1 17.2576171875 122.237109375 17.25 125.3 17.151171875 131.7439453125 17.05 137.2
L 17 141.5
Q 16.9060546875 149.0068359375 16.55 154.9 16.4650390625 156.1890625 16.35 157.4 16.0720703125 161.6263671875 15.6 164.9 15.0919921875 168.879296875 14.35 171.45 12.007421875 179.6779296875 12.4 183.45 12.7470703125 186.3234375 14.55 187.35 15.1744140625 187.6779296875 15.9 187.8 16.7640625 187.9900390625 17.4 187.85 16.483203125 186.7873046875 16 185.65 15.8619140625 185.5595703125 15.75 185.35 15.7458984375 185.202734375 15.8 185.1 15.7115234375 184.881640625 15.6 184.65 15.401953125 185.1453125 14.7 185.15 13.1810546875 183.41015625 13.15 183.3 13.1810546875 180.390234375 14.7 179.55 14.9017578125 179.7462890625 15.05 180 16.8330078125 170.1701171875 17.4 165.65 17.925 164.30234375 18.5 162.9 19.0626953125 161.6619140625 19.55 160.55
L 19.4 151.5
Q 19.2193359375 139.158203125 19.1 125.3 19.12734375 123.85390625 19.1 122.35
L 19.1 101.75
Q 19.5033203125 102.5708984375 19.9 103.35 19.9423828125 102.8435546875 19.95 102.3 20.1619140625 102.7587890625 20.35 103.2 20.5390625 103.641015625 20.7 104.05 20.7908203125 104.58671875 20.9 105.25 21.0876953125 106.126953125 21.35 107.2 21.4943359375 108.3494140625 21.7 109.8 21.6828125 110.309375 21.65 110.9 21.6607421875 111.2314453125 21.7 111.55 21.4 112.5728515625 21.4 114.35 21.4001953125 115.00234375 21.05 120.35 20.754296875 125.7431640625 22.25 125.6 23.737109375 125.4521484375 23.9 123.5 24.0609375 121.542578125 23.8 120.5 23.5484375 119.4662109375 23.25 117.05 23.3634765625 114.703515625 23.4 112.35 23.4455078125 112.3466796875 23.5 112.3
L 23.6 112
Q 23.4470703125 110.7615234375 23.35 109.8
L 20.9 102.6
Q 20.3263671875 101.19453125 19.8 100
L 19.1 98.3 19.1 93.6
Q 19.12265625 92.0896484375 19.1 90.55
L 19.45 90.55
Q 19.4322265625 79.511328125 19.4 68 19.425 67.9251953125 19.4 67.85 19.4259765625 67.4626953125 19.4 67.05 19.25 61.1919921875 19.25 61.15 19.25 57.9 19 55.5
L 18.8 55.5
Q 18.780859375 55.844921875 18.6 58.4 18.6181640625 57.912890625 18.6 57.5 19 48.25 19 43.6 19.05 34.4 19.4 16 19.2384765625 13.751953125 19.1 11.85 19.84453125 11.77578125 20.15 11.2 20.9271484375 13.4541015625 22.05 13.5 22.05 13.5478515625 22.05 13.6 22.05 14.3 21.1 19.8 21.1 21.47734375 21.85 25.9 21.25 28.0650390625 21.25 31.85 21.2818359375 32.581640625 21.35 33.2 20.65 36.3904296875 20.65 38.45 20.65 39.9 21.75 40.75 22.75 41.65 24.25 43.3 25.25 43.3 25.25 41.9 25.25 41.80078125 25.25 41.7 25.9736328125 41.48515625 27.25 40.25 28.75 38.75 28.75 37.9 28.75 36.944921875 27.85 36.9 28.8724609375 35.7470703125 29.15 35 30.05 34.90859375 30.05 33.2 30.25 31.05 29.05 31.05 28.5 31.25 28.25 31.25 28.0919921875 32.5134765625 28.05 32.95 27.5 31.375 27.5 30.6 27.5 28.55 27.25 27.6 26.95 25.5 26.65 24.45 26.4900390625 23.756640625 26.2 23.15 26.198046875 22.983984375 26.2 22.8 26.6787109375 23.56875 27.75 24.75 27.8 24.8 27.8 26.6 27.85 28.05 29.05 28.05 30.15 28.05 30.4 26.35 30.540625 24.38046875 30.7 23.6 29.911328125 21.193359375 29.05 18.5
L 28.8 18.1
Q 28.7111328125 17.9375 28.6 17.75 27.59140625 18.2275390625 26.8 19.4 26.4025390625 19.9962890625 26.15 20.5 26.0880859375 16.0818359375 25.9 12.8 25.5896484375 12.123046875 25.35 11.6 25.2744140625 11.4435546875 25.2 11.3 25.00234375 10.8892578125 24.8 10.5 24.332421875 9.5130859375 23.9 8.6 23.823828125 8.43671875 23.75 8.25 23.2208984375 9.7466796875 23.05 11.65 23.05 11.6984375 23.05 12.1 23.0220703125 11.044140625 22 5.35
M 23.05 12.75
L 23 12.75
Q 23.04296875 12.53203125 23.05 12.25 23.05 12.4611328125 23.05 12.75
M 4.75 47.5
L 4.6 47.5
Q 4.35 46.5 4.35 46.3 4.55 47.1 4.75 47.5
M 6.85 67.85
Q 7.6240234375 67.691015625 7.7 66.7 7.814453125 67.1123046875 7.9 67.5 8.9080078125 71.834375 9.65 74.4 8.23671875 71.2373046875 6.85 67.85
M 14.8 94.5
L 14.8 94.5
Q 14.7828125 94.4248046875 14.45 93.75 14.80078125 94.42421875 14.8 94.5
M 18.05 100.55
L 18.05 102.5
Q 17.8240234375 100.944140625 17.5 99.75 17.77890625 100.18828125 18.05 100.55 Z"/>

<path fill="#FFE6E6" stroke="none" d="
M 17 185.35
Q 17.0283203125 184.67578125 16.45 184.65 15.9265625 184.6837890625 15.8 185.1 15.7458984375 185.202734375 15.75 185.35 15.8619140625 185.5595703125 16 185.65 16.215625 185.793359375 16.45 185.85 17.0283203125 185.6125 17 185.35
M 15.05 180
Q 14.9017578125 179.7462890625 14.7 179.55 13.1810546875 180.390234375 13.15 183.3 13.1810546875 183.41015625 14.7 185.15 15.401953125 185.1453125 15.6 184.65 15.745703125 184.4388671875 15.75 184.1 15.7490234375 181.18515625 15.05 180 Z"/>
</g>

<g id="blood_0_Layer0_0_FILL">
<path fill="#FFCCCC" stroke="none" d="
M 15.6 175.65
Q 15.5 175 15.5 174.75 14.25 175.45 14.25 177.05 14.25 177.7 14.5 177.35
L 15.05 177.35
Q 15.6 176.05 15.6 175.65
M 16.3 171.05
Q 16.1 170.35 16.05 170.25 15.4 170.85 15.4 171.1 15.4 171.4 16 171.5 16.2 171.4 16.3 171.05
M 4.5 154.75
Q 4.5 154.95 3.85 155.5 3.85 155.7 4.5 156.35
L 5.1 156.05
Q 5.15 155.65 5.15 155.45 5.15 155.4 4.5 154.75
M 3.75 151.5
Q 4.5 151.2 4.5 150.85 4.5 150.4 3.75 150.25 3.1 150.45 3.1 150.85 3.1 151.3 3.75 151.5
M 3.75 147.75
L 3.55 147.5 3.15 147.5
Q 3.15 147.9 3.3 148.1 3.75 148.05 3.75 147.75
M 2.9 144.65
Q 3.2 144.6 3.35 144.25 3.35 143 2.6 142.1 2.15 142.35 2.15 143.1 2.15 143.85 2.9 144.65
M 3.15 135.75
L 2.75 134.35 2.35 134.35 2.35 135.5
Q 3.05 136.55 2 136.9 2 137.55 2.15 137.3 2.85 137.3 3.15 137
L 3.15 135.75
M 18 109.15
Q 17.9 106.15 18.35 104.55 18.25 104.35 18.05 104.35 17.5 106.55 17.5 107.15 17.5 107.4 17.85 109.3
L 18 109.15
M 22.25 107.65
Q 22 107.25 22 107
L 21.75 107
Q 21.75 107.6 22 108
L 22.25 107.65
M 18.05 97.1
L 18.05 98.5 18.65 99.55 18.8 99.5
Q 18.45 98.6 18.25 97.1
L 18.05 97.1
M 9.45 97.6
Q 9.3 96.15 9.1 95.65
L 8.85 95.65
Q 8.85 96.4 8.65 97.5 9.1 99.6 9.35 99.6 10.3 99.6 11.05 99.35 9.8 98.9 9.45 97.6
M 3.15 98.25
L 3.25 95.5
Q 2.05 95.3 2.05 98.3 2.05 100.9 3.6 100.9 3.6814453125 100.9 3.75 100.9 3.75 100.9466796875 3.75 101 4.9 103.5 5.15 103.5 5.85 103.5 6 103.05 5.1 102.15 5.1 101.95 5.75 101.15 5.75 100.95 5.65 99.9 4.75 99.9 4.20859375 99.9 3.95 100.2 3.15 98.979296875 3.15 98.25
M 7.25 91.75
L 7.05 91.8
Q 7.35 92.45 7.85 92.35 7.75 92.2 7.25 91.75
M 5.55 90.55
L 5.75 90.5
Q 5.4 89.8 5.65 88.75 5.1 88.95 5.1 89.85 5.1 90.5 5.55 90.55
M 3.75 82.8
Q 3.2 82.8 2.75 84.3 2.35 85.55 2.35 86.25 2.3 88.25 4.25 88.25 4.55 88.25 4.75 87.8 4.5 87 4 86.6 3.5 86.2 3.5 86.1 4.4 83.7 4.55 83.25 4.2 82.8 3.75 82.8
M 9.35 74.85
L 10.1 75.6
Q 10.75 75.05 10.75 74.35 10.75 74.05 10.5 73.85 9.35 74.25 9.35 74.85
M 9.65 72
Q 9.5 71.35 9.35 71.15
L 9.15 71.15
Q 9.15 71.75 9.55 72.1
L 9.65 72
M 9.5 65.3
Q 9.5 65.6 9.85 66.1 10.3 66.85 10.95 66.85 11.55 66.85 11.8 66.65
L 11.8 66.5
Q 11.8333984375 66.75 11.9 66.65 12.5 66.65 12.8 66.6
L 13 66.25 12.85 65.85 12.4 65.75
Q 12.1 65.75 11.85 65.9
L 11.8 66
Q 10.8443359375 63.9916015625 10.25 63.1 9.5 63.4 9.5 65.3
M 6.2 61
Q 5.45 58 5.65 55.9
L 5.5 55.9
Q 5.5 57.15 5.25 59.55 5.25 60.7 7.3 66.15
L 7.55 66.1
Q 6.65 62.75 6.2 61
M 3.75 51.3
Q 3.7 50.3 3.5 50.05
L 3.25 50.05
Q 3.05 52.3 4.4 52.3 4.7 52.3 5.5 52.1 4 52.2 3.75 51.3
M 8.75 54.5
Q 8.55 54.1 8.25 54 8.25 54.05 7.85 54.05
L 7.8 54.45
Q 7.8 54.7 8.25 54.9 8.55 54.85 8.75 54.5
M 5.5 52
Q 6 52 6.25 51.75 6.15 51.65 5.8 50.75
L 5.5 50.75
Q 5.4 51 5.4 51.25 5.4 51.9 5.5 52
M 26 68.25
Q 25.25 67.5 25.05 67.5 24.6 67.65 24.5 67.65 24.4 68.05 24.4 68.25 24.4 68.9 24.5 68.85
L 25.2 69
Q 25.8 69 26 68.8
L 26 68.25
M 30 57.15
L 29.75 56.75
Q 28.9 57.15 28.9 57.4 28.9 57.7 29.35 57.85 29.9 57.6 30 57.15
M 22.4 52.75
L 21.75 52.75
Q 21.25 52.75 21.25 53.25 21.4 53.5 21.85 53.5 22.45 53.5 22.8 53.15 22.4 52.85 22.4 52.75
M 28.5 54
Q 27.75 54.35 27.6 55.45 27.55 56.05 27.5 57.25
L 28.15 57.35
Q 28.65 57.35 28.9 56.75 28.3 55.85 28.3 54.85 28.6 54.15 28.5 54
M 29.4 55.55
Q 29.4 55.15 28.8 55.1
L 28.75 55.3
Q 29.25 55.55 29.4 55.55
M 36.3 61.4
Q 36.1 61 36.1 60.85
L 35.5 60.85
Q 35 61.05 35 61.6 35.1 61.75 35.75 62 36.2 61.8 36.3 61.4
M 34.75 60.5
Q 35.35 60.5 35.4 60.25 35.55 60.35 35.55 59.75 35.55 59.3 34.75 59.1 34 59.4 34 59.7 34 60.3 34.1 60.1 34.5 60.5 34.75 60.5
M 33.9 55.15
L 34.25 55 34.3 53.75
Q 33.3 53.4 33.3 54.95 33.3 55.55 33.4 55.25
L 33.9 55.15
M 37.25 48.65
L 36.85 48.65
Q 36.85 49 36.75 49.65 36.75 50.45 37.35 50.9 37.65 50.85 37.75 50.75 37.9 50.9 37.9 50.25 37.9 49.95 37.25 48.65
M 37 47.75
Q 36.95 47.15 37.15 46.75 35.9 45.9 35.9 47.7 35.9 48.3 36.1 48.1
L 36.75 48.1 37 47.75
M 33.5 45.1
Q 33.5 46.4 34.15 47.25
L 34.4 47.1 34.2 44.1
Q 34.1 42.3 35 41.1 33.5 40 33.5 45.1
M 29.5 48.9
Q 28.9 47.55 28.75 46.9 27.75 47.15 27.75 48.2
L 27.85 48.75
Q 28.05 49.25 28.7 49.25 29.3 49.25 29.5 48.9
M 29.6 47.55
L 29.75 47.25 29.75 46.6 29.5 46.6
Q 29.5 47.25 29.6 47.55
M 27 44.25
L 27.55 44.55
Q 27.95 44.4 28.1 44 28.1 43.4 27.9 43.25 27.4 43.35 27 44.25
M 9 48.55
Q 9.15 48.4 9.3 47.75 8.5 47.5 8.5 48.15 8.5 48.8 8.65 48.55
L 9 48.55
M 2 49.25
Q 2.25 49.15 2.25 49 2.1 46.5 2.75 44 2.6 44.1 2.05 45.4 1.5 46.7 1.5 47.1 1.5 48.4 2 49.25
M 5.25 41.8
Q 5.25 42.3 6.25 42.8 7.25 43.25 7.25 43.6 7.25 44.3 6.3 46 6.3 46.4 6.5 47.1
L 6.8 47
Q 7.9 43.55 7.9 42.6 7.9 41.7 6.5 41.6 7.05 41.25 7.05 40.6 7.05 40.15 6.1 40 5.25 40.7 5.25 41.8
M 10.5 26.5
Q 10.5 27.05 11 27.4 10.05 26.25 12.05 24.25 10.5 25.05 10.5 26.5
M 12.85 30.25
Q 12.25 29.5 12.25 29 12.25 28.8 12.6 27.4 11.65 28 11.65 29.75 11.65 30.25 11.8 30.4 12.65 30.4 12.85 30.25
M 13.25 18.3
Q 13.25 18.15 14.6 13.35 14.1 13.1 12.9 15.5 12.3 16.8 12.3 18.35 12.3 20.4 14.25 22.25 13.25 20.4 13.25 18.3
M 20.4 9.25
Q 21.4 7.9 21.65 6.85 20.8068359375 7.3640625 20.3 7.85 18.65 8.3244140625 18.65 6.15 19.15 4.9 19.15 4.25 19.15 3 20.15 2.35 17.75 2.15 17.75 6.25 17.75 6.3 17.8 7.55 18.05 8.75 19 8.75 19.1546875 8.75 19.9 8.3 19.6 8.8005859375 19.6 9.25 19.6 9.9 20.2 10.65 20.9 11.45 21.05 12.25 21.25 13.25 21.15 15.25
L 21.65 15.25
Q 21.75 14.65 21.75 13.35 21.75 12.35 21.1 10.95 20.4 9.5 20.4 9.25 Z"/>
</g>

<g id="dagger_0_Layer0_0_FILL">
<path fill="#000000" stroke="none" d="
M 87.25 52.2
L 87.3 52.2 87.3 51.95 87.25 51.95 87.25 51.9
Q 87.297265625 51.3126953125 84.35 42.25 81.4009765625 33.231640625 76.7 22.35 72.308984375 12.0310546875 68.55 4.8 68.3453125 4.4576171875 68.1 4.1 65.584765625 8.1419921875 60.85 18.75 55.5474609375 30.6888671875 48.65 51.95
L 48.65 51.95
Q 48.63984375 52.074609375 48.6 52.2
L 48.55 52.2
Q 48.5193359375 52.35 48.45 52.5
L 48.25 223.1
Q 47.7451171875 223.0958984375 47.3 223.1
L 47.3 223.55 9.6 223.55 9.6 237.55
Q 10.098828125 238.9033203125 11.45 241 12.943359375 243.290234375 21.15 243.9
L 45.85 243.75
Q 46.20078125 244.9615234375 47.35 247.45
L 48.3 247.45
Q 48.3978515625 247.50546875 48.45 247.5 48.9203125 247.6349609375 49.2 247.6 49.166796875 248.1767578125 49.45 250.7 49.7529296875 253.226953125 49.9 255.45 50.0626953125 257.6712890625 51.8 261.6 49.7345703125 265.965234375 51.7 271.3
L 51.55 272.05
Q 51.253515625 273.2765625 51 275.3 51.054296875 275.460546875 50.9 280.65 50.7970703125 285.8765625 51.7 288.3 52.6435546875 290.74765625 53.6 293.05 51.5791015625 297.6599609375 53 301.6 53.670703125 303.5529296875 53.95 303.95 51.74921875 310.68984375 54.85 313.55 54.8185546875 313.8974609375 54.8 314.2
L 54.75 314.2
Q 54.634375 317.11796875 55 318.2 55.4853515625 319.548828125 55.55 319.85 55.621484375 319.9013671875 55.7 319.9 55.6275390625 319.98671875 55.55 320.05 55.51953125 320.0703125 55.1 321.05 54.7298828125 322.0904296875 54.35 323.4 53.9703125 324.6982421875 53.6 327.25 53.2248046875 329.8490234375 54 332.75 54.7853515625 335.6935546875 56.05 337.5 57.3263671875 339.315625 62.85 341.65 68.40390625 343.9607421875 75.6 340.05 82.842578125 336.1458984375 82.35 328.75 81.9095703125 321.3591796875 80.95 320.3
L 81.75 319.85
Q 82.3693359375 314.970703125 81.85 314.35 81.3048828125 313.7556640625 81.1 313.75 82.4064453125 312.2361328125 82.8 309.85 83.1810546875 307.4638671875 82.85 305.8 82.5126953125 304.1357421875 82.05 303.25 81.9873046875 303.066015625 81.9 302.9 84.010546875 299.6662109375 83.3 296.5 82.6310546875 293.3125 82.55 292.95 84.4962890625 288.504296875 84.9 285.6 85.3375 282.754296875 84.5 279.45 83.6560546875 276.1435546875 83.3 274.3 83.004296875 272.4580078125 83.85 271.35 84.706640625 270.2392578125 85.15 268 85.18359375 267.926171875 85.2 267.85 85.5759765625 265.6677734375 84.45 261.75 84.7263671875 261.4119140625 85.7 259.4 86.0802734375 258.719921875 86.5 257.8 88.2291015625 254.37109375 87.55 250 87.3267578125 248.3609375 87.1 247.45
L 87.85 247.45
Q 89.0283203125 246.5052734375 90.7 243.8
L 115.2 243.95 115.2 244
Q 122.6904296875 243.3994140625 124.45 241 126.2798828125 238.65859375 126.4 235.45
L 126.4 223.05 87.3 223.05 87.25 52.2
M 85.8 52.2
Q 85.8783203125 52.362890625 85.9 52.5 85.936328125 54.650390625 85.95 56.9 85.9623046875 58.4697265625 85.95 60.1 85.793359375 81.1 85.95 124.2 85.976171875 125.45 86.05 175.6 86.1400390625 200.1734375 86.3 219.4 86.30546875 221.262890625 86.3 223.05
L 85.3 223.05
Q 85.43984375 223.0875 85.55 223.1
L 68.15 223.05 68.15 223
Q 64.4931640625 222.9796875 67.25 222.85
L 52.9 223 53.25 223.05
Q 50.7208984375 223.05390625 49.45 223.1 49.4681640625 221.0955078125 49.45 219.4 49.5505859375 209.3158203125 49.6 197.75 49.6564453125 187.27890625 49.7 175.6 49.773828125 125.45 49.75 124.2 49.9568359375 81.1 49.75 60.1 49.7876953125 58.4697265625 49.8 56.9 49.813671875 54.650390625 49.8 52.5 49.871875 52.3626953125 49.9 52.2
L 49.95 52.2
Q 49.9888671875 52.075 50 51.95
L 50 51.95
Q 57.101953125 29.6388671875 67.9 6.25 80.73984375 33.0017578125 85.75 51.95
L 85.75 51.95
Q 85.8166015625 52.0751953125 85.85 52.2
L 85.8 52.2
M 124.95 227.15
L 124.9 227.15
Q 124.921875 227.0876953125 124.9 226.45 124.9013671875 227.0751953125 124.9 227.15
L 124.85 227.15
Q 124.890625 227.440625 124.9 227.6 124.92578125 230.6953125 124.8 230.05 124.6736328125 232.2541015625 124.35 236.15 123.918359375 241.4109375 118.1 241.95 115.1638671875 242.226171875 113.7 242.15 113.7572265625 242.1927734375 113.8 242.2
L 22.2 242.2
Q 20.3701171875 242.1193359375 17.7 241.85 11.2916015625 241.1779296875 11.25 235.8 11.23125 231.8005859375 11.15 229.6 11.0740234375 229.2017578125 11.05 228.45 11.065625 228.1294921875 11.05 227.85 11.0685546875 227.527734375 11.05 227.15
L 11.05 227.15 11.05 224.55 117.95 224.6
Q 118.55078125 224.581640625 119.15 224.55 119.41484375 224.591015625 119.65 224.6
L 124.95 224.6 124.95 227.15
M 82.45 243.7
Q 84.06640625 243.7408203125 85.7 243.75 87.208984375 243.7447265625 88.7 243.75 88.5775390625 244.3056640625 88.4 245.05 87.8021484375 245.5462890625 88 245.8 88.2490234375 246.051953125 87.2 246.1 86.9763671875 246.1474609375 85.7 246.15 84.5447265625 246.186328125 82.45 246.2 77.63359375 246.2076171875 68.05 246.2 49.8947265625 246.1822265625 48.45 246.2 48.1880859375 246.2228515625 47.9 246.2 47.575 244.745703125 47.3 243.8 47.285546875 243.7998046875 47.25 243.75
L 47.3 243.75 47.3 243.75
Q 51.606640625 243.7333984375 55.65 243.7 62.084375 243.70703125 67.85 243.7 68.012890625 243.700390625 68.15 243.7 74.8626953125 243.7095703125 82.45 243.7
M 90.85 243.55
L 90.9 243.5 91.1 243.5 90.85 243.55
M 85.7 255.15
Q 85.3892578125 257.2697265625 84.6 258.6 83.186328125 261.016796875 83.65 262.9 83.7177734375 263.109765625 83.75 263.3 83.7576171875 264.5490234375 84.1 266.55 83.9962890625 267.0685546875 83.75 267.85 83.2 269.778125 81.85 273.25 81.8701171875 273.5330078125 82.2 275.35
L 82.35 275.95
Q 84.1623046875 285.7099609375 82.6 288.6 81.6529296875 290.4431640625 81.35 291.35 81.38125 291.32578125 81.4 291.3 81.5041015625 293.226953125 81.6 293.65 81.6384765625 294.768359375 82.45 298.55 82.2359375 299.2974609375 81.65 300.3 81.3318359375 300.90859375 81.1 301.35 80.971875 301.3814453125 80.8 301.4
L 80.6 302.05
Q 80.6810546875 302.15234375 80.75 302.25 80.7181640625 302.3716796875 80.7 302.45 80.7162109375 303.5296875 81.45 307.75 81.473828125 308.25703125 81.3 310.75 80.357421875 312.6548828125 79.9 313.6
L 56.1 313.6
Q 55.6279296875 312.576171875 54.55 310.4 54.3140625 309.9693359375 54.15 309.45 54.0423828125 308.7703125 54.05 307.65 54.8658203125 304.32109375 55.1 303.15 55.1978515625 302.76796875 55.2 302.7
L 55.15 302.65
Q 55.1970703125 302.6091796875 55.2 302.55
L 55.2 302.5
Q 54.8216796875 302.033984375 54.2 301.15 54.1861328125 301.1431640625 54.15 301.1
L 54.1 301.1
Q 53.77578125 300.7287109375 53.55 300.35 53.4740234375 299.9533203125 53.45 298.95 54.2791015625 295.3521484375 54.4 294 54.813671875 292.4669921875 54.8 292.4 54.7580078125 292.227734375 54.7 292.05 52.1267578125 282.7068359375 52.1 279.85 52.1287109375 277.149609375 52.9 274.25 53.4646484375 272.1716796875 53.6 271.55 54.00625 272.518359375 53.65 271.55 53.4966796875 271.18671875 53.25 270.6 52.2626953125 268.0869140625 52 267.45 51.936328125 266.9453125 51.9 266.6 52.1423828125 265.346875 52.2 264.35 52.3556640625 264.1197265625 52.5 263.85 52.834375 263.331640625 53 262.85
L 53 262.85 52.95 260.8
Q 51.7318359375 258.068359375 51.05 255.4 51.00625 255.005859375 50.95 254.6 50.9291015625 254.1087890625 50.9 253.6 50.687109375 250.0185546875 51.1 247.45
L 85.75 247.45
Q 86.008984375 248.2775390625 86 251.5 86.0115234375 253.57421875 85.7 255.15
M 70.1 315
L 70.1 315 80.65 315.05
Q 80.8052734375 315.05 80.95 315.05
L 80.95 315.05
Q 80.93671875 315.758984375 80.9 316.5 80.88359375 316.53671875 80.85 316.55
L 80.85 316.65 80.55 319.3
Q 80.5556640625 318.7021484375 80.5 318.95
L 80.45 318.95
Q 78.5361328125 318.9677734375 76.8 318.95 76.2259765625 318.952734375 75.65 318.95
L 75.75 318.95 56.45 318.95
Q 55.9283203125 317.2095703125 55.9 316.35 55.9255859375 315.64140625 55.85 315.05
L 70.1 315
M 71.75 320
L 79.5 320.35
Q 79.5607421875 320.77734375 80.35 323.2 81.2537109375 325.8173828125 81.25 327.65 81.24375 338.85703125 68 341.05 58.196484375 340.8603515625 55.35 331.9 54.8287109375 329.745703125 54.75 327.35 54.841796875 325.6111328125 55.65 323.2 56.078515625 321.9603515625 56.3 321.25 56.4798828125 320.69765625 56.55 320.35 58.4216796875 320.12734375 60 319.95 64.29765625 320.0109375 71.75 320 Z"/>

<path fill="#FFFFFF" stroke="none" d="
M 72.4 303.1
Q 73.116015625 303.0919921875 76.8 301.95 80.598046875 300.7728515625 81.25 300.25 80.755859375 299.8642578125 78.65 300.7 75.85234375 301.7826171875 73.4 301.75
L 60.15 301.6 54.8 301.15 56.1 301.35
Q 55.0103515625 301.228515625 54.4 301.15 57.5544921875 302.137890625 57.7 302.2 59.2302734375 303.0986328125 72.4 303.1
M 76.65 304.15
Q 76.071484375 303.791015625 72.5 305.65 68.73828125 307.6814453125 68.2 307.9 58.2306640625 311.8169921875 57.1 312.7 57.2763671875 313.124609375 57.1 313.15 58.11015625 313.2154296875 68.5 309 74.9923828125 306.447265625 76.65 304.15
M 78.05 278.9
Q 74.3294921875 282.8046875 71.85 283.65 69.2701171875 284.55703125 62.65 287.9 57.9810546875 290.332421875 56.15 292.3 65.830078125 289.034765625 72.7 284.9 79.551171875 280.8171875 81.65 275.95 80.437109375 276.451171875 78.05 278.9
M 55.4 293.35
Q 55.2171875 293.3802734375 55.2 293.45 55.251953125 293.57265625 55.2 293.65 55.2248046875 293.6947265625 55.2 293.7 57.9138671875 295.9427734375 64.35 295.65 69.9181640625 295.6826171875 75.5 294.6 78.843359375 293.9517578125 80.65 292.15 78.5591796875 292.41015625 74.2 293.05 65.178125 294.3791015625 61.95 294.35 56.764453125 293.3265625 55.8 293.3 55.541015625 293.3236328125 55.4 293.35
M 80.9 271.3
Q 80.2146484375 271.5220703125 78.8 271.85 75.803125 272.573828125 65.9 272.55 65.040625 272.571875 54.8 271.65 56.2447265625 272.3265625 58.15 272.75 63.36796875 273.8794921875 65.9 273.85 66.62421875 273.8712890625 72.35 273.45 78.09921875 273.0849609375 78.35 273 80.5583984375 272.3462890625 80.9 271.3
M 82.75 261.7
L 82.8 261.7 82.4 261.45
Q 81.0646484375 261.4916015625 78.85 261.8
L 78.15 261.65
Q 74.4197265625 262.7078125 66.15 262.85 57.73671875 262.803125 55.95 262.8 55.0189453125 262.5783203125 54.6 262.55 56.4369140625 263.6701171875 73.2 263.65 76.505078125 263.6701171875 78.5 262.55 80.1875 262.50078125 82.45 261.8 82.609765625 261.745703125 82.75 261.7 Z"/>

<path fill="#484848" stroke="none" d="
M 67.25 123.45
Q 66.82265625 149.0083984375 66.95 173.8 67.0990234375 200.9875 67.55 219.4 67.6048828125 220.1447265625 67.6 220.85
L 67.25 123.45 Z"/>
</g>

<g id="texture_0_Layer0_0_FILL">
<path fill="#FFFFFF" stroke="none" d="
M 111.85 105.85
L 114.4 103.3 114.4 98.2 106.75 105.85 111.85 105.85
M 37.8 19.25
L 32.75 19.25 27.15 24.8 27.15 29.9 37.8 19.25
M 27.15 19.25
L 27.15 19.85 27.8 19.25 27.15 19.25
M 78 19.25
L 72.9 19.25 27.15 65 27.15 70.05 78 19.25
M 67.95 19.25
L 62.85 19.25 27.15 54.95 27.15 60.05 67.95 19.25
M 57.9 19.25
L 52.8 19.25 27.15 44.9 27.15 50 57.9 19.25
M 47.85 19.25
L 42.75 19.25 27.15 34.85 27.15 39.95 47.85 19.25
M 114.4 53.1
L 114.4 48 56.55 105.85 61.65 105.85 114.4 53.1
M 114.4 63.15
L 114.4 58.05 66.6 105.85 71.7 105.85 114.4 63.15
M 114.4 83.2
L 114.4 78.15 86.7 105.85 91.75 105.85 114.4 83.2
M 114.4 73.2
L 114.4 68.1 76.65 105.85 81.75 105.85 114.4 73.2
M 114.4 93.25
L 114.4 88.15 96.7 105.85 101.8 105.85 114.4 93.25
M 114.4 43.05
L 114.4 37.95 46.5 105.85 51.6 105.85 114.4 43.05
M 88.05 19.25
L 82.95 19.25 27.15 75 27.15 80.1 88.05 19.25
M 98.05 19.25
L 93 19.25 27.15 85.05 27.15 90.15 98.05 19.25
M 108.1 19.25
L 103 19.25 27.15 95.1 27.15 100.2 108.1 19.25
M 114.4 19.25
L 113.05 19.25 27.15 105.15 27.15 105.65 27.35 105.85 31.55 105.85 114.4 22.95 114.4 19.25
M 114.4 33
L 114.4 27.9 36.5 105.85 41.55 105.85 114.4 33 Z"/>
</g>

<g id="Intro_0_Layer0_0_FILL">
<path fill="#822798" stroke="none" d="
M 114.75 -1
L 3 -1
Q -1 -1 -1 3
L -1 114.75
Q -1 118.75 3 118.75
L 114.75 118.75
Q 118.75 118.75 118.75 114.75
L 118.75 3
Q 118.75 -1 114.75 -1
M 114.75 1
Q 116.75 1 116.75 3
L 116.75 114.75
Q 116.75 116.75 114.75 116.75
L 3 116.75
Q 1 116.75 1 114.75
L 1 3
Q 1 1 3 1
L 114.75 1 Z"/>
</g>
</defs>

<g transform="matrix( 1.0106201171875, 0, 0, 1.0106201171875, 4,3.5) ">
<g transform="matrix( 1, 0, 0, 1, 0,0) ">
<use xlink:href="#Intro_0_Layer6_0_FILL"/>
</g>

<g transform="matrix( 1, 0, 0, 1, 0,0) ">
<use xlink:href="#Intro_0_Layer5_0_FILL"/>
</g>

<g transform="matrix( 1, 0, 0, 1, 0,0) ">
<use xlink:href="#Intro_0_Layer4_0_FILL"/>
</g>

<mask id="Mask_Mask_1">
<g transform="matrix( 1, 0, 0, 1, 0,0) ">
<use xlink:href="#Mask_Intro_0_3_MASK_0_FILL"/>
</g>
</mask>

<g mask="url(#Mask_Mask_1)">
<g transform="matrix( 0.320556640625, -0.320556640625, 0.320556640625, 0.320556640625, -20.85,24.15) ">
<g transform="matrix( 1, 0, 0, 1, 0,0) ">
<use xlink:href="#dagger_0_Layer2_0_FILL"/>
</g>

<g transform="matrix( 1, 0, 0, 1, 48.2,6.4) ">
<g transform="matrix( 1, 0, 0, 1, 0,0) ">
<use filter="url(#Filter_1)" xlink:href="#blood_0_Layer1_0_FILL"/>
</g>

<g transform="matrix( 1, 0, 0, 1, 0,0) ">
<use filter="url(#Filter_1)" xlink:href="#blood_0_Layer0_0_FILL"/>
</g>
</g>

<g transform="matrix( 1, 0, 0, 1, 0,0) ">
<use xlink:href="#dagger_0_Layer0_0_FILL"/>
</g>
</g>
</g>

<g transform="matrix( 1.35797119140625, 0, 0, 1.35797119140625, -30.8,-42.35) ">
<g transform="matrix( 1, 0, 0, 1, -4.55,11.8) ">
<use filter="url(#Filter_2)" xlink:href="#texture_0_Layer0_0_FILL"/>
</g>
</g>

<g transform="matrix( 1, 0, 0, 1, 0,0) ">
<use xlink:href="#Intro_0_Layer0_0_FILL"/>
</g>
</g>
</svg>
